C:\Users\Victor\source\repos\HangfreinAspNetCore\HangfreinAspNetCore
--output-path=obj\Release\netcoreapp2.0\
--application-name=HangfreinAspNetCore
--content-root=C:\Users\Victor\source\repos\HangfreinAspNetCore\HangfreinAspNetCore
--file=C:\Users\Victor\source\repos\HangfreinAspNetCore\HangfreinAspNetCore\Views\Home\About.cshtml
--file=C:\Users\Victor\source\repos\HangfreinAspNetCore\HangfreinAspNetCore\Views\Home\Contact.cshtml
--file=C:\Users\Victor\source\repos\HangfreinAspNetCore\HangfreinAspNetCore\Views\Home\Index.cshtml
--file=C:\Users\Victor\source\repos\HangfreinAspNetCore\HangfreinAspNetCore\Views\Shared\Error.cshtml
--file=C:\Users\Victor\source\repos\HangfreinAspNetCore\HangfreinAspNetCore\Views\Shared\_Layout.cshtml
--file=C:\Users\Victor\source\repos\HangfreinAspNetCore\HangfreinAspNetCore\Views\Shared\_ValidationScriptsPartial.cshtml
--file=C:\Users\Victor\source\repos\HangfreinAspNetCore\HangfreinAspNetCore\Views\_ViewImports.cshtml
--file=C:\Users\Victor\source\repos\HangfreinAspNetCore\HangfreinAspNetCore\Views\_ViewStart.cshtml
