[2021-09-27 03:35:13][Info] hami.Controllers.AuthenticationServiceController AuthenticationService-SignIn 
[2021-09-27 03:35:15][Info] EnsembleCRM.Controllers.GoogleServiceController CustomGAReport 
[2021-09-27 03:35:15][Info] EnsembleCRM.Controllers.GoogleServiceController GetMmberInfo 
[2021-09-27 03:35:15][Info] EnsembleCRM.Controllers.GoogleServiceController GetGAReport 
[2021-09-27 03:35:15][Error] hami.Controllers.AuthenticationServiceController System.Data.SqlClient.SqlException (0x80131904): 無效的物件名稱 'cdp_options'。
   at System.Data.SqlClient.SqlConnection.OnError(SqlException exception, Boolean breakConnection, Action`1 wrapCloseInAction)
   at System.Data.SqlClient.SqlInternalConnection.OnError(SqlException exception, Boolean breakConnection, Action`1 wrapCloseInAction)
   at System.Data.SqlClient.TdsParser.ThrowExceptionAndWarning(TdsParserStateObject stateObj, Boolean callerHasConnectionLock, Boolean asyncClose)
   at System.Data.SqlClient.TdsParser.TryRun(RunBehavior runBehavior, SqlCommand cmdHandler, SqlDataReader dataStream, BulkCopySimpleResultSet bulkCopyHandler, TdsParserStateObject stateObj, Boolean& dataReady)
   at System.Data.SqlClient.SqlDataReader.TryConsumeMetaData()
   at System.Data.SqlClient.SqlDataReader.get_MetaData()
   at System.Data.SqlClient.SqlCommand.FinishExecuteReader(SqlDataReader ds, RunBehavior runBehavior, String resetOptionsString)
   at System.Data.SqlClient.SqlCommand.RunExecuteReaderTds(CommandBehavior cmdBehavior, RunBehavior runBehavior, Boolean returnStream, Boolean async, Int32 timeout, Task& task, Boolean asyncWrite, SqlDataReader ds)
   at System.Data.SqlClient.SqlCommand.RunExecuteReader(CommandBehavior cmdBehavior, RunBehavior runBehavior, Boolean returnStream, TaskCompletionSource`1 completion, Int32 timeout, Task& task, Boolean asyncWrite, String method)
   at System.Data.SqlClient.SqlCommand.RunExecuteReader(CommandBehavior cmdBehavior, RunBehavior runBehavior, Boolean returnStream, String method)
   at System.Data.SqlClient.SqlCommand.ExecuteReader(CommandBehavior behavior)
   at System.Data.SqlClient.SqlCommand.ExecuteDbDataReader(CommandBehavior behavior)
   at System.Data.Common.DbCommand.System.Data.IDbCommand.ExecuteReader(CommandBehavior behavior)
   at Dapper.SqlMapper.ExecuteReaderWithFlagsFallback(IDbCommand cmd, Boolean wasClosed, CommandBehavior behavior) in /_/Dapper/SqlMapper.cs:line 1055
   at Dapper.SqlMapper.QueryImpl[T](IDbConnection cnn, CommandDefinition command, Type effectiveType)+MoveNext() in /_/Dapper/SqlMapper.cs:line 1083
   at System.Collections.Generic.List`1..ctor(IEnumerable`1 collection)
   at System.Linq.Enumerable.ToList[TSource](IEnumerable`1 source)
   at Dapper.SqlMapper.Query[T](IDbConnection cnn, String sql, Object param, IDbTransaction transaction, Boolean buffered, Nullable`1 commandTimeout, Nullable`1 commandType) in /_/Dapper/SqlMapper.cs:line 725
   at hami.Controllers.AuthenticationServiceController.BasicSetting(String siteName) in C:\Users\adrian\Documents\repos\HAMI\Controllers\AuthenticationServiceController.cs:line 106
ClientConnectionId:0019841d-7530-4518-a693-b3246612b010
Error Number:208,State:1,Class:16 
[2021-09-27 04:18:14][Info] EnsembleCRM.Controllers.GoogleServiceController GA-Report 
[2021-09-27 04:18:14][Info] EnsembleCRM.Controllers.GoogleServiceController GetMmberInfo 
[2021-09-27 04:18:14][Info] EnsembleCRM.Controllers.GoogleServiceController GetGAReport 
[2021-09-27 04:18:18][Info] EnsembleCRM.Controllers.GoogleServiceController GetGAReport 
[2021-09-27 04:18:25][Info] EnsembleCRM.Controllers.GoogleServiceController GA-Report 
[2021-09-27 04:18:25][Info] EnsembleCRM.Controllers.GoogleServiceController GetMmberInfo 
[2021-09-27 04:18:25][Info] EnsembleCRM.Controllers.GoogleServiceController GetGAReport 
[2021-09-27 04:18:26][Error] EnsembleCRM.Controllers.GoogleServiceController System.InvalidOperationException: Nullable object must have a value.
   at System.Nullable`1.get_Value()
   at EnsembleCRM.Controllers.GoogleServiceController.GetGAReport(GetReportsRequest request, AnalyticsReportingService svc, Boolean limit) in C:\Users\adrian\Documents\repos\HAMI\Controllers\GoogleServiceController.cs:line 888 
[2021-09-27 04:18:26][Info] EnsembleCRM.Controllers.GoogleServiceController GetGAReport 
[2021-09-27 04:18:43][Info] EnsembleCRM.Controllers.GoogleServiceController GA-Report 
[2021-09-27 04:18:43][Info] EnsembleCRM.Controllers.GoogleServiceController GetMmberInfo 
[2021-09-27 04:18:43][Info] EnsembleCRM.Controllers.GoogleServiceController GetGAReport 
[2021-09-27 04:18:44][Error] EnsembleCRM.Controllers.GoogleServiceController The service analyticsreporting has thrown an exception: Google.GoogleApiException: Google.Apis.Requests.RequestError
Invalid Date Range: end-date 2021-09-27 precedes start-date 2021-09-28 [400]
Errors [
	Message[Invalid Date Range: end-date 2021-09-27 precedes start-date 2021-09-28] Location[ - ] Reason[badRequest] Domain[global]
]

   at Google.Apis.Requests.ClientServiceRequest`1.ParseResponse(HttpResponseMessage response)
   at Google.Apis.Requests.ClientServiceRequest`1.ExecuteAsync(CancellationToken cancellationToken)
   at Google.Apis.Requests.ClientServiceRequest`1.ExecuteAsync()
   at EnsembleCRM.Controllers.GoogleServiceController.GetGAReport(GetReportsRequest request, AnalyticsReportingService svc, Boolean limit) in C:\Users\adrian\Documents\repos\HAMI\Controllers\GoogleServiceController.cs:line 875 
[2021-09-27 04:18:44][Info] EnsembleCRM.Controllers.GoogleServiceController GetGAReport 
[2021-09-27 04:19:12][Info] EnsembleCRM.Controllers.GoogleServiceController GA-Report 
[2021-09-27 04:19:12][Info] EnsembleCRM.Controllers.GoogleServiceController GetMmberInfo 
[2021-09-27 04:19:12][Info] EnsembleCRM.Controllers.GoogleServiceController GetGAReport 
[2021-09-27 04:19:14][Info] EnsembleCRM.Controllers.GoogleServiceController GetGAReport 
[2021-09-27 04:19:30][Info] EnsembleCRM.Controllers.GoogleServiceController GA-Report 
[2021-09-27 04:19:30][Info] EnsembleCRM.Controllers.GoogleServiceController GetMmberInfo 
[2021-09-27 04:19:30][Info] EnsembleCRM.Controllers.GoogleServiceController GetGAReport 
[2021-09-27 04:19:33][Info] EnsembleCRM.Controllers.GoogleServiceController GetGAReport 
[2021-09-27 04:26:46][Info] EnsembleCRM.Program 啟動程式 
[2021-09-27 04:27:27][Info] EnsembleCRM.Controllers.GoogleServiceController GA-Report 
[2021-09-27 04:27:27][Info] EnsembleCRM.Controllers.GoogleServiceController GetMmberInfo 
[2021-09-27 04:27:28][Info] EnsembleCRM.Controllers.GoogleServiceController GetGAReport 
[2021-09-27 04:27:30][Info] EnsembleCRM.Controllers.GoogleServiceController GetGAReport 
[2021-09-27 04:38:47][Info] EnsembleCRM.Program 啟動程式 
[2021-09-27 04:39:27][Info] EnsembleCRM.Controllers.GoogleServiceController CustomGAReport 
[2021-09-27 04:39:27][Info] EnsembleCRM.Controllers.GoogleServiceController CustomGAReport 
[2021-09-27 04:39:27][Info] EnsembleCRM.Controllers.GoogleServiceController GetMmberInfo 
[2021-09-27 04:39:27][Info] EnsembleCRM.Controllers.GoogleServiceController GetMmberInfo 
[2021-09-27 04:39:27][Info] EnsembleCRM.Controllers.GoogleServiceController GetGAReport 
[2021-09-27 04:39:27][Info] EnsembleCRM.Controllers.GoogleServiceController GetGAReport 
[2021-09-27 04:50:33][Info] EnsembleCRM.Controllers.GoogleServiceController GA-Report 
[2021-09-27 04:50:33][Info] EnsembleCRM.Controllers.GoogleServiceController GetMmberInfo 
[2021-09-27 04:52:25][Info] EnsembleCRM.Controllers.GoogleServiceController GetGAReport 
[2021-09-27 04:52:28][Info] EnsembleCRM.Controllers.GoogleServiceController GetGAReport 
[2021-09-27 04:53:52][Info] EnsembleCRM.Controllers.GoogleServiceController GA-Report 
[2021-09-27 04:53:52][Info] EnsembleCRM.Controllers.GoogleServiceController GetMmberInfo 
[2021-09-27 04:54:12][Info] EnsembleCRM.Controllers.GoogleServiceController GetGAReport 
[2021-09-27 04:54:14][Error] EnsembleCRM.Controllers.GoogleServiceController System.InvalidOperationException: Nullable object must have a value.
   at System.Nullable`1.get_Value()
   at EnsembleCRM.Controllers.GoogleServiceController.GetGAReport(GetReportsRequest request, AnalyticsReportingService svc, Boolean limit) in C:\Users\adrian\Documents\repos\HAMI\Controllers\GoogleServiceController.cs:line 888 
[2021-09-27 04:54:14][Info] EnsembleCRM.Controllers.GoogleServiceController GetGAReport 
[2021-09-27 05:02:37][Info] EnsembleCRM.Controllers.GoogleServiceController GA-Report 
[2021-09-27 05:02:37][Info] EnsembleCRM.Controllers.GoogleServiceController GetMmberInfo 
[2021-09-27 05:02:41][Info] EnsembleCRM.Controllers.GoogleServiceController GetGAReport 
[2021-09-27 05:11:12][Info] EnsembleCRM.Program 啟動程式 
[2021-09-27 05:11:18][Info] EnsembleCRM.Controllers.GoogleServiceController GA-Report 
[2021-09-27 05:11:18][Info] EnsembleCRM.Controllers.GoogleServiceController GetMmberInfo 
[2021-09-27 05:11:22][Info] EnsembleCRM.Controllers.GoogleServiceController GetGAReport 
[2021-09-27 05:12:39][Error] EnsembleCRM.Controllers.GoogleServiceController System.InvalidOperationException: Nullable object must have a value.
   at System.Nullable`1.get_Value()
   at EnsembleCRM.Controllers.GoogleServiceController.GetGAReport(GetReportsRequest request, AnalyticsReportingService svc, Boolean limit) in C:\Users\adrian\Documents\repos\HAMI\Controllers\GoogleServiceController.cs:line 888 
[2021-09-27 05:12:39][Info] EnsembleCRM.Controllers.GoogleServiceController GetGAReport 
[2021-09-27 05:13:10][Info] EnsembleCRM.Controllers.GoogleServiceController GA-Report 
[2021-09-27 05:13:10][Info] EnsembleCRM.Controllers.GoogleServiceController GetMmberInfo 
[2021-09-27 05:13:16][Info] EnsembleCRM.Controllers.GoogleServiceController GetGAReport 
[2021-09-27 05:13:21][Error] EnsembleCRM.Controllers.GoogleServiceController System.InvalidOperationException: Nullable object must have a value.
   at System.Nullable`1.get_Value()
   at EnsembleCRM.Controllers.GoogleServiceController.GetGAReport(GetReportsRequest request, AnalyticsReportingService svc, Boolean limit) in C:\Users\adrian\Documents\repos\HAMI\Controllers\GoogleServiceController.cs:line 888 
[2021-09-27 05:13:21][Info] EnsembleCRM.Controllers.GoogleServiceController GetGAReport 
[2021-09-27 05:14:11][Info] EnsembleCRM.Controllers.GoogleServiceController GA-Report 
[2021-09-27 05:14:11][Info] EnsembleCRM.Controllers.GoogleServiceController GetMmberInfo 
[2021-09-27 05:14:11][Info] EnsembleCRM.Controllers.GoogleServiceController GetGAReport 
[2021-09-27 05:15:04][Error] EnsembleCRM.Controllers.GoogleServiceController System.InvalidOperationException: Nullable object must have a value.
   at System.Nullable`1.get_Value()
   at EnsembleCRM.Controllers.GoogleServiceController.GetGAReport(GetReportsRequest request, AnalyticsReportingService svc, Boolean limit) in C:\Users\adrian\Documents\repos\HAMI\Controllers\GoogleServiceController.cs:line 888 
[2021-09-27 05:15:04][Info] EnsembleCRM.Controllers.GoogleServiceController GetGAReport 
[2021-09-27 05:24:54][Info] EnsembleCRM.Program 啟動程式 
[2021-09-27 05:25:11][Info] EnsembleCRM.Controllers.GoogleServiceController GA-Report 
[2021-09-27 05:25:11][Info] EnsembleCRM.Controllers.GoogleServiceController GetMmberInfo 
[2021-09-27 05:25:11][Info] EnsembleCRM.Controllers.GoogleServiceController GetGAReport 
[2021-09-27 05:25:20][Error] EnsembleCRM.Controllers.GoogleServiceController System.InvalidOperationException: Nullable object must have a value.
   at System.Nullable`1.get_Value()
   at EnsembleCRM.Controllers.GoogleServiceController.GetGAReport(GetReportsRequest request, AnalyticsReportingService svc, Boolean limit) in C:\Users\adrian\Documents\repos\HAMI\Controllers\GoogleServiceController.cs:line 888 
[2021-09-27 05:25:20][Info] EnsembleCRM.Controllers.GoogleServiceController GetGAReport 
[2021-09-27 05:29:22][Info] EnsembleCRM.Program 啟動程式 
[2021-09-27 05:29:39][Info] EnsembleCRM.Controllers.GoogleServiceController GA-Report 
[2021-09-27 05:29:39][Info] EnsembleCRM.Controllers.GoogleServiceController GetMmberInfo 
[2021-09-27 05:29:39][Info] EnsembleCRM.Controllers.GoogleServiceController GetGAReport 
[2021-09-27 05:29:40][Error] EnsembleCRM.Controllers.GoogleServiceController System.InvalidOperationException: Nullable object must have a value.
   at System.Nullable`1.get_Value()
   at EnsembleCRM.Controllers.GoogleServiceController.GetGAReport(GetReportsRequest request, AnalyticsReportingService svc, Boolean limit) in C:\Users\adrian\Documents\repos\HAMI\Controllers\GoogleServiceController.cs:line 888 
[2021-09-27 05:29:40][Info] EnsembleCRM.Controllers.GoogleServiceController GetGAReport 
[2021-09-27 05:31:22][Info] EnsembleCRM.Controllers.GoogleServiceController GA-Report 
[2021-09-27 05:31:22][Info] EnsembleCRM.Controllers.GoogleServiceController GetMmberInfo 
[2021-09-27 05:31:22][Info] EnsembleCRM.Controllers.GoogleServiceController GetGAReport 
[2021-09-27 05:33:23][Error] EnsembleCRM.Controllers.GoogleServiceController System.InvalidOperationException: Nullable object must have a value.
   at System.Nullable`1.get_Value()
   at EnsembleCRM.Controllers.GoogleServiceController.GetGAReport(GetReportsRequest request, AnalyticsReportingService svc, Boolean limit) in C:\Users\adrian\Documents\repos\HAMI\Controllers\GoogleServiceController.cs:line 888 
[2021-09-27 05:33:23][Info] EnsembleCRM.Controllers.GoogleServiceController GetGAReport 
[2021-09-27 05:36:29][Info] EnsembleCRM.Controllers.GoogleServiceController GA-Report 
[2021-09-27 05:36:29][Info] EnsembleCRM.Controllers.GoogleServiceController GetMmberInfo 
[2021-09-27 05:36:29][Info] EnsembleCRM.Controllers.GoogleServiceController GetGAReport 
[2021-09-27 05:36:32][Error] EnsembleCRM.Controllers.GoogleServiceController System.InvalidOperationException: Nullable object must have a value.
   at System.Nullable`1.get_Value()
   at EnsembleCRM.Controllers.GoogleServiceController.GetGAReport(GetReportsRequest request, AnalyticsReportingService svc, Boolean limit) in C:\Users\adrian\Documents\repos\HAMI\Controllers\GoogleServiceController.cs:line 888 
[2021-09-27 05:36:32][Info] EnsembleCRM.Controllers.GoogleServiceController GetGAReport 
[2021-09-27 05:37:20][Info] EnsembleCRM.Controllers.GoogleServiceController GA-Report 
[2021-09-27 05:37:20][Info] EnsembleCRM.Controllers.GoogleServiceController GetMmberInfo 
[2021-09-27 05:37:20][Info] EnsembleCRM.Controllers.GoogleServiceController GetGAReport 
[2021-09-27 05:38:20][Error] EnsembleCRM.Controllers.GoogleServiceController System.InvalidOperationException: Nullable object must have a value.
   at System.Nullable`1.get_Value()
   at EnsembleCRM.Controllers.GoogleServiceController.GetGAReport(GetReportsRequest request, AnalyticsReportingService svc, Boolean limit) in C:\Users\adrian\Documents\repos\HAMI\Controllers\GoogleServiceController.cs:line 888 
[2021-09-27 05:38:20][Info] EnsembleCRM.Controllers.GoogleServiceController GetGAReport 
[2021-09-27 05:39:04][Info] EnsembleCRM.Controllers.GoogleServiceController GA-Report 
[2021-09-27 05:39:04][Info] EnsembleCRM.Controllers.GoogleServiceController GetMmberInfo 
[2021-09-27 05:39:04][Info] EnsembleCRM.Controllers.GoogleServiceController GetGAReport 
[2021-09-27 05:41:25][Error] EnsembleCRM.Controllers.GoogleServiceController System.InvalidOperationException: Nullable object must have a value.
   at System.Nullable`1.get_Value()
   at EnsembleCRM.Controllers.GoogleServiceController.GetGAReport(GetReportsRequest request, AnalyticsReportingService svc, Boolean limit) in C:\Users\adrian\Documents\repos\HAMI\Controllers\GoogleServiceController.cs:line 888 
[2021-09-27 05:41:25][Info] EnsembleCRM.Controllers.GoogleServiceController GetGAReport 
[2021-09-27 05:41:38][Info] EnsembleCRM.Controllers.GoogleServiceController GA-Report 
[2021-09-27 05:41:38][Info] EnsembleCRM.Controllers.GoogleServiceController GetMmberInfo 
[2021-09-27 05:41:38][Info] EnsembleCRM.Controllers.GoogleServiceController GetGAReport 
[2021-09-27 05:44:46][Info] EnsembleCRM.Program 啟動程式 
[2021-09-27 05:44:50][Info] EnsembleCRM.Controllers.GoogleServiceController GA-Report 
[2021-09-27 05:44:50][Info] EnsembleCRM.Controllers.GoogleServiceController GetMmberInfo 
[2021-09-27 05:44:51][Info] EnsembleCRM.Controllers.GoogleServiceController GetGAReport 
[2021-09-27 05:44:59][Info] EnsembleCRM.Controllers.GoogleServiceController GetGAReport 
[2021-09-27 07:57:24][Info] EnsembleCRM.Program 啟動程式 
[2021-09-27 07:57:54][Info] EnsembleCRM.Controllers.GoogleServiceController GA-Report 
[2021-09-27 07:57:54][Info] EnsembleCRM.Controllers.GoogleServiceController GetMmberInfo 
[2021-09-27 07:57:54][Info] EnsembleCRM.Controllers.GoogleServiceController GetGAReport 
[2021-09-27 07:57:57][Info] EnsembleCRM.Controllers.GoogleServiceController GetGAReport 
[2021-09-27 09:05:35][Info] EnsembleCRM.Controllers.GoogleServiceController GA-Report 
[2021-09-27 09:05:35][Info] EnsembleCRM.Controllers.GoogleServiceController GetMmberInfo 
[2021-09-27 09:05:59][Info] EnsembleCRM.Controllers.GoogleServiceController GetGAReport 
[2021-09-27 09:06:04][Info] EnsembleCRM.Controllers.GoogleServiceController GetGAReport 
[2021-09-27 09:20:01][Info] EnsembleCRM.Program 啟動程式 
[2021-09-27 09:20:22][Info] EnsembleCRM.Controllers.GoogleServiceController GA-Report 
[2021-09-27 09:20:22][Info] EnsembleCRM.Controllers.GoogleServiceController GetMmberInfo 
[2021-09-27 09:20:29][Info] EnsembleCRM.Controllers.GoogleServiceController GetGAReport 
[2021-09-27 09:20:32][Info] EnsembleCRM.Controllers.GoogleServiceController GetGAReport 
[2021-09-27 10:06:05][Info] EnsembleCRM.Program 啟動程式 
[2021-09-27 10:06:20][Info] EnsembleCRM.Controllers.GoogleServiceController GA-Report 
[2021-09-27 10:06:20][Info] EnsembleCRM.Controllers.GoogleServiceController GetMmberInfo 
[2021-09-27 10:06:20][Info] EnsembleCRM.Controllers.GoogleServiceController GetGAReport 
[2021-09-27 10:06:23][Info] EnsembleCRM.Controllers.GoogleServiceController GetGAReport 
[2021-09-27 10:22:18][Info] EnsembleCRM.Program 啟動程式 
[2021-09-27 10:22:21][Info] EnsembleCRM.Controllers.GoogleServiceController GA-Report 
[2021-09-27 10:22:21][Info] EnsembleCRM.Controllers.GoogleServiceController GetMmberInfo 
[2021-09-27 10:22:22][Info] EnsembleCRM.Controllers.GoogleServiceController GetGAReport 
[2021-09-27 10:22:24][Info] EnsembleCRM.Controllers.GoogleServiceController GetGAReport 
[2021-09-27 10:50:17][Info] EnsembleCRM.Controllers.GoogleServiceController CustomGAReport 
[2021-09-27 10:50:17][Info] EnsembleCRM.Controllers.GoogleServiceController CustomGAReport 
[2021-09-27 10:50:17][Info] EnsembleCRM.Controllers.GoogleServiceController GetMmberInfo 
[2021-09-27 10:50:17][Info] EnsembleCRM.Controllers.GoogleServiceController GetMmberInfo 
[2021-09-27 10:50:17][Info] EnsembleCRM.Controllers.GoogleServiceController GetGAReport 
[2021-09-27 10:50:17][Info] EnsembleCRM.Controllers.GoogleServiceController GetGAReport 
[2021-09-27 10:57:53][Info] EnsembleCRM.Controllers.GoogleServiceController CustomGAReport 
[2021-09-27 10:57:53][Info] EnsembleCRM.Controllers.GoogleServiceController GetMmberInfo 
[2021-09-27 10:57:53][Info] EnsembleCRM.Controllers.GoogleServiceController GetGAReport 
[2021-09-27 10:57:53][Info] EnsembleCRM.Controllers.GoogleServiceController CustomGAReport 
[2021-09-27 10:57:53][Info] EnsembleCRM.Controllers.GoogleServiceController GetMmberInfo 
[2021-09-27 10:57:53][Info] EnsembleCRM.Controllers.GoogleServiceController GetGAReport 
[2021-09-27 11:00:47][Info] EnsembleCRM.Controllers.GoogleServiceController CustomGAReport 
[2021-09-27 11:00:47][Info] EnsembleCRM.Controllers.GoogleServiceController GetMmberInfo 
[2021-09-27 11:00:47][Info] EnsembleCRM.Controllers.GoogleServiceController GetGAReport 
[2021-09-27 11:00:47][Info] EnsembleCRM.Controllers.GoogleServiceController CustomGAReport 
[2021-09-27 11:00:47][Info] EnsembleCRM.Controllers.GoogleServiceController GetMmberInfo 
[2021-09-27 11:00:47][Info] EnsembleCRM.Controllers.GoogleServiceController GetGAReport 
[2021-09-27 11:05:55][Info] EnsembleCRM.Controllers.GoogleServiceController CustomGAReport 
[2021-09-27 11:05:55][Info] EnsembleCRM.Controllers.GoogleServiceController GetMmberInfo 
[2021-09-27 11:05:55][Info] EnsembleCRM.Controllers.GoogleServiceController GetGAReport 
[2021-09-27 11:05:55][Info] EnsembleCRM.Controllers.GoogleServiceController CustomGAReport 
[2021-09-27 11:05:55][Info] EnsembleCRM.Controllers.GoogleServiceController GetMmberInfo 
[2021-09-27 11:05:55][Info] EnsembleCRM.Controllers.GoogleServiceController GetGAReport 
[2021-09-27 11:25:11][Info] EnsembleCRM.Helpers.MailHelpers <----RetrieveMail---> 
[2021-09-27 11:25:12][Info] EnsembleCRM.Helpers.MailHelpers 連線成功 
[2021-09-27 11:25:14][Info] EnsembleCRM.Helpers.MailHelpers 驗證登入 EMAIL 
[2021-09-27 11:25:16][Info] EnsembleCRM.Helpers.MailHelpers <---- Output File Path :C:\tealeafevents\EnsembleCRM\hami\temp\Hami_mallWebReferrerDomain~exportreporton_26Sep2021_17300020176969.csv--->C:\tealeafevents\EnsembleCRM\hami\temp\Hami_mallWebReferrerDomain~exportreporton_26Sep2021_17300020176969.csv 
[2021-09-27 11:25:16][Info] EnsembleCRM.Helpers.MailHelpers <---- Output File Path :C:\tealeafevents\EnsembleCRM\hami\temp\Hami_mall關鍵字搜尋結果頁First~exportreporton_26Sep2021_17300024331460.csv--->C:\tealeafevents\EnsembleCRM\hami\temp\Hami_mall關鍵字搜尋結果頁First~exportreporton_26Sep2021_17300024331460.csv 
[2021-09-27 11:25:17][Info] EnsembleCRM.Helpers.MailHelpers <---- Output File Path :C:\tealeafevents\EnsembleCRM\hami\temp\Hami_mall一次性操作購物流程步驟~exportreporton_26Sep2021_17300021490230.csv--->C:\tealeafevents\EnsembleCRM\hami\temp\Hami_mall一次性操作購物流程步驟~exportreporton_26Sep2021_17300021490230.csv 
[2021-09-27 11:25:17][Info] EnsembleCRM.Helpers.MailHelpers <---- Output File Path :C:\tealeafevents\EnsembleCRM\hami\temp\Hami_mallSession~exportreporton_26Sep2021_17300023485276.csv--->C:\tealeafevents\EnsembleCRM\hami\temp\Hami_mallSession~exportreporton_26Sep2021_17300023485276.csv 
[2021-09-27 11:25:17][Info] EnsembleCRM.Helpers.MailHelpers <---- Output File Path :C:\tealeafevents\EnsembleCRM\hami\temp\Hami_mall購物流程步驟~exportreporton_26Sep2021_17300024261777.csv--->C:\tealeafevents\EnsembleCRM\hami\temp\Hami_mall購物流程步驟~exportreporton_26Sep2021_17300024261777.csv 
[2021-09-27 11:25:18][Info] EnsembleCRM.Helpers.MailHelpers <---- Output File Path :C:\tealeafevents\EnsembleCRM\hami\temp\Hami_mall成功付款UTMSources~exportreporton_26Sep2021_17300038409258.csv--->C:\tealeafevents\EnsembleCRM\hami\temp\Hami_mall成功付款UTMSources~exportreporton_26Sep2021_17300038409258.csv 
[2021-09-27 11:25:18][Info] EnsembleCRM.Helpers.MailHelpers <---- Output File Path :C:\tealeafevents\EnsembleCRM\hami\temp\Hami_mall金額比較結帳前後~exportreporton_26Sep2021_17300022234066.csv--->C:\tealeafevents\EnsembleCRM\hami\temp\Hami_mall金額比較結帳前後~exportreporton_26Sep2021_17300022234066.csv 
[2021-09-27 11:25:18][Info] EnsembleCRM.Helpers.MailHelpers <---- Output File Path :C:\tealeafevents\EnsembleCRM\hami\temp\Hami_mall關鍵字搜尋結果目前沒有商品Firstvalue~exportreporton_26Sep2021_17300025531201.csv--->C:\tealeafevents\EnsembleCRM\hami\temp\Hami_mall關鍵字搜尋結果目前沒有商品Firstvalue~exportreporton_26Sep2021_17300025531201.csv 
[2021-09-27 11:25:19][Info] EnsembleCRM.Helpers.MailHelpers <---- Output File Path :C:\tealeafevents\EnsembleCRM\hami\temp\Hami_mall關鍵字搜尋結果頁Last~exportreporton_26Sep2021_17300027331898.csv--->C:\tealeafevents\EnsembleCRM\hami\temp\Hami_mall關鍵字搜尋結果頁Last~exportreporton_26Sep2021_17300027331898.csv 
[2021-09-27 11:25:19][Info] EnsembleCRM.Helpers.MailHelpers <---- Output File Path :C:\tealeafevents\EnsembleCRM\hami\temp\Hami_mallWebReferrerURL~exportreporton_26Sep2021_17300023926117.csv--->C:\tealeafevents\EnsembleCRM\hami\temp\Hami_mallWebReferrerURL~exportreporton_26Sep2021_17300023926117.csv 
[2021-09-27 11:25:20][Info] EnsembleCRM.Helpers.MailHelpers <---- Output File Path :C:\tealeafevents\EnsembleCRM\hami\temp\Hami_mall成功付款WebReferrerDomain~exportreporton_26Sep2021_17300022309873.csv--->C:\tealeafevents\EnsembleCRM\hami\temp\Hami_mall成功付款WebReferrerDomain~exportreporton_26Sep2021_17300022309873.csv 
[2021-09-27 11:25:20][Info] EnsembleCRM.Helpers.MailHelpers <---- Output File Path :C:\tealeafevents\EnsembleCRM\hami\temp\Hami_mallUTMsources~exportreporton_26Sep2021_17300026486795.csv--->C:\tealeafevents\EnsembleCRM\hami\temp\Hami_mallUTMsources~exportreporton_26Sep2021_17300026486795.csv 
[2021-09-27 11:25:20][Info] EnsembleCRM.Helpers.MailHelpers <---Mail Output Path---->0C:\tealeafevents\EnsembleCRM\hami\temp 
[2021-09-27 11:25:22][Info] EnsembleCRM.Helpers.CsvHelpers <--- Tealeaf Mail 匯入資料庫 --->0 成功 
