[2021-09-26 09:49:43][Info] EnsembleCRM.Program 啟動程式 
[2021-09-26 09:57:41][Info] EnsembleCRM.Program 啟動程式 
[2021-09-26 09:58:47][Info] EnsembleCRM.Program 啟動程式 
[2021-09-26 09:59:23][Info] EnsembleCRM.Program 啟動程式 
[2021-09-26 10:00:13][Info] EnsembleCRM.Helpers.MailHelpers <----RetrieveMail---> 
[2021-09-26 10:00:13][Info] EnsembleCRM.Helpers.MailHelpers 連線成功 
[2021-09-26 10:00:16][Info] EnsembleCRM.Helpers.MailHelpers 驗證登入 EMAIL 
[2021-09-26 10:00:57][Info] EnsembleCRM.Helpers.MailHelpers <---Mail Output Path---->0C:\tealeafevents\EnsembleCRM\hami\temp 
[2021-09-26 10:00:57][Info] EnsembleCRM.Helpers.CsvHelpers <--- Tealeaf Mail 匯入資料庫 --->0 成功 
[2021-09-26 10:01:26][Info] EnsembleCRM.Helpers.MailHelpers <----RetrieveMail---> 
[2021-09-26 10:01:27][Info] EnsembleCRM.Helpers.MailHelpers 連線成功 
[2021-09-26 10:01:29][Info] EnsembleCRM.Helpers.MailHelpers 驗證登入 EMAIL 
[2021-09-26 10:05:35][Info] EnsembleCRM.Program 啟動程式 
[2021-09-26 10:05:47][Info] EnsembleCRM.Helpers.MailHelpers <----RetrieveMail---> 
[2021-09-26 10:05:48][Info] EnsembleCRM.Helpers.MailHelpers 連線成功 
[2021-09-26 10:05:50][Info] EnsembleCRM.Helpers.MailHelpers 驗證登入 EMAIL 
[2021-09-26 10:06:32][Info] EnsembleCRM.Helpers.MailHelpers <---Mail Output Path---->0C:\tealeafevents\EnsembleCRM\hami\temp 
[2021-09-26 10:06:32][Info] EnsembleCRM.Helpers.CsvHelpers <--- Tealeaf Mail 匯入資料庫 --->0 成功 
[2021-09-26 11:46:49][Info] EnsembleCRM.Program 啟動程式 
[2021-09-26 11:46:53][Info] EnsembleCRM.Helpers.MailHelpers <----RetrieveMail---> 
[2021-09-26 11:46:54][Info] EnsembleCRM.Helpers.MailHelpers 連線成功 
[2021-09-26 11:46:56][Info] EnsembleCRM.Helpers.MailHelpers 驗證登入 EMAIL 
[2021-09-26 11:48:15][Info] EnsembleCRM.Helpers.MailHelpers <---Mail Output Path---->0C:\tealeafevents\EnsembleCRM\hami\temp 
[2021-09-26 11:48:15][Info] EnsembleCRM.Helpers.CsvHelpers <--- Tealeaf Mail 匯入資料庫 --->0 成功 
[2021-09-26 11:49:28][Info] EnsembleCRM.Helpers.MailHelpers <----RetrieveMail---> 
[2021-09-26 11:49:29][Info] EnsembleCRM.Helpers.MailHelpers 連線成功 
[2021-09-26 11:49:30][Info] EnsembleCRM.Helpers.MailHelpers 驗證登入 EMAIL 
[2021-09-26 11:49:32][Info] EnsembleCRM.Helpers.MailHelpers <---Mail Output Path---->0C:\tealeafevents\EnsembleCRM\hami\temp 
[2021-09-26 12:13:56][Info] EnsembleCRM.Program 啟動程式 
[2021-09-26 12:14:03][Info] EnsembleCRM.Helpers.MailHelpers <----RetrieveMail---> 
[2021-09-26 12:14:04][Info] EnsembleCRM.Helpers.MailHelpers 連線成功 
[2021-09-26 12:14:06][Info] EnsembleCRM.Helpers.MailHelpers 驗證登入 EMAIL 
[2021-09-26 12:14:08][Info] EnsembleCRM.Helpers.MailHelpers <---Mail Output Path---->0C:\tealeafevents\EnsembleCRM\hami\temp 
[2021-09-26 12:14:11][Info] EnsembleCRM.Helpers.CsvHelpers <--- Tealeaf Mail 匯入資料庫 --->0 成功 
[2021-09-26 12:14:54][Info] EnsembleCRM.Helpers.MailHelpers <----RetrieveMail---> 
[2021-09-26 12:14:54][Info] EnsembleCRM.Helpers.MailHelpers 連線成功 
[2021-09-26 12:14:56][Info] EnsembleCRM.Helpers.MailHelpers 驗證登入 EMAIL 
[2021-09-26 12:22:12][Info] EnsembleCRM.Program 啟動程式 
[2021-09-26 12:22:24][Info] EnsembleCRM.Helpers.MailHelpers <----RetrieveMail---> 
[2021-09-26 12:22:25][Info] EnsembleCRM.Helpers.MailHelpers 連線成功 
[2021-09-26 12:22:27][Info] EnsembleCRM.Helpers.MailHelpers 驗證登入 EMAIL 
[2021-09-26 12:25:44][Info] EnsembleCRM.Program 啟動程式 
[2021-09-26 12:34:21][Info] EnsembleCRM.Helpers.MailHelpers <----RetrieveMail---> 
[2021-09-26 12:34:22][Info] EnsembleCRM.Helpers.MailHelpers 連線成功 
[2021-09-26 12:34:25][Info] EnsembleCRM.Helpers.MailHelpers 驗證登入 EMAIL 
[2021-09-26 12:34:30][Info] EnsembleCRM.Helpers.MailHelpers <---- Output File Path :C:\tealeafevents\EnsembleCRM\hami\temp\Hami_mall一次性操作購物流程步驟~exportreporton_23Sep2021_17300034195439.csv--->C:\tealeafevents\EnsembleCRM\hami\temp\Hami_mall一次性操作購物流程步驟~exportreporton_23Sep2021_17300034195439.csv 
[2021-09-26 12:34:31][Info] EnsembleCRM.Helpers.MailHelpers <---- Output File Path :C:\tealeafevents\EnsembleCRM\hami\temp\Hami_mallSession~exportreporton_23Sep2021_17300033786962.csv--->C:\tealeafevents\EnsembleCRM\hami\temp\Hami_mallSession~exportreporton_23Sep2021_17300033786962.csv 
[2021-09-26 12:34:31][Info] EnsembleCRM.Helpers.MailHelpers <---- Output File Path :C:\tealeafevents\EnsembleCRM\hami\temp\Hami_mall金額比較結帳前後~exportreporton_23Sep2021_17300033736282.csv--->C:\tealeafevents\EnsembleCRM\hami\temp\Hami_mall金額比較結帳前後~exportreporton_23Sep2021_17300033736282.csv 
[2021-09-26 12:34:31][Info] EnsembleCRM.Helpers.MailHelpers <---- Output File Path :C:\tealeafevents\EnsembleCRM\hami\temp\Hami_mall關鍵字搜尋結果頁Last~exportreporton_23Sep2021_17300031906653.csv--->C:\tealeafevents\EnsembleCRM\hami\temp\Hami_mall關鍵字搜尋結果頁Last~exportreporton_23Sep2021_17300031906653.csv 
[2021-09-26 12:34:32][Info] EnsembleCRM.Helpers.MailHelpers <---- Output File Path :C:\tealeafevents\EnsembleCRM\hami\temp\Hami_mall購物流程步驟~exportreporton_23Sep2021_17300034265117.csv--->C:\tealeafevents\EnsembleCRM\hami\temp\Hami_mall購物流程步驟~exportreporton_23Sep2021_17300034265117.csv 
[2021-09-26 12:34:32][Info] EnsembleCRM.Helpers.MailHelpers <---- Output File Path :C:\tealeafevents\EnsembleCRM\hami\temp\Hami_mall關鍵字搜尋結果頁First~exportreporton_23Sep2021_17300034982724.csv--->C:\tealeafevents\EnsembleCRM\hami\temp\Hami_mall關鍵字搜尋結果頁First~exportreporton_23Sep2021_17300034982724.csv 
[2021-09-26 12:34:32][Info] EnsembleCRM.Helpers.MailHelpers <---- Output File Path :C:\tealeafevents\EnsembleCRM\hami\temp\Hami_mall關鍵字搜尋結果目前沒有商品Firstvalue~exportreporton_23Sep2021_17300036199414.csv--->C:\tealeafevents\EnsembleCRM\hami\temp\Hami_mall關鍵字搜尋結果目前沒有商品Firstvalue~exportreporton_23Sep2021_17300036199414.csv 
[2021-09-26 12:34:33][Info] EnsembleCRM.Helpers.MailHelpers <---- Output File Path :C:\tealeafevents\EnsembleCRM\hami\temp\Hami_mallWebReferrerDomain~exportreporton_23Sep2021_17300034915354.csv--->C:\tealeafevents\EnsembleCRM\hami\temp\Hami_mallWebReferrerDomain~exportreporton_23Sep2021_17300034915354.csv 
[2021-09-26 12:34:33][Info] EnsembleCRM.Helpers.MailHelpers <---- Output File Path :C:\tealeafevents\EnsembleCRM\hami\temp\Hami_mall成功付款WebReferrerDomain~exportreporton_23Sep2021_17300036460805.csv--->C:\tealeafevents\EnsembleCRM\hami\temp\Hami_mall成功付款WebReferrerDomain~exportreporton_23Sep2021_17300036460805.csv 
[2021-09-26 12:34:33][Info] EnsembleCRM.Helpers.MailHelpers <---- Output File Path :C:\tealeafevents\EnsembleCRM\hami\temp\Hami_mall成功付款UTMSources~exportreporton_23Sep2021_17300054876243.csv--->C:\tealeafevents\EnsembleCRM\hami\temp\Hami_mall成功付款UTMSources~exportreporton_23Sep2021_17300054876243.csv 
[2021-09-26 12:34:34][Info] EnsembleCRM.Helpers.MailHelpers <---- Output File Path :C:\tealeafevents\EnsembleCRM\hami\temp\Hami_mallWebReferrerURL~exportreporton_23Sep2021_17300035418600.csv--->C:\tealeafevents\EnsembleCRM\hami\temp\Hami_mallWebReferrerURL~exportreporton_23Sep2021_17300035418600.csv 
[2021-09-26 12:34:34][Info] EnsembleCRM.Helpers.MailHelpers <---- Output File Path :C:\tealeafevents\EnsembleCRM\hami\temp\Hami_mallUTMsources~exportreporton_23Sep2021_17300037435661.csv--->C:\tealeafevents\EnsembleCRM\hami\temp\Hami_mallUTMsources~exportreporton_23Sep2021_17300037435661.csv 
[2021-09-26 12:34:34][Info] EnsembleCRM.Helpers.MailHelpers <---Mail Output Path---->0C:\tealeafevents\EnsembleCRM\hami\temp 
[2021-09-26 12:34:38][Info] EnsembleCRM.Helpers.CsvHelpers <--- Tealeaf Mail 匯入資料庫 --->0 成功 
[2021-09-26 12:38:37][Info] EnsembleCRM.Helpers.MailHelpers <----RetrieveMail---> 
[2021-09-26 12:38:38][Info] EnsembleCRM.Helpers.MailHelpers 連線成功 
[2021-09-26 12:38:40][Info] EnsembleCRM.Helpers.MailHelpers 驗證登入 EMAIL 
[2021-09-26 12:39:27][Info] EnsembleCRM.Helpers.MailHelpers <---- Output File Path :C:\tealeafevents\EnsembleCRM\hami\temp\Hami_mall關鍵字搜尋結果頁Last~exportreporton_22Sep2021_17300021156287.csv--->C:\tealeafevents\EnsembleCRM\hami\temp\Hami_mall關鍵字搜尋結果頁Last~exportreporton_22Sep2021_17300021156287.csv 
[2021-09-26 12:39:27][Info] EnsembleCRM.Helpers.MailHelpers <---- Output File Path :C:\tealeafevents\EnsembleCRM\hami\temp\Hami_mallWebReferrerDomain~exportreporton_22Sep2021_17300022357735.csv--->C:\tealeafevents\EnsembleCRM\hami\temp\Hami_mallWebReferrerDomain~exportreporton_22Sep2021_17300022357735.csv 
[2021-09-26 12:39:28][Info] EnsembleCRM.Helpers.MailHelpers <---- Output File Path :C:\tealeafevents\EnsembleCRM\hami\temp\Hami_mall金額比較結帳前後~exportreporton_22Sep2021_17300021787935.csv--->C:\tealeafevents\EnsembleCRM\hami\temp\Hami_mall金額比較結帳前後~exportreporton_22Sep2021_17300021787935.csv 
[2021-09-26 12:39:28][Info] EnsembleCRM.Helpers.MailHelpers <---- Output File Path :C:\tealeafevents\EnsembleCRM\hami\temp\Hami_mallSession~exportreporton_22Sep2021_17300020456790.csv--->C:\tealeafevents\EnsembleCRM\hami\temp\Hami_mallSession~exportreporton_22Sep2021_17300020456790.csv 
[2021-09-26 12:39:28][Info] EnsembleCRM.Helpers.MailHelpers <---- Output File Path :C:\tealeafevents\EnsembleCRM\hami\temp\Hami_mall購物流程步驟~exportreporton_22Sep2021_17300023815202.csv--->C:\tealeafevents\EnsembleCRM\hami\temp\Hami_mall購物流程步驟~exportreporton_22Sep2021_17300023815202.csv 
[2021-09-26 12:39:29][Info] EnsembleCRM.Helpers.MailHelpers <---- Output File Path :C:\tealeafevents\EnsembleCRM\hami\temp\Hami_mall關鍵字搜尋結果頁First~exportreporton_22Sep2021_17300023283756.csv--->C:\tealeafevents\EnsembleCRM\hami\temp\Hami_mall關鍵字搜尋結果頁First~exportreporton_22Sep2021_17300023283756.csv 
[2021-09-26 12:39:29][Info] EnsembleCRM.Helpers.MailHelpers <---- Output File Path :C:\tealeafevents\EnsembleCRM\hami\temp\Hami_mall成功付款UTMSources~exportreporton_22Sep2021_17300023881622.csv--->C:\tealeafevents\EnsembleCRM\hami\temp\Hami_mall成功付款UTMSources~exportreporton_22Sep2021_17300023881622.csv 
[2021-09-26 12:39:29][Info] EnsembleCRM.Helpers.MailHelpers <---- Output File Path :C:\tealeafevents\EnsembleCRM\hami\temp\Hami_mall關鍵字搜尋結果目前沒有商品Firstvalue~exportreporton_22Sep2021_17300024731942.csv--->C:\tealeafevents\EnsembleCRM\hami\temp\Hami_mall關鍵字搜尋結果目前沒有商品Firstvalue~exportreporton_22Sep2021_17300024731942.csv 
[2021-09-26 12:39:30][Info] EnsembleCRM.Helpers.MailHelpers <---- Output File Path :C:\tealeafevents\EnsembleCRM\hami\temp\Hami_mallUTMsources~exportreporton_22Sep2021_17300027003613.csv--->C:\tealeafevents\EnsembleCRM\hami\temp\Hami_mallUTMsources~exportreporton_22Sep2021_17300027003613.csv 
[2021-09-26 12:39:30][Info] EnsembleCRM.Helpers.MailHelpers <---- Output File Path :C:\tealeafevents\EnsembleCRM\hami\temp\Hami_mall一次性操作購物流程步驟~exportreporton_22Sep2021_17300022163186.csv--->C:\tealeafevents\EnsembleCRM\hami\temp\Hami_mall一次性操作購物流程步驟~exportreporton_22Sep2021_17300022163186.csv 
[2021-09-26 12:39:31][Info] EnsembleCRM.Helpers.MailHelpers <---- Output File Path :C:\tealeafevents\EnsembleCRM\hami\temp\Hami_mall成功付款WebReferrerDomain~exportreporton_22Sep2021_17300025852291.csv--->C:\tealeafevents\EnsembleCRM\hami\temp\Hami_mall成功付款WebReferrerDomain~exportreporton_22Sep2021_17300025852291.csv 
[2021-09-26 12:39:31][Info] EnsembleCRM.Helpers.MailHelpers <---- Output File Path :C:\tealeafevents\EnsembleCRM\hami\temp\Hami_mallWebReferrerURL~exportreporton_22Sep2021_17300023714049.csv--->C:\tealeafevents\EnsembleCRM\hami\temp\Hami_mallWebReferrerURL~exportreporton_22Sep2021_17300023714049.csv 
[2021-09-26 12:39:31][Info] EnsembleCRM.Helpers.MailHelpers <---Mail Output Path---->0C:\tealeafevents\EnsembleCRM\hami\temp 
[2021-09-26 12:39:33][Info] EnsembleCRM.Helpers.CsvHelpers <--- Tealeaf Mail 匯入資料庫 --->0 成功 
[2021-09-26 12:46:15][Info] EnsembleCRM.Program 啟動程式 
[2021-09-26 12:46:28][Info] EnsembleCRM.Helpers.MailHelpers <----RetrieveMail---> 
[2021-09-26 12:46:28][Info] EnsembleCRM.Helpers.MailHelpers 連線成功 
[2021-09-26 12:46:30][Info] EnsembleCRM.Helpers.MailHelpers 驗證登入 EMAIL 
[2021-09-26 12:46:35][Info] EnsembleCRM.Helpers.MailHelpers <---- Output File Path :C:\tealeafevents\EnsembleCRM\hami\temp\Hami_mall關鍵字搜尋結果頁Last~exportreporton_22Sep2021_17300021156287.csv--->C:\tealeafevents\EnsembleCRM\hami\temp\Hami_mall關鍵字搜尋結果頁Last~exportreporton_22Sep2021_17300021156287.csv 
[2021-09-26 12:46:36][Info] EnsembleCRM.Helpers.MailHelpers <---- Output File Path :C:\tealeafevents\EnsembleCRM\hami\temp\Hami_mallWebReferrerDomain~exportreporton_22Sep2021_17300022357735.csv--->C:\tealeafevents\EnsembleCRM\hami\temp\Hami_mallWebReferrerDomain~exportreporton_22Sep2021_17300022357735.csv 
[2021-09-26 12:46:36][Info] EnsembleCRM.Helpers.MailHelpers <---- Output File Path :C:\tealeafevents\EnsembleCRM\hami\temp\Hami_mall金額比較結帳前後~exportreporton_22Sep2021_17300021787935.csv--->C:\tealeafevents\EnsembleCRM\hami\temp\Hami_mall金額比較結帳前後~exportreporton_22Sep2021_17300021787935.csv 
[2021-09-26 12:46:36][Info] EnsembleCRM.Helpers.MailHelpers <---- Output File Path :C:\tealeafevents\EnsembleCRM\hami\temp\Hami_mallSession~exportreporton_22Sep2021_17300020456790.csv--->C:\tealeafevents\EnsembleCRM\hami\temp\Hami_mallSession~exportreporton_22Sep2021_17300020456790.csv 
[2021-09-26 12:46:37][Info] EnsembleCRM.Helpers.MailHelpers <---- Output File Path :C:\tealeafevents\EnsembleCRM\hami\temp\Hami_mall購物流程步驟~exportreporton_22Sep2021_17300023815202.csv--->C:\tealeafevents\EnsembleCRM\hami\temp\Hami_mall購物流程步驟~exportreporton_22Sep2021_17300023815202.csv 
[2021-09-26 12:46:37][Info] EnsembleCRM.Helpers.MailHelpers <---- Output File Path :C:\tealeafevents\EnsembleCRM\hami\temp\Hami_mall關鍵字搜尋結果頁First~exportreporton_22Sep2021_17300023283756.csv--->C:\tealeafevents\EnsembleCRM\hami\temp\Hami_mall關鍵字搜尋結果頁First~exportreporton_22Sep2021_17300023283756.csv 
[2021-09-26 12:46:37][Info] EnsembleCRM.Helpers.MailHelpers <---- Output File Path :C:\tealeafevents\EnsembleCRM\hami\temp\Hami_mall成功付款UTMSources~exportreporton_22Sep2021_17300023881622.csv--->C:\tealeafevents\EnsembleCRM\hami\temp\Hami_mall成功付款UTMSources~exportreporton_22Sep2021_17300023881622.csv 
[2021-09-26 12:46:38][Info] EnsembleCRM.Helpers.MailHelpers <---- Output File Path :C:\tealeafevents\EnsembleCRM\hami\temp\Hami_mall關鍵字搜尋結果目前沒有商品Firstvalue~exportreporton_22Sep2021_17300024731942.csv--->C:\tealeafevents\EnsembleCRM\hami\temp\Hami_mall關鍵字搜尋結果目前沒有商品Firstvalue~exportreporton_22Sep2021_17300024731942.csv 
[2021-09-26 12:46:38][Info] EnsembleCRM.Helpers.MailHelpers <---- Output File Path :C:\tealeafevents\EnsembleCRM\hami\temp\Hami_mallUTMsources~exportreporton_22Sep2021_17300027003613.csv--->C:\tealeafevents\EnsembleCRM\hami\temp\Hami_mallUTMsources~exportreporton_22Sep2021_17300027003613.csv 
[2021-09-26 12:46:39][Info] EnsembleCRM.Helpers.MailHelpers <---- Output File Path :C:\tealeafevents\EnsembleCRM\hami\temp\Hami_mall一次性操作購物流程步驟~exportreporton_22Sep2021_17300022163186.csv--->C:\tealeafevents\EnsembleCRM\hami\temp\Hami_mall一次性操作購物流程步驟~exportreporton_22Sep2021_17300022163186.csv 
[2021-09-26 12:46:39][Info] EnsembleCRM.Helpers.MailHelpers <---- Output File Path :C:\tealeafevents\EnsembleCRM\hami\temp\Hami_mall成功付款WebReferrerDomain~exportreporton_22Sep2021_17300025852291.csv--->C:\tealeafevents\EnsembleCRM\hami\temp\Hami_mall成功付款WebReferrerDomain~exportreporton_22Sep2021_17300025852291.csv 
[2021-09-26 12:46:40][Info] EnsembleCRM.Helpers.MailHelpers <---- Output File Path :C:\tealeafevents\EnsembleCRM\hami\temp\Hami_mallWebReferrerURL~exportreporton_22Sep2021_17300023714049.csv--->C:\tealeafevents\EnsembleCRM\hami\temp\Hami_mallWebReferrerURL~exportreporton_22Sep2021_17300023714049.csv 
[2021-09-26 12:46:40][Info] EnsembleCRM.Helpers.MailHelpers <---Mail Output Path---->0C:\tealeafevents\EnsembleCRM\hami\temp 
[2021-09-26 12:46:44][Info] EnsembleCRM.Helpers.CsvHelpers <--- Tealeaf Mail 匯入資料庫 --->0 成功 
[2021-09-26 12:54:15][Info] EnsembleCRM.Program 啟動程式 
[2021-09-26 12:54:29][Info] EnsembleCRM.Helpers.MailHelpers <----RetrieveMail---> 
[2021-09-26 12:54:30][Info] EnsembleCRM.Helpers.MailHelpers 連線成功 
[2021-09-26 12:54:33][Info] EnsembleCRM.Helpers.MailHelpers 驗證登入 EMAIL 
[2021-09-26 12:54:34][Info] EnsembleCRM.Helpers.MailHelpers <---- Output File Path :C:\tealeafevents\EnsembleCRM\hami\temp\Hami_mall關鍵字搜尋結果頁Last~exportreporton_22Sep2021_17300021156287.csv--->C:\tealeafevents\EnsembleCRM\hami\temp\Hami_mall關鍵字搜尋結果頁Last~exportreporton_22Sep2021_17300021156287.csv 
[2021-09-26 12:54:35][Info] EnsembleCRM.Helpers.MailHelpers <---- Output File Path :C:\tealeafevents\EnsembleCRM\hami\temp\Hami_mallWebReferrerDomain~exportreporton_22Sep2021_17300022357735.csv--->C:\tealeafevents\EnsembleCRM\hami\temp\Hami_mallWebReferrerDomain~exportreporton_22Sep2021_17300022357735.csv 
[2021-09-26 12:54:35][Info] EnsembleCRM.Helpers.MailHelpers <---- Output File Path :C:\tealeafevents\EnsembleCRM\hami\temp\Hami_mall金額比較結帳前後~exportreporton_22Sep2021_17300021787935.csv--->C:\tealeafevents\EnsembleCRM\hami\temp\Hami_mall金額比較結帳前後~exportreporton_22Sep2021_17300021787935.csv 
[2021-09-26 12:54:35][Info] EnsembleCRM.Helpers.MailHelpers <---- Output File Path :C:\tealeafevents\EnsembleCRM\hami\temp\Hami_mallSession~exportreporton_22Sep2021_17300020456790.csv--->C:\tealeafevents\EnsembleCRM\hami\temp\Hami_mallSession~exportreporton_22Sep2021_17300020456790.csv 
[2021-09-26 12:54:36][Info] EnsembleCRM.Helpers.MailHelpers <---- Output File Path :C:\tealeafevents\EnsembleCRM\hami\temp\Hami_mall購物流程步驟~exportreporton_22Sep2021_17300023815202.csv--->C:\tealeafevents\EnsembleCRM\hami\temp\Hami_mall購物流程步驟~exportreporton_22Sep2021_17300023815202.csv 
[2021-09-26 12:54:36][Info] EnsembleCRM.Helpers.MailHelpers <---- Output File Path :C:\tealeafevents\EnsembleCRM\hami\temp\Hami_mall關鍵字搜尋結果頁First~exportreporton_22Sep2021_17300023283756.csv--->C:\tealeafevents\EnsembleCRM\hami\temp\Hami_mall關鍵字搜尋結果頁First~exportreporton_22Sep2021_17300023283756.csv 
[2021-09-26 12:54:36][Info] EnsembleCRM.Helpers.MailHelpers <---- Output File Path :C:\tealeafevents\EnsembleCRM\hami\temp\Hami_mall成功付款UTMSources~exportreporton_22Sep2021_17300023881622.csv--->C:\tealeafevents\EnsembleCRM\hami\temp\Hami_mall成功付款UTMSources~exportreporton_22Sep2021_17300023881622.csv 
[2021-09-26 12:54:37][Info] EnsembleCRM.Helpers.MailHelpers <---- Output File Path :C:\tealeafevents\EnsembleCRM\hami\temp\Hami_mall關鍵字搜尋結果目前沒有商品Firstvalue~exportreporton_22Sep2021_17300024731942.csv--->C:\tealeafevents\EnsembleCRM\hami\temp\Hami_mall關鍵字搜尋結果目前沒有商品Firstvalue~exportreporton_22Sep2021_17300024731942.csv 
[2021-09-26 12:54:37][Info] EnsembleCRM.Helpers.MailHelpers <---- Output File Path :C:\tealeafevents\EnsembleCRM\hami\temp\Hami_mallUTMsources~exportreporton_22Sep2021_17300027003613.csv--->C:\tealeafevents\EnsembleCRM\hami\temp\Hami_mallUTMsources~exportreporton_22Sep2021_17300027003613.csv 
[2021-09-26 12:54:37][Info] EnsembleCRM.Helpers.MailHelpers <---- Output File Path :C:\tealeafevents\EnsembleCRM\hami\temp\Hami_mall一次性操作購物流程步驟~exportreporton_22Sep2021_17300022163186.csv--->C:\tealeafevents\EnsembleCRM\hami\temp\Hami_mall一次性操作購物流程步驟~exportreporton_22Sep2021_17300022163186.csv 
[2021-09-26 12:54:38][Info] EnsembleCRM.Helpers.MailHelpers <---- Output File Path :C:\tealeafevents\EnsembleCRM\hami\temp\Hami_mall成功付款WebReferrerDomain~exportreporton_22Sep2021_17300025852291.csv--->C:\tealeafevents\EnsembleCRM\hami\temp\Hami_mall成功付款WebReferrerDomain~exportreporton_22Sep2021_17300025852291.csv 
[2021-09-26 12:54:38][Info] EnsembleCRM.Helpers.MailHelpers <---- Output File Path :C:\tealeafevents\EnsembleCRM\hami\temp\Hami_mallWebReferrerURL~exportreporton_22Sep2021_17300023714049.csv--->C:\tealeafevents\EnsembleCRM\hami\temp\Hami_mallWebReferrerURL~exportreporton_22Sep2021_17300023714049.csv 
[2021-09-26 12:54:38][Info] EnsembleCRM.Helpers.MailHelpers <---Mail Output Path---->0C:\tealeafevents\EnsembleCRM\hami\temp 
[2021-09-26 12:54:39][Info] EnsembleCRM.Helpers.CsvHelpers <--- Tealeaf Mail 匯入資料庫 --->0 成功 
[2021-09-26 12:57:55][Info] EnsembleCRM.Program 啟動程式 
[2021-09-26 12:58:12][Info] EnsembleCRM.Helpers.MailHelpers <----RetrieveMail---> 
[2021-09-26 12:58:13][Info] EnsembleCRM.Helpers.MailHelpers 連線成功 
[2021-09-26 12:58:15][Info] EnsembleCRM.Helpers.MailHelpers 驗證登入 EMAIL 
[2021-09-26 12:58:16][Info] EnsembleCRM.Helpers.MailHelpers <---- Output File Path :C:\tealeafevents\EnsembleCRM\hami\temp\Hami_mall關鍵字搜尋結果頁Last~exportreporton_22Sep2021_17300021156287.csv--->C:\tealeafevents\EnsembleCRM\hami\temp\Hami_mall關鍵字搜尋結果頁Last~exportreporton_22Sep2021_17300021156287.csv 
[2021-09-26 12:58:17][Info] EnsembleCRM.Helpers.MailHelpers <---- Output File Path :C:\tealeafevents\EnsembleCRM\hami\temp\Hami_mallWebReferrerDomain~exportreporton_22Sep2021_17300022357735.csv--->C:\tealeafevents\EnsembleCRM\hami\temp\Hami_mallWebReferrerDomain~exportreporton_22Sep2021_17300022357735.csv 
[2021-09-26 12:58:17][Info] EnsembleCRM.Helpers.MailHelpers <---- Output File Path :C:\tealeafevents\EnsembleCRM\hami\temp\Hami_mall金額比較結帳前後~exportreporton_22Sep2021_17300021787935.csv--->C:\tealeafevents\EnsembleCRM\hami\temp\Hami_mall金額比較結帳前後~exportreporton_22Sep2021_17300021787935.csv 
[2021-09-26 12:58:18][Info] EnsembleCRM.Helpers.MailHelpers <---- Output File Path :C:\tealeafevents\EnsembleCRM\hami\temp\Hami_mallSession~exportreporton_22Sep2021_17300020456790.csv--->C:\tealeafevents\EnsembleCRM\hami\temp\Hami_mallSession~exportreporton_22Sep2021_17300020456790.csv 
[2021-09-26 12:58:18][Info] EnsembleCRM.Helpers.MailHelpers <---- Output File Path :C:\tealeafevents\EnsembleCRM\hami\temp\Hami_mall購物流程步驟~exportreporton_22Sep2021_17300023815202.csv--->C:\tealeafevents\EnsembleCRM\hami\temp\Hami_mall購物流程步驟~exportreporton_22Sep2021_17300023815202.csv 
[2021-09-26 12:58:18][Info] EnsembleCRM.Helpers.MailHelpers <---- Output File Path :C:\tealeafevents\EnsembleCRM\hami\temp\Hami_mall關鍵字搜尋結果頁First~exportreporton_22Sep2021_17300023283756.csv--->C:\tealeafevents\EnsembleCRM\hami\temp\Hami_mall關鍵字搜尋結果頁First~exportreporton_22Sep2021_17300023283756.csv 
[2021-09-26 12:58:18][Info] EnsembleCRM.Helpers.MailHelpers <---- Output File Path :C:\tealeafevents\EnsembleCRM\hami\temp\Hami_mall成功付款UTMSources~exportreporton_22Sep2021_17300023881622.csv--->C:\tealeafevents\EnsembleCRM\hami\temp\Hami_mall成功付款UTMSources~exportreporton_22Sep2021_17300023881622.csv 
[2021-09-26 12:58:19][Info] EnsembleCRM.Helpers.MailHelpers <---- Output File Path :C:\tealeafevents\EnsembleCRM\hami\temp\Hami_mall關鍵字搜尋結果目前沒有商品Firstvalue~exportreporton_22Sep2021_17300024731942.csv--->C:\tealeafevents\EnsembleCRM\hami\temp\Hami_mall關鍵字搜尋結果目前沒有商品Firstvalue~exportreporton_22Sep2021_17300024731942.csv 
[2021-09-26 12:58:19][Info] EnsembleCRM.Helpers.MailHelpers <---- Output File Path :C:\tealeafevents\EnsembleCRM\hami\temp\Hami_mallUTMsources~exportreporton_22Sep2021_17300027003613.csv--->C:\tealeafevents\EnsembleCRM\hami\temp\Hami_mallUTMsources~exportreporton_22Sep2021_17300027003613.csv 
[2021-09-26 12:58:20][Info] EnsembleCRM.Helpers.MailHelpers <---- Output File Path :C:\tealeafevents\EnsembleCRM\hami\temp\Hami_mall一次性操作購物流程步驟~exportreporton_22Sep2021_17300022163186.csv--->C:\tealeafevents\EnsembleCRM\hami\temp\Hami_mall一次性操作購物流程步驟~exportreporton_22Sep2021_17300022163186.csv 
[2021-09-26 12:58:20][Info] EnsembleCRM.Helpers.MailHelpers <---- Output File Path :C:\tealeafevents\EnsembleCRM\hami\temp\Hami_mall成功付款WebReferrerDomain~exportreporton_22Sep2021_17300025852291.csv--->C:\tealeafevents\EnsembleCRM\hami\temp\Hami_mall成功付款WebReferrerDomain~exportreporton_22Sep2021_17300025852291.csv 
[2021-09-26 12:58:20][Info] EnsembleCRM.Helpers.MailHelpers <---- Output File Path :C:\tealeafevents\EnsembleCRM\hami\temp\Hami_mallWebReferrerURL~exportreporton_22Sep2021_17300023714049.csv--->C:\tealeafevents\EnsembleCRM\hami\temp\Hami_mallWebReferrerURL~exportreporton_22Sep2021_17300023714049.csv 
[2021-09-26 12:58:20][Info] EnsembleCRM.Helpers.MailHelpers <---Mail Output Path---->0C:\tealeafevents\EnsembleCRM\hami\temp 
[2021-09-26 12:58:22][Info] EnsembleCRM.Helpers.CsvHelpers <--- Tealeaf Mail 匯入資料庫 --->0 成功 
[2021-09-26 13:01:13][Info] EnsembleCRM.Program 啟動程式 
[2021-09-26 13:01:26][Info] EnsembleCRM.Helpers.MailHelpers <----RetrieveMail---> 
[2021-09-26 13:01:27][Info] EnsembleCRM.Helpers.MailHelpers 連線成功 
[2021-09-26 13:01:29][Info] EnsembleCRM.Helpers.MailHelpers 驗證登入 EMAIL 
[2021-09-26 13:01:31][Info] EnsembleCRM.Helpers.MailHelpers <---- Output File Path :C:\tealeafevents\EnsembleCRM\hami\temp\Hami_mall一次性操作購物流程步驟~exportreporton_23Sep2021_17300034195439.csv--->C:\tealeafevents\EnsembleCRM\hami\temp\Hami_mall一次性操作購物流程步驟~exportreporton_23Sep2021_17300034195439.csv 
[2021-09-26 13:01:31][Info] EnsembleCRM.Helpers.MailHelpers <---- Output File Path :C:\tealeafevents\EnsembleCRM\hami\temp\Hami_mallSession~exportreporton_23Sep2021_17300033786962.csv--->C:\tealeafevents\EnsembleCRM\hami\temp\Hami_mallSession~exportreporton_23Sep2021_17300033786962.csv 
[2021-09-26 13:01:31][Info] EnsembleCRM.Helpers.MailHelpers <---- Output File Path :C:\tealeafevents\EnsembleCRM\hami\temp\Hami_mall金額比較結帳前後~exportreporton_23Sep2021_17300033736282.csv--->C:\tealeafevents\EnsembleCRM\hami\temp\Hami_mall金額比較結帳前後~exportreporton_23Sep2021_17300033736282.csv 
[2021-09-26 13:01:32][Info] EnsembleCRM.Helpers.MailHelpers <---- Output File Path :C:\tealeafevents\EnsembleCRM\hami\temp\Hami_mall關鍵字搜尋結果頁Last~exportreporton_23Sep2021_17300031906653.csv--->C:\tealeafevents\EnsembleCRM\hami\temp\Hami_mall關鍵字搜尋結果頁Last~exportreporton_23Sep2021_17300031906653.csv 
[2021-09-26 13:01:32][Info] EnsembleCRM.Helpers.MailHelpers <---- Output File Path :C:\tealeafevents\EnsembleCRM\hami\temp\Hami_mall購物流程步驟~exportreporton_23Sep2021_17300034265117.csv--->C:\tealeafevents\EnsembleCRM\hami\temp\Hami_mall購物流程步驟~exportreporton_23Sep2021_17300034265117.csv 
[2021-09-26 13:01:32][Info] EnsembleCRM.Helpers.MailHelpers <---- Output File Path :C:\tealeafevents\EnsembleCRM\hami\temp\Hami_mall關鍵字搜尋結果頁First~exportreporton_23Sep2021_17300034982724.csv--->C:\tealeafevents\EnsembleCRM\hami\temp\Hami_mall關鍵字搜尋結果頁First~exportreporton_23Sep2021_17300034982724.csv 
[2021-09-26 13:01:33][Info] EnsembleCRM.Helpers.MailHelpers <---- Output File Path :C:\tealeafevents\EnsembleCRM\hami\temp\Hami_mall關鍵字搜尋結果目前沒有商品Firstvalue~exportreporton_23Sep2021_17300036199414.csv--->C:\tealeafevents\EnsembleCRM\hami\temp\Hami_mall關鍵字搜尋結果目前沒有商品Firstvalue~exportreporton_23Sep2021_17300036199414.csv 
[2021-09-26 13:01:33][Info] EnsembleCRM.Helpers.MailHelpers <---- Output File Path :C:\tealeafevents\EnsembleCRM\hami\temp\Hami_mallWebReferrerDomain~exportreporton_23Sep2021_17300034915354.csv--->C:\tealeafevents\EnsembleCRM\hami\temp\Hami_mallWebReferrerDomain~exportreporton_23Sep2021_17300034915354.csv 
[2021-09-26 13:01:33][Info] EnsembleCRM.Helpers.MailHelpers <---- Output File Path :C:\tealeafevents\EnsembleCRM\hami\temp\Hami_mall成功付款WebReferrerDomain~exportreporton_23Sep2021_17300036460805.csv--->C:\tealeafevents\EnsembleCRM\hami\temp\Hami_mall成功付款WebReferrerDomain~exportreporton_23Sep2021_17300036460805.csv 
[2021-09-26 13:01:34][Info] EnsembleCRM.Helpers.MailHelpers <---- Output File Path :C:\tealeafevents\EnsembleCRM\hami\temp\Hami_mall成功付款UTMSources~exportreporton_23Sep2021_17300054876243.csv--->C:\tealeafevents\EnsembleCRM\hami\temp\Hami_mall成功付款UTMSources~exportreporton_23Sep2021_17300054876243.csv 
[2021-09-26 13:01:34][Info] EnsembleCRM.Helpers.MailHelpers <---- Output File Path :C:\tealeafevents\EnsembleCRM\hami\temp\Hami_mallWebReferrerURL~exportreporton_23Sep2021_17300035418600.csv--->C:\tealeafevents\EnsembleCRM\hami\temp\Hami_mallWebReferrerURL~exportreporton_23Sep2021_17300035418600.csv 
[2021-09-26 13:01:35][Info] EnsembleCRM.Helpers.MailHelpers <---- Output File Path :C:\tealeafevents\EnsembleCRM\hami\temp\Hami_mallUTMsources~exportreporton_23Sep2021_17300037435661.csv--->C:\tealeafevents\EnsembleCRM\hami\temp\Hami_mallUTMsources~exportreporton_23Sep2021_17300037435661.csv 
[2021-09-26 13:01:35][Info] EnsembleCRM.Helpers.MailHelpers <---Mail Output Path---->0C:\tealeafevents\EnsembleCRM\hami\temp 
[2021-09-26 13:01:36][Info] EnsembleCRM.Helpers.CsvHelpers <--- Tealeaf Mail 匯入資料庫 --->0 成功 
[2021-09-26 13:02:33][Info] EnsembleCRM.Helpers.MailHelpers <----RetrieveMail---> 
[2021-09-26 13:02:33][Info] EnsembleCRM.Helpers.MailHelpers 連線成功 
[2021-09-26 13:02:35][Info] EnsembleCRM.Helpers.MailHelpers 驗證登入 EMAIL 
[2021-09-26 13:02:37][Info] EnsembleCRM.Helpers.MailHelpers <---- Output File Path :C:\tealeafevents\EnsembleCRM\hami\temp\Hami_mall關鍵字搜尋結果頁First~exportreporton_24Sep2021_17300023099294.csv--->C:\tealeafevents\EnsembleCRM\hami\temp\Hami_mall關鍵字搜尋結果頁First~exportreporton_24Sep2021_17300023099294.csv 
[2021-09-26 13:02:37][Info] EnsembleCRM.Helpers.MailHelpers <---- Output File Path :C:\tealeafevents\EnsembleCRM\hami\temp\Hami_mallWebReferrerDomain~exportreporton_24Sep2021_17300023082494.csv--->C:\tealeafevents\EnsembleCRM\hami\temp\Hami_mallWebReferrerDomain~exportreporton_24Sep2021_17300023082494.csv 
[2021-09-26 13:02:37][Info] EnsembleCRM.Helpers.MailHelpers <---- Output File Path :C:\tealeafevents\EnsembleCRM\hami\temp\Hami_mall一次性操作購物流程步驟~exportreporton_24Sep2021_17300023234843.csv--->C:\tealeafevents\EnsembleCRM\hami\temp\Hami_mall一次性操作購物流程步驟~exportreporton_24Sep2021_17300023234843.csv 
[2021-09-26 13:02:38][Info] EnsembleCRM.Helpers.MailHelpers <---- Output File Path :C:\tealeafevents\EnsembleCRM\hami\temp\Hami_mall關鍵字搜尋結果頁Last~exportreporton_24Sep2021_17300026194957.csv--->C:\tealeafevents\EnsembleCRM\hami\temp\Hami_mall關鍵字搜尋結果頁Last~exportreporton_24Sep2021_17300026194957.csv 
[2021-09-26 13:02:38][Info] EnsembleCRM.Helpers.MailHelpers <---- Output File Path :C:\tealeafevents\EnsembleCRM\hami\temp\Hami_mall關鍵字搜尋結果目前沒有商品Firstvalue~exportreporton_24Sep2021_17300024508864.csv--->C:\tealeafevents\EnsembleCRM\hami\temp\Hami_mall關鍵字搜尋結果目前沒有商品Firstvalue~exportreporton_24Sep2021_17300024508864.csv 
[2021-09-26 13:02:39][Info] EnsembleCRM.Helpers.MailHelpers <---- Output File Path :C:\tealeafevents\EnsembleCRM\hami\temp\Hami_mallSession~exportreporton_24Sep2021_17300022249378.csv--->C:\tealeafevents\EnsembleCRM\hami\temp\Hami_mallSession~exportreporton_24Sep2021_17300022249378.csv 
[2021-09-26 13:02:39][Info] EnsembleCRM.Helpers.MailHelpers <---- Output File Path :C:\tealeafevents\EnsembleCRM\hami\temp\Hami_mall成功付款WebReferrerDomain~exportreporton_24Sep2021_17300025743953.csv--->C:\tealeafevents\EnsembleCRM\hami\temp\Hami_mall成功付款WebReferrerDomain~exportreporton_24Sep2021_17300025743953.csv 
[2021-09-26 13:02:39][Info] EnsembleCRM.Helpers.MailHelpers <---- Output File Path :C:\tealeafevents\EnsembleCRM\hami\temp\Hami_mallWebReferrerURL~exportreporton_24Sep2021_17300023407960.csv--->C:\tealeafevents\EnsembleCRM\hami\temp\Hami_mallWebReferrerURL~exportreporton_24Sep2021_17300023407960.csv 
[2021-09-26 13:02:40][Info] EnsembleCRM.Helpers.MailHelpers <---- Output File Path :C:\tealeafevents\EnsembleCRM\hami\temp\Hami_mall成功付款UTMSources~exportreporton_24Sep2021_17300027446233.csv--->C:\tealeafevents\EnsembleCRM\hami\temp\Hami_mall成功付款UTMSources~exportreporton_24Sep2021_17300027446233.csv 
[2021-09-26 13:02:40][Info] EnsembleCRM.Helpers.MailHelpers <---- Output File Path :C:\tealeafevents\EnsembleCRM\hami\temp\Hami_mall金額比較結帳前後~exportreporton_24Sep2021_17300021577243.csv--->C:\tealeafevents\EnsembleCRM\hami\temp\Hami_mall金額比較結帳前後~exportreporton_24Sep2021_17300021577243.csv 
[2021-09-26 13:02:41][Info] EnsembleCRM.Helpers.MailHelpers <---- Output File Path :C:\tealeafevents\EnsembleCRM\hami\temp\Hami_mall購物流程步驟~exportreporton_24Sep2021_17300025111414.csv--->C:\tealeafevents\EnsembleCRM\hami\temp\Hami_mall購物流程步驟~exportreporton_24Sep2021_17300025111414.csv 
[2021-09-26 13:02:41][Info] EnsembleCRM.Helpers.MailHelpers <---- Output File Path :C:\tealeafevents\EnsembleCRM\hami\temp\Hami_mallUTMsources~exportreporton_24Sep2021_17300025202448.csv--->C:\tealeafevents\EnsembleCRM\hami\temp\Hami_mallUTMsources~exportreporton_24Sep2021_17300025202448.csv 
[2021-09-26 13:02:41][Info] EnsembleCRM.Helpers.MailHelpers <---Mail Output Path---->0C:\tealeafevents\EnsembleCRM\hami\temp 
[2021-09-26 13:02:41][Info] EnsembleCRM.Helpers.CsvHelpers <--- Tealeaf Mail 匯入資料庫 --->0 成功 
[2021-09-26 13:02:47][Info] EnsembleCRM.Helpers.MailHelpers <----RetrieveMail---> 
[2021-09-26 13:02:47][Info] EnsembleCRM.Helpers.MailHelpers 連線成功 
[2021-09-26 13:02:49][Info] EnsembleCRM.Helpers.MailHelpers 驗證登入 EMAIL 
[2021-09-26 13:02:51][Info] EnsembleCRM.Helpers.MailHelpers <---- Output File Path :C:\tealeafevents\EnsembleCRM\hami\temp\Hami_mallSession~exportreporton_25Sep2021_17300018136559.csv--->C:\tealeafevents\EnsembleCRM\hami\temp\Hami_mallSession~exportreporton_25Sep2021_17300018136559.csv 
[2021-09-26 13:02:51][Info] EnsembleCRM.Helpers.MailHelpers <---- Output File Path :C:\tealeafevents\EnsembleCRM\hami\temp\Hami_mallWebReferrerDomain~exportreporton_25Sep2021_17300018140376.csv--->C:\tealeafevents\EnsembleCRM\hami\temp\Hami_mallWebReferrerDomain~exportreporton_25Sep2021_17300018140376.csv 
[2021-09-26 13:02:51][Info] EnsembleCRM.Helpers.MailHelpers <---- Output File Path :C:\tealeafevents\EnsembleCRM\hami\temp\Hami_mall關鍵字搜尋結果頁Last~exportreporton_25Sep2021_17300022867379.csv--->C:\tealeafevents\EnsembleCRM\hami\temp\Hami_mall關鍵字搜尋結果頁Last~exportreporton_25Sep2021_17300022867379.csv 
[2021-09-26 13:02:52][Info] EnsembleCRM.Helpers.MailHelpers <---- Output File Path :C:\tealeafevents\EnsembleCRM\hami\temp\Hami_mall金額比較結帳前後~exportreporton_25Sep2021_17300018081943.csv--->C:\tealeafevents\EnsembleCRM\hami\temp\Hami_mall金額比較結帳前後~exportreporton_25Sep2021_17300018081943.csv 
[2021-09-26 13:02:52][Info] EnsembleCRM.Helpers.MailHelpers <---- Output File Path :C:\tealeafevents\EnsembleCRM\hami\temp\Hami_mall關鍵字搜尋結果頁First~exportreporton_25Sep2021_17300023152281.csv--->C:\tealeafevents\EnsembleCRM\hami\temp\Hami_mall關鍵字搜尋結果頁First~exportreporton_25Sep2021_17300023152281.csv 
[2021-09-26 13:02:52][Info] EnsembleCRM.Helpers.MailHelpers <---- Output File Path :C:\tealeafevents\EnsembleCRM\hami\temp\Hami_mall一次性操作購物流程步驟~exportreporton_25Sep2021_17300019632273.csv--->C:\tealeafevents\EnsembleCRM\hami\temp\Hami_mall一次性操作購物流程步驟~exportreporton_25Sep2021_17300019632273.csv 
[2021-09-26 13:02:53][Info] EnsembleCRM.Helpers.MailHelpers <---- Output File Path :C:\tealeafevents\EnsembleCRM\hami\temp\Hami_mallUTMsources~exportreporton_25Sep2021_17300024511987.csv--->C:\tealeafevents\EnsembleCRM\hami\temp\Hami_mallUTMsources~exportreporton_25Sep2021_17300024511987.csv 
[2021-09-26 13:02:53][Info] EnsembleCRM.Helpers.MailHelpers <---- Output File Path :C:\tealeafevents\EnsembleCRM\hami\temp\Hami_mall關鍵字搜尋結果目前沒有商品Firstvalue~exportreporton_25Sep2021_17300024752924.csv--->C:\tealeafevents\EnsembleCRM\hami\temp\Hami_mall關鍵字搜尋結果目前沒有商品Firstvalue~exportreporton_25Sep2021_17300024752924.csv 
[2021-09-26 13:02:54][Info] EnsembleCRM.Helpers.MailHelpers <---- Output File Path :C:\tealeafevents\EnsembleCRM\hami\temp\Hami_mall購物流程步驟~exportreporton_25Sep2021_17300025241898.csv--->C:\tealeafevents\EnsembleCRM\hami\temp\Hami_mall購物流程步驟~exportreporton_25Sep2021_17300025241898.csv 
[2021-09-26 13:02:54][Info] EnsembleCRM.Helpers.MailHelpers <---- Output File Path :C:\tealeafevents\EnsembleCRM\hami\temp\Hami_mallWebReferrerURL~exportreporton_25Sep2021_17300021211373.csv--->C:\tealeafevents\EnsembleCRM\hami\temp\Hami_mallWebReferrerURL~exportreporton_25Sep2021_17300021211373.csv 
[2021-09-26 13:02:55][Info] EnsembleCRM.Helpers.MailHelpers <---- Output File Path :C:\tealeafevents\EnsembleCRM\hami\temp\Hami_mall成功付款WebReferrerDomain~exportreporton_25Sep2021_17300023229022.csv--->C:\tealeafevents\EnsembleCRM\hami\temp\Hami_mall成功付款WebReferrerDomain~exportreporton_25Sep2021_17300023229022.csv 
[2021-09-26 13:02:55][Info] EnsembleCRM.Helpers.MailHelpers <---- Output File Path :C:\tealeafevents\EnsembleCRM\hami\temp\Hami_mall成功付款UTMSources~exportreporton_25Sep2021_17300031791232.csv--->C:\tealeafevents\EnsembleCRM\hami\temp\Hami_mall成功付款UTMSources~exportreporton_25Sep2021_17300031791232.csv 
[2021-09-26 13:02:55][Info] EnsembleCRM.Helpers.MailHelpers <---Mail Output Path---->0C:\tealeafevents\EnsembleCRM\hami\temp 
[2021-09-26 13:02:55][Info] EnsembleCRM.Helpers.CsvHelpers <--- Tealeaf Mail 匯入資料庫 --->0 成功 
[2021-09-26 13:47:10][Info] EnsembleCRM.Program 啟動程式 
[2021-09-26 13:50:12][Info] hami.Controllers.AuthenticationServiceController AuthenticationService-SignIn 
[2021-09-26 13:50:15][Info] EnsembleCRM.Controllers.GoogleServiceController CustomGAReport 
[2021-09-26 13:50:15][Info] EnsembleCRM.Controllers.GoogleServiceController GetMmberInfo 
[2021-09-26 13:50:15][Error] hami.Controllers.AuthenticationServiceController System.Data.SqlClient.SqlException (0x80131904): 無效的物件名稱 'cdp_options'。
   at System.Data.SqlClient.SqlConnection.OnError(SqlException exception, Boolean breakConnection, Action`1 wrapCloseInAction)
   at System.Data.SqlClient.SqlInternalConnection.OnError(SqlException exception, Boolean breakConnection, Action`1 wrapCloseInAction)
   at System.Data.SqlClient.TdsParser.ThrowExceptionAndWarning(TdsParserStateObject stateObj, Boolean callerHasConnectionLock, Boolean asyncClose)
   at System.Data.SqlClient.TdsParser.TryRun(RunBehavior runBehavior, SqlCommand cmdHandler, SqlDataReader dataStream, BulkCopySimpleResultSet bulkCopyHandler, TdsParserStateObject stateObj, Boolean& dataReady)
   at System.Data.SqlClient.SqlDataReader.TryConsumeMetaData()
   at System.Data.SqlClient.SqlDataReader.get_MetaData()
   at System.Data.SqlClient.SqlCommand.FinishExecuteReader(SqlDataReader ds, RunBehavior runBehavior, String resetOptionsString)
   at System.Data.SqlClient.SqlCommand.RunExecuteReaderTds(CommandBehavior cmdBehavior, RunBehavior runBehavior, Boolean returnStream, Boolean async, Int32 timeout, Task& task, Boolean asyncWrite, SqlDataReader ds)
   at System.Data.SqlClient.SqlCommand.RunExecuteReader(CommandBehavior cmdBehavior, RunBehavior runBehavior, Boolean returnStream, TaskCompletionSource`1 completion, Int32 timeout, Task& task, Boolean asyncWrite, String method)
   at System.Data.SqlClient.SqlCommand.RunExecuteReader(CommandBehavior cmdBehavior, RunBehavior runBehavior, Boolean returnStream, String method)
   at System.Data.SqlClient.SqlCommand.ExecuteReader(CommandBehavior behavior)
   at System.Data.SqlClient.SqlCommand.ExecuteDbDataReader(CommandBehavior behavior)
   at System.Data.Common.DbCommand.System.Data.IDbCommand.ExecuteReader(CommandBehavior behavior)
   at Dapper.SqlMapper.ExecuteReaderWithFlagsFallback(IDbCommand cmd, Boolean wasClosed, CommandBehavior behavior) in /_/Dapper/SqlMapper.cs:line 1055
   at Dapper.SqlMapper.QueryImpl[T](IDbConnection cnn, CommandDefinition command, Type effectiveType)+MoveNext() in /_/Dapper/SqlMapper.cs:line 1083
   at System.Collections.Generic.List`1..ctor(IEnumerable`1 collection)
   at System.Linq.Enumerable.ToList[TSource](IEnumerable`1 source)
   at Dapper.SqlMapper.Query[T](IDbConnection cnn, String sql, Object param, IDbTransaction transaction, Boolean buffered, Nullable`1 commandTimeout, Nullable`1 commandType) in /_/Dapper/SqlMapper.cs:line 725
   at hami.Controllers.AuthenticationServiceController.BasicSetting(String siteName) in C:\Users\adrian\Documents\repos\HAMI\Controllers\AuthenticationServiceController.cs:line 106
ClientConnectionId:86234194-2161-4439-826f-751d727ee0d2
Error Number:208,State:1,Class:16 
[2021-09-26 13:50:15][Info] EnsembleCRM.Controllers.GoogleServiceController GetGAReport 
[2021-09-26 13:50:20][Info] EnsembleCRM.Controllers.GoogleServiceController CustomGAReport 
[2021-09-26 13:50:20][Info] EnsembleCRM.Controllers.GoogleServiceController GetMmberInfo 
[2021-09-26 13:50:20][Info] EnsembleCRM.Controllers.GoogleServiceController GetGAReport 
[2021-09-26 13:50:32][Info] EnsembleCRM.Controllers.GoogleServiceController CustomGAReport 
[2021-09-26 13:50:32][Info] EnsembleCRM.Controllers.GoogleServiceController GetMmberInfo 
[2021-09-26 13:50:32][Info] EnsembleCRM.Controllers.GoogleServiceController GetGAReport 
[2021-09-26 13:50:56][Info] EnsembleCRM.Controllers.GoogleServiceController CustomGAReport 
[2021-09-26 13:50:56][Info] EnsembleCRM.Controllers.GoogleServiceController GetMmberInfo 
[2021-09-26 13:50:56][Info] EnsembleCRM.Controllers.GoogleServiceController GetGAReport 
[2021-09-26 13:51:02][Info] EnsembleCRM.Controllers.GoogleServiceController CustomGAReport 
[2021-09-26 13:51:02][Info] EnsembleCRM.Controllers.GoogleServiceController GetMmberInfo 
[2021-09-26 13:51:02][Info] EnsembleCRM.Controllers.GoogleServiceController GetGAReport 
[2021-09-26 13:56:39][Info] EnsembleCRM.Program 啟動程式 
[2021-09-26 13:57:05][Info] hami.Controllers.AuthenticationServiceController AuthenticationService-SignIn 
[2021-09-26 13:57:07][Info] EnsembleCRM.Controllers.GoogleServiceController CustomGAReport 
[2021-09-26 13:57:07][Info] EnsembleCRM.Controllers.GoogleServiceController GetMmberInfo 
[2021-09-26 13:57:07][Error] hami.Controllers.AuthenticationServiceController System.Data.SqlClient.SqlException (0x80131904): 無效的物件名稱 'cdp_options'。
   at System.Data.SqlClient.SqlConnection.OnError(SqlException exception, Boolean breakConnection, Action`1 wrapCloseInAction)
   at System.Data.SqlClient.SqlInternalConnection.OnError(SqlException exception, Boolean breakConnection, Action`1 wrapCloseInAction)
   at System.Data.SqlClient.TdsParser.ThrowExceptionAndWarning(TdsParserStateObject stateObj, Boolean callerHasConnectionLock, Boolean asyncClose)
   at System.Data.SqlClient.TdsParser.TryRun(RunBehavior runBehavior, SqlCommand cmdHandler, SqlDataReader dataStream, BulkCopySimpleResultSet bulkCopyHandler, TdsParserStateObject stateObj, Boolean& dataReady)
   at System.Data.SqlClient.SqlDataReader.TryConsumeMetaData()
   at System.Data.SqlClient.SqlDataReader.get_MetaData()
   at System.Data.SqlClient.SqlCommand.FinishExecuteReader(SqlDataReader ds, RunBehavior runBehavior, String resetOptionsString)
   at System.Data.SqlClient.SqlCommand.RunExecuteReaderTds(CommandBehavior cmdBehavior, RunBehavior runBehavior, Boolean returnStream, Boolean async, Int32 timeout, Task& task, Boolean asyncWrite, SqlDataReader ds)
   at System.Data.SqlClient.SqlCommand.RunExecuteReader(CommandBehavior cmdBehavior, RunBehavior runBehavior, Boolean returnStream, TaskCompletionSource`1 completion, Int32 timeout, Task& task, Boolean asyncWrite, String method)
   at System.Data.SqlClient.SqlCommand.RunExecuteReader(CommandBehavior cmdBehavior, RunBehavior runBehavior, Boolean returnStream, String method)
   at System.Data.SqlClient.SqlCommand.ExecuteReader(CommandBehavior behavior)
   at System.Data.SqlClient.SqlCommand.ExecuteDbDataReader(CommandBehavior behavior)
   at System.Data.Common.DbCommand.System.Data.IDbCommand.ExecuteReader(CommandBehavior behavior)
   at Dapper.SqlMapper.ExecuteReaderWithFlagsFallback(IDbCommand cmd, Boolean wasClosed, CommandBehavior behavior) in /_/Dapper/SqlMapper.cs:line 1055
   at Dapper.SqlMapper.QueryImpl[T](IDbConnection cnn, CommandDefinition command, Type effectiveType)+MoveNext() in /_/Dapper/SqlMapper.cs:line 1083
   at System.Collections.Generic.List`1..ctor(IEnumerable`1 collection)
   at System.Linq.Enumerable.ToList[TSource](IEnumerable`1 source)
   at Dapper.SqlMapper.Query[T](IDbConnection cnn, String sql, Object param, IDbTransaction transaction, Boolean buffered, Nullable`1 commandTimeout, Nullable`1 commandType) in /_/Dapper/SqlMapper.cs:line 725
   at hami.Controllers.AuthenticationServiceController.BasicSetting(String siteName) in C:\Users\adrian\Documents\repos\HAMI\Controllers\AuthenticationServiceController.cs:line 106
ClientConnectionId:b6047fa3-58c0-4f89-8a9a-a864bc80a7b3
Error Number:208,State:1,Class:16 
[2021-09-26 13:57:08][Info] EnsembleCRM.Controllers.GoogleServiceController GetGAReport 
[2021-09-26 13:57:12][Info] EnsembleCRM.Controllers.GoogleServiceController CustomGAReport 
[2021-09-26 13:57:12][Info] EnsembleCRM.Controllers.GoogleServiceController GetMmberInfo 
[2021-09-26 13:57:12][Info] EnsembleCRM.Controllers.GoogleServiceController GetGAReport 
[2021-09-26 14:23:01][Info] EnsembleCRM.Program 啟動程式 
[2021-09-26 14:24:23][Info] hami.Controllers.AuthenticationServiceController AuthenticationService-SignIn 
[2021-09-26 14:24:25][Info] EnsembleCRM.Controllers.GoogleServiceController CustomGAReport 
[2021-09-26 14:24:25][Info] EnsembleCRM.Controllers.GoogleServiceController GetMmberInfo 
[2021-09-26 14:24:25][Error] hami.Controllers.AuthenticationServiceController System.Data.SqlClient.SqlException (0x80131904): 無效的物件名稱 'cdp_options'。
   at System.Data.SqlClient.SqlConnection.OnError(SqlException exception, Boolean breakConnection, Action`1 wrapCloseInAction)
   at System.Data.SqlClient.SqlInternalConnection.OnError(SqlException exception, Boolean breakConnection, Action`1 wrapCloseInAction)
   at System.Data.SqlClient.TdsParser.ThrowExceptionAndWarning(TdsParserStateObject stateObj, Boolean callerHasConnectionLock, Boolean asyncClose)
   at System.Data.SqlClient.TdsParser.TryRun(RunBehavior runBehavior, SqlCommand cmdHandler, SqlDataReader dataStream, BulkCopySimpleResultSet bulkCopyHandler, TdsParserStateObject stateObj, Boolean& dataReady)
   at System.Data.SqlClient.SqlDataReader.TryConsumeMetaData()
   at System.Data.SqlClient.SqlDataReader.get_MetaData()
   at System.Data.SqlClient.SqlCommand.FinishExecuteReader(SqlDataReader ds, RunBehavior runBehavior, String resetOptionsString)
   at System.Data.SqlClient.SqlCommand.RunExecuteReaderTds(CommandBehavior cmdBehavior, RunBehavior runBehavior, Boolean returnStream, Boolean async, Int32 timeout, Task& task, Boolean asyncWrite, SqlDataReader ds)
   at System.Data.SqlClient.SqlCommand.RunExecuteReader(CommandBehavior cmdBehavior, RunBehavior runBehavior, Boolean returnStream, TaskCompletionSource`1 completion, Int32 timeout, Task& task, Boolean asyncWrite, String method)
   at System.Data.SqlClient.SqlCommand.RunExecuteReader(CommandBehavior cmdBehavior, RunBehavior runBehavior, Boolean returnStream, String method)
   at System.Data.SqlClient.SqlCommand.ExecuteReader(CommandBehavior behavior)
   at System.Data.SqlClient.SqlCommand.ExecuteDbDataReader(CommandBehavior behavior)
   at System.Data.Common.DbCommand.System.Data.IDbCommand.ExecuteReader(CommandBehavior behavior)
   at Dapper.SqlMapper.ExecuteReaderWithFlagsFallback(IDbCommand cmd, Boolean wasClosed, CommandBehavior behavior) in /_/Dapper/SqlMapper.cs:line 1055
   at Dapper.SqlMapper.QueryImpl[T](IDbConnection cnn, CommandDefinition command, Type effectiveType)+MoveNext() in /_/Dapper/SqlMapper.cs:line 1083
   at System.Collections.Generic.List`1..ctor(IEnumerable`1 collection)
   at System.Linq.Enumerable.ToList[TSource](IEnumerable`1 source)
   at Dapper.SqlMapper.Query[T](IDbConnection cnn, String sql, Object param, IDbTransaction transaction, Boolean buffered, Nullable`1 commandTimeout, Nullable`1 commandType) in /_/Dapper/SqlMapper.cs:line 725
   at hami.Controllers.AuthenticationServiceController.BasicSetting(String siteName) in C:\Users\adrian\Documents\repos\HAMI\Controllers\AuthenticationServiceController.cs:line 106
ClientConnectionId:458e16c4-9e5d-4c81-a399-836a7bbfd9b0
Error Number:208,State:1,Class:16 
[2021-09-26 14:24:25][Info] EnsembleCRM.Controllers.GoogleServiceController GetGAReport 
[2021-09-26 14:26:28][Info] hami.Controllers.AuthenticationServiceController AuthenticationService-SignIn 
[2021-09-26 14:26:29][Info] EnsembleCRM.Controllers.GoogleServiceController CustomGAReport 
[2021-09-26 14:26:29][Info] EnsembleCRM.Controllers.GoogleServiceController GetMmberInfo 
[2021-09-26 14:26:29][Error] hami.Controllers.AuthenticationServiceController System.Data.SqlClient.SqlException (0x80131904): 無效的物件名稱 'cdp_options'。
   at System.Data.SqlClient.SqlConnection.OnError(SqlException exception, Boolean breakConnection, Action`1 wrapCloseInAction)
   at System.Data.SqlClient.SqlInternalConnection.OnError(SqlException exception, Boolean breakConnection, Action`1 wrapCloseInAction)
   at System.Data.SqlClient.TdsParser.ThrowExceptionAndWarning(TdsParserStateObject stateObj, Boolean callerHasConnectionLock, Boolean asyncClose)
   at System.Data.SqlClient.TdsParser.TryRun(RunBehavior runBehavior, SqlCommand cmdHandler, SqlDataReader dataStream, BulkCopySimpleResultSet bulkCopyHandler, TdsParserStateObject stateObj, Boolean& dataReady)
   at System.Data.SqlClient.SqlDataReader.TryConsumeMetaData()
   at System.Data.SqlClient.SqlDataReader.get_MetaData()
   at System.Data.SqlClient.SqlCommand.FinishExecuteReader(SqlDataReader ds, RunBehavior runBehavior, String resetOptionsString)
   at System.Data.SqlClient.SqlCommand.RunExecuteReaderTds(CommandBehavior cmdBehavior, RunBehavior runBehavior, Boolean returnStream, Boolean async, Int32 timeout, Task& task, Boolean asyncWrite, SqlDataReader ds)
   at System.Data.SqlClient.SqlCommand.RunExecuteReader(CommandBehavior cmdBehavior, RunBehavior runBehavior, Boolean returnStream, TaskCompletionSource`1 completion, Int32 timeout, Task& task, Boolean asyncWrite, String method)
   at System.Data.SqlClient.SqlCommand.RunExecuteReader(CommandBehavior cmdBehavior, RunBehavior runBehavior, Boolean returnStream, String method)
   at System.Data.SqlClient.SqlCommand.ExecuteReader(CommandBehavior behavior)
   at System.Data.SqlClient.SqlCommand.ExecuteDbDataReader(CommandBehavior behavior)
   at System.Data.Common.DbCommand.System.Data.IDbCommand.ExecuteReader(CommandBehavior behavior)
   at Dapper.SqlMapper.ExecuteReaderWithFlagsFallback(IDbCommand cmd, Boolean wasClosed, CommandBehavior behavior) in /_/Dapper/SqlMapper.cs:line 1055
   at Dapper.SqlMapper.QueryImpl[T](IDbConnection cnn, CommandDefinition command, Type effectiveType)+MoveNext() in /_/Dapper/SqlMapper.cs:line 1083
   at System.Collections.Generic.List`1..ctor(IEnumerable`1 collection)
   at System.Linq.Enumerable.ToList[TSource](IEnumerable`1 source)
   at Dapper.SqlMapper.Query[T](IDbConnection cnn, String sql, Object param, IDbTransaction transaction, Boolean buffered, Nullable`1 commandTimeout, Nullable`1 commandType) in /_/Dapper/SqlMapper.cs:line 725
   at hami.Controllers.AuthenticationServiceController.BasicSetting(String siteName) in C:\Users\adrian\Documents\repos\HAMI\Controllers\AuthenticationServiceController.cs:line 106
ClientConnectionId:458e16c4-9e5d-4c81-a399-836a7bbfd9b0
Error Number:208,State:1,Class:16 
[2021-09-26 14:26:29][Info] EnsembleCRM.Controllers.GoogleServiceController GetGAReport 
[2021-09-26 14:26:35][Info] EnsembleCRM.Controllers.GoogleServiceController CustomGAReport 
[2021-09-26 14:26:35][Info] EnsembleCRM.Controllers.GoogleServiceController GetMmberInfo 
[2021-09-26 14:26:35][Info] EnsembleCRM.Controllers.GoogleServiceController GetGAReport 
[2021-09-26 14:39:59][Info] hami.Controllers.AuthenticationServiceController AuthenticationService-SignIn 
[2021-09-26 14:40:00][Info] EnsembleCRM.Controllers.GoogleServiceController CustomGAReport 
[2021-09-26 14:40:00][Info] EnsembleCRM.Controllers.GoogleServiceController GetMmberInfo 
[2021-09-26 14:40:00][Info] EnsembleCRM.Controllers.GoogleServiceController GetGAReport 
[2021-09-26 14:40:00][Error] hami.Controllers.AuthenticationServiceController System.Data.SqlClient.SqlException (0x80131904): 無效的物件名稱 'cdp_options'。
   at System.Data.SqlClient.SqlConnection.OnError(SqlException exception, Boolean breakConnection, Action`1 wrapCloseInAction)
   at System.Data.SqlClient.SqlInternalConnection.OnError(SqlException exception, Boolean breakConnection, Action`1 wrapCloseInAction)
   at System.Data.SqlClient.TdsParser.ThrowExceptionAndWarning(TdsParserStateObject stateObj, Boolean callerHasConnectionLock, Boolean asyncClose)
   at System.Data.SqlClient.TdsParser.TryRun(RunBehavior runBehavior, SqlCommand cmdHandler, SqlDataReader dataStream, BulkCopySimpleResultSet bulkCopyHandler, TdsParserStateObject stateObj, Boolean& dataReady)
   at System.Data.SqlClient.SqlDataReader.TryConsumeMetaData()
   at System.Data.SqlClient.SqlDataReader.get_MetaData()
   at System.Data.SqlClient.SqlCommand.FinishExecuteReader(SqlDataReader ds, RunBehavior runBehavior, String resetOptionsString)
   at System.Data.SqlClient.SqlCommand.RunExecuteReaderTds(CommandBehavior cmdBehavior, RunBehavior runBehavior, Boolean returnStream, Boolean async, Int32 timeout, Task& task, Boolean asyncWrite, SqlDataReader ds)
   at System.Data.SqlClient.SqlCommand.RunExecuteReader(CommandBehavior cmdBehavior, RunBehavior runBehavior, Boolean returnStream, TaskCompletionSource`1 completion, Int32 timeout, Task& task, Boolean asyncWrite, String method)
   at System.Data.SqlClient.SqlCommand.RunExecuteReader(CommandBehavior cmdBehavior, RunBehavior runBehavior, Boolean returnStream, String method)
   at System.Data.SqlClient.SqlCommand.ExecuteReader(CommandBehavior behavior)
   at System.Data.SqlClient.SqlCommand.ExecuteDbDataReader(CommandBehavior behavior)
   at System.Data.Common.DbCommand.System.Data.IDbCommand.ExecuteReader(CommandBehavior behavior)
   at Dapper.SqlMapper.ExecuteReaderWithFlagsFallback(IDbCommand cmd, Boolean wasClosed, CommandBehavior behavior) in /_/Dapper/SqlMapper.cs:line 1055
   at Dapper.SqlMapper.QueryImpl[T](IDbConnection cnn, CommandDefinition command, Type effectiveType)+MoveNext() in /_/Dapper/SqlMapper.cs:line 1083
   at System.Collections.Generic.List`1..ctor(IEnumerable`1 collection)
   at System.Linq.Enumerable.ToList[TSource](IEnumerable`1 source)
   at Dapper.SqlMapper.Query[T](IDbConnection cnn, String sql, Object param, IDbTransaction transaction, Boolean buffered, Nullable`1 commandTimeout, Nullable`1 commandType) in /_/Dapper/SqlMapper.cs:line 725
   at hami.Controllers.AuthenticationServiceController.BasicSetting(String siteName) in C:\Users\adrian\Documents\repos\HAMI\Controllers\AuthenticationServiceController.cs:line 106
ClientConnectionId:50ec8447-3fa1-4b6e-ae1f-7b460792f3b0
Error Number:208,State:1,Class:16 
[2021-09-26 14:45:53][Info] EnsembleCRM.Controllers.GoogleServiceController CustomGAReport 
[2021-09-26 14:45:53][Info] EnsembleCRM.Controllers.GoogleServiceController GetMmberInfo 
[2021-09-26 14:45:53][Error] Microsoft.AspNetCore.Diagnostics.DeveloperExceptionPageMiddleware An unhandled exception has occurred while executing the request. System.FormatException: String 'undefined' was not recognized as a valid DateTime.
   at System.DateTime.ParseExact(String s, String format, IFormatProvider provider)
   at EnsembleCRM.Controllers.GoogleServiceController.CustomGAReport(CustomGAReportParameter paras) in C:\Users\adrian\Documents\repos\HAMI\Controllers\GoogleServiceController.cs:line 331
   at lambda_method19(Closure , Object )
   at Microsoft.AspNetCore.Mvc.Infrastructure.ActionMethodExecutor.AwaitableObjectResultExecutor.Execute(IActionResultTypeMapper mapper, ObjectMethodExecutor executor, Object controller, Object[] arguments)
   at Microsoft.AspNetCore.Mvc.Infrastructure.ControllerActionInvoker.<InvokeActionMethodAsync>g__Awaited|12_0(ControllerActionInvoker invoker, ValueTask`1 actionResultValueTask)
   at Microsoft.AspNetCore.Mvc.Infrastructure.ControllerActionInvoker.<InvokeNextActionFilterAsync>g__Awaited|10_0(ControllerActionInvoker invoker, Task lastTask, State next, Scope scope, Object state, Boolean isCompleted)
   at Microsoft.AspNetCore.Mvc.Infrastructure.ControllerActionInvoker.Rethrow(ActionExecutedContextSealed context)
   at Microsoft.AspNetCore.Mvc.Infrastructure.ControllerActionInvoker.Next(State& next, Scope& scope, Object& state, Boolean& isCompleted)
   at Microsoft.AspNetCore.Mvc.Infrastructure.ControllerActionInvoker.InvokeInnerFilterAsync()
--- End of stack trace from previous location ---
   at Microsoft.AspNetCore.Mvc.Infrastructure.ResourceInvoker.<InvokeFilterPipelineAsync>g__Awaited|19_0(ResourceInvoker invoker, Task lastTask, State next, Scope scope, Object state, Boolean isCompleted)
   at Microsoft.AspNetCore.Mvc.Infrastructure.ResourceInvoker.<InvokeAsync>g__Awaited|17_0(ResourceInvoker invoker, Task task, IDisposable scope)
   at Microsoft.AspNetCore.Routing.EndpointMiddleware.<Invoke>g__AwaitRequestTask|6_0(Endpoint endpoint, Task requestTask, ILogger logger)
   at Microsoft.AspNetCore.Authorization.AuthorizationMiddleware.Invoke(HttpContext context)
   at Microsoft.AspNetCore.ResponseCompression.ResponseCompressionMiddleware.Invoke(HttpContext context)
   at Microsoft.AspNetCore.Diagnostics.DeveloperExceptionPageMiddleware.Invoke(HttpContext context)
[2021-09-26 14:45:58][Info] EnsembleCRM.Controllers.GoogleServiceController CustomGAReport 
[2021-09-26 14:45:58][Info] EnsembleCRM.Controllers.GoogleServiceController GetMmberInfo 
[2021-09-26 14:45:58][Error] Microsoft.AspNetCore.Diagnostics.DeveloperExceptionPageMiddleware An unhandled exception has occurred while executing the request. System.FormatException: String 'undefined' was not recognized as a valid DateTime.
   at System.DateTime.ParseExact(String s, String format, IFormatProvider provider)
   at EnsembleCRM.Controllers.GoogleServiceController.CustomGAReport(CustomGAReportParameter paras) in C:\Users\adrian\Documents\repos\HAMI\Controllers\GoogleServiceController.cs:line 331
   at lambda_method19(Closure , Object )
   at Microsoft.AspNetCore.Mvc.Infrastructure.ActionMethodExecutor.AwaitableObjectResultExecutor.Execute(IActionResultTypeMapper mapper, ObjectMethodExecutor executor, Object controller, Object[] arguments)
   at Microsoft.AspNetCore.Mvc.Infrastructure.ControllerActionInvoker.<InvokeActionMethodAsync>g__Awaited|12_0(ControllerActionInvoker invoker, ValueTask`1 actionResultValueTask)
   at Microsoft.AspNetCore.Mvc.Infrastructure.ControllerActionInvoker.<InvokeNextActionFilterAsync>g__Awaited|10_0(ControllerActionInvoker invoker, Task lastTask, State next, Scope scope, Object state, Boolean isCompleted)
   at Microsoft.AspNetCore.Mvc.Infrastructure.ControllerActionInvoker.Rethrow(ActionExecutedContextSealed context)
   at Microsoft.AspNetCore.Mvc.Infrastructure.ControllerActionInvoker.Next(State& next, Scope& scope, Object& state, Boolean& isCompleted)
   at Microsoft.AspNetCore.Mvc.Infrastructure.ControllerActionInvoker.InvokeInnerFilterAsync()
--- End of stack trace from previous location ---
   at Microsoft.AspNetCore.Mvc.Infrastructure.ResourceInvoker.<InvokeFilterPipelineAsync>g__Awaited|19_0(ResourceInvoker invoker, Task lastTask, State next, Scope scope, Object state, Boolean isCompleted)
   at Microsoft.AspNetCore.Mvc.Infrastructure.ResourceInvoker.<InvokeAsync>g__Awaited|17_0(ResourceInvoker invoker, Task task, IDisposable scope)
   at Microsoft.AspNetCore.Routing.EndpointMiddleware.<Invoke>g__AwaitRequestTask|6_0(Endpoint endpoint, Task requestTask, ILogger logger)
   at Microsoft.AspNetCore.Authorization.AuthorizationMiddleware.Invoke(HttpContext context)
   at Microsoft.AspNetCore.ResponseCompression.ResponseCompressionMiddleware.Invoke(HttpContext context)
   at Microsoft.AspNetCore.Diagnostics.DeveloperExceptionPageMiddleware.Invoke(HttpContext context)
[2021-09-26 14:46:17][Info] EnsembleCRM.Controllers.GoogleServiceController CustomGAReport 
[2021-09-26 14:46:17][Info] EnsembleCRM.Controllers.GoogleServiceController GetMmberInfo 
[2021-09-26 14:46:17][Error] Microsoft.AspNetCore.Diagnostics.DeveloperExceptionPageMiddleware An unhandled exception has occurred while executing the request. System.FormatException: String 'undefined' was not recognized as a valid DateTime.
   at System.DateTime.ParseExact(String s, String format, IFormatProvider provider)
   at EnsembleCRM.Controllers.GoogleServiceController.CustomGAReport(CustomGAReportParameter paras) in C:\Users\adrian\Documents\repos\HAMI\Controllers\GoogleServiceController.cs:line 331
   at lambda_method19(Closure , Object )
   at Microsoft.AspNetCore.Mvc.Infrastructure.ActionMethodExecutor.AwaitableObjectResultExecutor.Execute(IActionResultTypeMapper mapper, ObjectMethodExecutor executor, Object controller, Object[] arguments)
   at Microsoft.AspNetCore.Mvc.Infrastructure.ControllerActionInvoker.<InvokeActionMethodAsync>g__Awaited|12_0(ControllerActionInvoker invoker, ValueTask`1 actionResultValueTask)
   at Microsoft.AspNetCore.Mvc.Infrastructure.ControllerActionInvoker.<InvokeNextActionFilterAsync>g__Awaited|10_0(ControllerActionInvoker invoker, Task lastTask, State next, Scope scope, Object state, Boolean isCompleted)
   at Microsoft.AspNetCore.Mvc.Infrastructure.ControllerActionInvoker.Rethrow(ActionExecutedContextSealed context)
   at Microsoft.AspNetCore.Mvc.Infrastructure.ControllerActionInvoker.Next(State& next, Scope& scope, Object& state, Boolean& isCompleted)
   at Microsoft.AspNetCore.Mvc.Infrastructure.ControllerActionInvoker.InvokeInnerFilterAsync()
--- End of stack trace from previous location ---
   at Microsoft.AspNetCore.Mvc.Infrastructure.ResourceInvoker.<InvokeFilterPipelineAsync>g__Awaited|19_0(ResourceInvoker invoker, Task lastTask, State next, Scope scope, Object state, Boolean isCompleted)
   at Microsoft.AspNetCore.Mvc.Infrastructure.ResourceInvoker.<InvokeAsync>g__Awaited|17_0(ResourceInvoker invoker, Task task, IDisposable scope)
   at Microsoft.AspNetCore.Routing.EndpointMiddleware.<Invoke>g__AwaitRequestTask|6_0(Endpoint endpoint, Task requestTask, ILogger logger)
   at Microsoft.AspNetCore.Authorization.AuthorizationMiddleware.Invoke(HttpContext context)
   at Microsoft.AspNetCore.ResponseCompression.ResponseCompressionMiddleware.Invoke(HttpContext context)
   at Microsoft.AspNetCore.Diagnostics.DeveloperExceptionPageMiddleware.Invoke(HttpContext context)
[2021-09-26 14:47:00][Info] EnsembleCRM.Controllers.GoogleServiceController CustomGAReport 
[2021-09-26 14:47:00][Info] EnsembleCRM.Controllers.GoogleServiceController GetMmberInfo 
[2021-09-26 14:47:00][Error] Microsoft.AspNetCore.Diagnostics.DeveloperExceptionPageMiddleware An unhandled exception has occurred while executing the request. System.FormatException: String 'undefined' was not recognized as a valid DateTime.
   at System.DateTime.ParseExact(String s, String format, IFormatProvider provider)
   at EnsembleCRM.Controllers.GoogleServiceController.CustomGAReport(CustomGAReportParameter paras) in C:\Users\adrian\Documents\repos\HAMI\Controllers\GoogleServiceController.cs:line 331
   at lambda_method19(Closure , Object )
   at Microsoft.AspNetCore.Mvc.Infrastructure.ActionMethodExecutor.AwaitableObjectResultExecutor.Execute(IActionResultTypeMapper mapper, ObjectMethodExecutor executor, Object controller, Object[] arguments)
   at Microsoft.AspNetCore.Mvc.Infrastructure.ControllerActionInvoker.<InvokeActionMethodAsync>g__Awaited|12_0(ControllerActionInvoker invoker, ValueTask`1 actionResultValueTask)
   at Microsoft.AspNetCore.Mvc.Infrastructure.ControllerActionInvoker.<InvokeNextActionFilterAsync>g__Awaited|10_0(ControllerActionInvoker invoker, Task lastTask, State next, Scope scope, Object state, Boolean isCompleted)
   at Microsoft.AspNetCore.Mvc.Infrastructure.ControllerActionInvoker.Rethrow(ActionExecutedContextSealed context)
   at Microsoft.AspNetCore.Mvc.Infrastructure.ControllerActionInvoker.Next(State& next, Scope& scope, Object& state, Boolean& isCompleted)
   at Microsoft.AspNetCore.Mvc.Infrastructure.ControllerActionInvoker.InvokeInnerFilterAsync()
--- End of stack trace from previous location ---
   at Microsoft.AspNetCore.Mvc.Infrastructure.ResourceInvoker.<InvokeFilterPipelineAsync>g__Awaited|19_0(ResourceInvoker invoker, Task lastTask, State next, Scope scope, Object state, Boolean isCompleted)
   at Microsoft.AspNetCore.Mvc.Infrastructure.ResourceInvoker.<InvokeAsync>g__Awaited|17_0(ResourceInvoker invoker, Task task, IDisposable scope)
   at Microsoft.AspNetCore.Routing.EndpointMiddleware.<Invoke>g__AwaitRequestTask|6_0(Endpoint endpoint, Task requestTask, ILogger logger)
   at Microsoft.AspNetCore.Authorization.AuthorizationMiddleware.Invoke(HttpContext context)
   at Microsoft.AspNetCore.ResponseCompression.ResponseCompressionMiddleware.Invoke(HttpContext context)
   at Microsoft.AspNetCore.Diagnostics.DeveloperExceptionPageMiddleware.Invoke(HttpContext context)
[2021-09-26 14:53:34][Info] EnsembleCRM.Controllers.GoogleServiceController CustomGAReport 
[2021-09-26 14:53:34][Info] EnsembleCRM.Controllers.GoogleServiceController GetMmberInfo 
[2021-09-26 14:53:48][Error] EnsembleCRM.Controllers.GoogleServiceController System.NullReferenceException: Object reference not set to an instance of an object.
   at EnsembleCRM.Controllers.GoogleServiceController.CustomGAReport(CustomGAReportParameter paras) in C:\Users\adrian\Documents\repos\HAMI\Controllers\GoogleServiceController.cs:line 341 
[2021-09-26 14:56:15][Info] EnsembleCRM.Controllers.GoogleServiceController CustomGAReport 
[2021-09-26 14:56:15][Info] EnsembleCRM.Controllers.GoogleServiceController GetMmberInfo 
[2021-09-26 14:56:15][Info] EnsembleCRM.Controllers.GoogleServiceController GetGAReport 
[2021-09-26 14:56:23][Info] EnsembleCRM.Controllers.GoogleServiceController CustomGAReport 
[2021-09-26 14:56:23][Info] EnsembleCRM.Controllers.GoogleServiceController GetMmberInfo 
[2021-09-26 14:56:23][Info] EnsembleCRM.Controllers.GoogleServiceController GetGAReport 
[2021-09-26 14:56:29][Info] EnsembleCRM.Controllers.GoogleServiceController CustomGAReport 
[2021-09-26 14:56:29][Info] EnsembleCRM.Controllers.GoogleServiceController GetMmberInfo 
[2021-09-26 14:56:29][Info] EnsembleCRM.Controllers.GoogleServiceController GetGAReport 
[2021-09-26 14:56:36][Info] EnsembleCRM.Controllers.GoogleServiceController CustomGAReport 
[2021-09-26 14:56:36][Info] EnsembleCRM.Controllers.GoogleServiceController GetMmberInfo 
[2021-09-26 14:56:36][Info] EnsembleCRM.Controllers.GoogleServiceController GetGAReport 
[2021-09-26 14:56:40][Info] EnsembleCRM.Controllers.GoogleServiceController CustomGAReport 
[2021-09-26 14:56:40][Info] EnsembleCRM.Controllers.GoogleServiceController GetMmberInfo 
[2021-09-26 14:56:40][Info] EnsembleCRM.Controllers.GoogleServiceController GetGAReport 
[2021-09-26 14:56:41][Info] EnsembleCRM.Controllers.GoogleServiceController CustomGAReport 
[2021-09-26 14:56:41][Info] EnsembleCRM.Controllers.GoogleServiceController GetMmberInfo 
[2021-09-26 14:56:41][Info] EnsembleCRM.Controllers.GoogleServiceController GetGAReport 
[2021-09-26 14:56:43][Info] EnsembleCRM.Controllers.GoogleServiceController CustomGAReport 
[2021-09-26 14:56:43][Info] EnsembleCRM.Controllers.GoogleServiceController GetMmberInfo 
[2021-09-26 14:56:43][Info] EnsembleCRM.Controllers.GoogleServiceController GetGAReport 
[2021-09-26 14:56:45][Info] EnsembleCRM.Controllers.GoogleServiceController CustomGAReport 
[2021-09-26 14:56:45][Info] EnsembleCRM.Controllers.GoogleServiceController GetMmberInfo 
[2021-09-26 14:56:45][Info] EnsembleCRM.Controllers.GoogleServiceController GetGAReport 
[2021-09-26 14:56:46][Info] EnsembleCRM.Controllers.GoogleServiceController CustomGAReport 
[2021-09-26 14:56:46][Info] EnsembleCRM.Controllers.GoogleServiceController GetMmberInfo 
[2021-09-26 14:56:46][Info] EnsembleCRM.Controllers.GoogleServiceController GetGAReport 
[2021-09-26 14:58:31][Info] hami.Controllers.AuthenticationServiceController AuthenticationService-SignIn 
[2021-09-26 14:58:32][Info] EnsembleCRM.Controllers.GoogleServiceController CustomGAReport 
[2021-09-26 14:58:32][Info] EnsembleCRM.Controllers.GoogleServiceController GetMmberInfo 
[2021-09-26 14:58:32][Info] EnsembleCRM.Controllers.GoogleServiceController GetGAReport 
[2021-09-26 14:58:32][Error] hami.Controllers.AuthenticationServiceController System.Data.SqlClient.SqlException (0x80131904): 無效的物件名稱 'cdp_options'。
   at System.Data.SqlClient.SqlConnection.OnError(SqlException exception, Boolean breakConnection, Action`1 wrapCloseInAction)
   at System.Data.SqlClient.SqlInternalConnection.OnError(SqlException exception, Boolean breakConnection, Action`1 wrapCloseInAction)
   at System.Data.SqlClient.TdsParser.ThrowExceptionAndWarning(TdsParserStateObject stateObj, Boolean callerHasConnectionLock, Boolean asyncClose)
   at System.Data.SqlClient.TdsParser.TryRun(RunBehavior runBehavior, SqlCommand cmdHandler, SqlDataReader dataStream, BulkCopySimpleResultSet bulkCopyHandler, TdsParserStateObject stateObj, Boolean& dataReady)
   at System.Data.SqlClient.SqlDataReader.TryConsumeMetaData()
   at System.Data.SqlClient.SqlDataReader.get_MetaData()
   at System.Data.SqlClient.SqlCommand.FinishExecuteReader(SqlDataReader ds, RunBehavior runBehavior, String resetOptionsString)
   at System.Data.SqlClient.SqlCommand.RunExecuteReaderTds(CommandBehavior cmdBehavior, RunBehavior runBehavior, Boolean returnStream, Boolean async, Int32 timeout, Task& task, Boolean asyncWrite, SqlDataReader ds)
   at System.Data.SqlClient.SqlCommand.RunExecuteReader(CommandBehavior cmdBehavior, RunBehavior runBehavior, Boolean returnStream, TaskCompletionSource`1 completion, Int32 timeout, Task& task, Boolean asyncWrite, String method)
   at System.Data.SqlClient.SqlCommand.RunExecuteReader(CommandBehavior cmdBehavior, RunBehavior runBehavior, Boolean returnStream, String method)
   at System.Data.SqlClient.SqlCommand.ExecuteReader(CommandBehavior behavior)
   at System.Data.SqlClient.SqlCommand.ExecuteDbDataReader(CommandBehavior behavior)
   at System.Data.Common.DbCommand.System.Data.IDbCommand.ExecuteReader(CommandBehavior behavior)
   at Dapper.SqlMapper.ExecuteReaderWithFlagsFallback(IDbCommand cmd, Boolean wasClosed, CommandBehavior behavior) in /_/Dapper/SqlMapper.cs:line 1055
   at Dapper.SqlMapper.QueryImpl[T](IDbConnection cnn, CommandDefinition command, Type effectiveType)+MoveNext() in /_/Dapper/SqlMapper.cs:line 1083
   at System.Collections.Generic.List`1..ctor(IEnumerable`1 collection)
   at System.Linq.Enumerable.ToList[TSource](IEnumerable`1 source)
   at Dapper.SqlMapper.Query[T](IDbConnection cnn, String sql, Object param, IDbTransaction transaction, Boolean buffered, Nullable`1 commandTimeout, Nullable`1 commandType) in /_/Dapper/SqlMapper.cs:line 725
   at hami.Controllers.AuthenticationServiceController.BasicSetting(String siteName) in C:\Users\adrian\Documents\repos\HAMI\Controllers\AuthenticationServiceController.cs:line 106
ClientConnectionId:d315d42d-ed2e-4a38-b1cf-58ed2271c317
Error Number:208,State:1,Class:16 
[2021-09-26 14:58:39][Info] EnsembleCRM.Controllers.GoogleServiceController CustomGAReport 
[2021-09-26 14:58:39][Info] EnsembleCRM.Controllers.GoogleServiceController GetMmberInfo 
[2021-09-26 14:58:39][Info] EnsembleCRM.Controllers.GoogleServiceController GetGAReport 
[2021-09-26 14:58:44][Info] EnsembleCRM.Controllers.GoogleServiceController CustomGAReport 
[2021-09-26 14:58:44][Info] EnsembleCRM.Controllers.GoogleServiceController GetMmberInfo 
[2021-09-26 14:58:44][Info] EnsembleCRM.Controllers.GoogleServiceController GetGAReport 
[2021-09-26 14:59:42][Info] hami.Controllers.AuthenticationServiceController AuthenticationService-SignIn 
[2021-09-26 14:59:44][Info] EnsembleCRM.Controllers.GoogleServiceController CustomGAReport 
[2021-09-26 14:59:44][Info] EnsembleCRM.Controllers.GoogleServiceController GetMmberInfo 
[2021-09-26 14:59:44][Info] EnsembleCRM.Controllers.GoogleServiceController GetGAReport 
[2021-09-26 14:59:44][Error] hami.Controllers.AuthenticationServiceController System.Data.SqlClient.SqlException (0x80131904): 無效的物件名稱 'cdp_options'。
   at System.Data.SqlClient.SqlConnection.OnError(SqlException exception, Boolean breakConnection, Action`1 wrapCloseInAction)
   at System.Data.SqlClient.SqlInternalConnection.OnError(SqlException exception, Boolean breakConnection, Action`1 wrapCloseInAction)
   at System.Data.SqlClient.TdsParser.ThrowExceptionAndWarning(TdsParserStateObject stateObj, Boolean callerHasConnectionLock, Boolean asyncClose)
   at System.Data.SqlClient.TdsParser.TryRun(RunBehavior runBehavior, SqlCommand cmdHandler, SqlDataReader dataStream, BulkCopySimpleResultSet bulkCopyHandler, TdsParserStateObject stateObj, Boolean& dataReady)
   at System.Data.SqlClient.SqlDataReader.TryConsumeMetaData()
   at System.Data.SqlClient.SqlDataReader.get_MetaData()
   at System.Data.SqlClient.SqlCommand.FinishExecuteReader(SqlDataReader ds, RunBehavior runBehavior, String resetOptionsString)
   at System.Data.SqlClient.SqlCommand.RunExecuteReaderTds(CommandBehavior cmdBehavior, RunBehavior runBehavior, Boolean returnStream, Boolean async, Int32 timeout, Task& task, Boolean asyncWrite, SqlDataReader ds)
   at System.Data.SqlClient.SqlCommand.ExecuteReader(CommandBehavior behavior)
   at Dapper.SqlMapper.ExecuteReaderWithFlagsFallback(IDbCommand cmd, Boolean wasClosed, CommandBehavior behavior) in /_/Dapper/SqlMapper.cs:line 1064
   at Dapper.SqlMapper.QueryImpl[T](IDbConnection cnn, CommandDefinition command, Type effectiveType)+MoveNext() in /_/Dapper/SqlMapper.cs:line 1083
   at System.Collections.Generic.List`1..ctor(IEnumerable`1 collection)
   at System.Linq.Enumerable.ToList[TSource](IEnumerable`1 source)
   at Dapper.SqlMapper.Query[T](IDbConnection cnn, String sql, Object param, IDbTransaction transaction, Boolean buffered, Nullable`1 commandTimeout, Nullable`1 commandType) in /_/Dapper/SqlMapper.cs:line 725
   at hami.Controllers.AuthenticationServiceController.BasicSetting(String siteName) in C:\Users\adrian\Documents\repos\HAMI\Controllers\AuthenticationServiceController.cs:line 106
ClientConnectionId:d315d42d-ed2e-4a38-b1cf-58ed2271c317
Error Number:208,State:1,Class:16 
[2021-09-26 14:59:52][Info] EnsembleCRM.Controllers.GoogleServiceController CustomGAReport 
[2021-09-26 14:59:52][Info] EnsembleCRM.Controllers.GoogleServiceController GetMmberInfo 
[2021-09-26 14:59:52][Info] EnsembleCRM.Controllers.GoogleServiceController GetGAReport 
[2021-09-26 15:00:11][Info] EnsembleCRM.Controllers.GoogleServiceController CustomGAReport 
[2021-09-26 15:00:11][Info] EnsembleCRM.Controllers.GoogleServiceController GetMmberInfo 
[2021-09-26 15:00:11][Info] EnsembleCRM.Controllers.GoogleServiceController GetGAReport 
[2021-09-26 15:00:18][Info] EnsembleCRM.Controllers.GoogleServiceController CustomGAReport 
[2021-09-26 15:00:18][Info] EnsembleCRM.Controllers.GoogleServiceController GetMmberInfo 
[2021-09-26 15:00:18][Info] EnsembleCRM.Controllers.GoogleServiceController GetGAReport 
[2021-09-26 15:00:24][Info] EnsembleCRM.Controllers.GoogleServiceController CustomGAReport 
[2021-09-26 15:00:24][Info] EnsembleCRM.Controllers.GoogleServiceController GetMmberInfo 
[2021-09-26 15:00:24][Info] EnsembleCRM.Controllers.GoogleServiceController GetGAReport 
[2021-09-26 15:02:55][Info] EnsembleCRM.Controllers.GoogleServiceController CustomGAReport 
[2021-09-26 15:02:55][Info] EnsembleCRM.Controllers.GoogleServiceController GetMmberInfo 
[2021-09-26 15:02:55][Info] EnsembleCRM.Controllers.GoogleServiceController GetGAReport 
[2021-09-26 15:04:49][Info] EnsembleCRM.Controllers.GoogleServiceController CustomGAReport 
[2021-09-26 15:04:49][Info] EnsembleCRM.Controllers.GoogleServiceController GetMmberInfo 
[2021-09-26 15:04:49][Info] EnsembleCRM.Controllers.GoogleServiceController GetGAReport 
[2021-09-26 15:08:45][Info] EnsembleCRM.Controllers.GoogleServiceController CustomGAReport 
[2021-09-26 15:08:45][Info] EnsembleCRM.Controllers.GoogleServiceController GetMmberInfo 
[2021-09-26 15:08:45][Info] EnsembleCRM.Controllers.GoogleServiceController GetGAReport 
[2021-09-26 15:08:51][Info] EnsembleCRM.Controllers.GoogleServiceController CustomGAReport 
[2021-09-26 15:08:51][Info] EnsembleCRM.Controllers.GoogleServiceController GetMmberInfo 
[2021-09-26 15:08:51][Info] EnsembleCRM.Controllers.GoogleServiceController GetGAReport 
[2021-09-26 15:08:59][Info] EnsembleCRM.Controllers.GoogleServiceController CustomGAReport 
[2021-09-26 15:08:59][Info] EnsembleCRM.Controllers.GoogleServiceController GetMmberInfo 
[2021-09-26 15:08:59][Info] EnsembleCRM.Controllers.GoogleServiceController GetGAReport 
[2021-09-26 15:09:28][Info] EnsembleCRM.Controllers.GoogleServiceController CustomGAReport 
[2021-09-26 15:09:28][Info] EnsembleCRM.Controllers.GoogleServiceController GetMmberInfo 
[2021-09-26 15:09:28][Info] EnsembleCRM.Controllers.GoogleServiceController GetGAReport 
[2021-09-26 15:09:32][Info] EnsembleCRM.Controllers.GoogleServiceController CustomGAReport 
[2021-09-26 15:09:32][Info] EnsembleCRM.Controllers.GoogleServiceController GetMmberInfo 
[2021-09-26 15:09:32][Info] EnsembleCRM.Controllers.GoogleServiceController GetGAReport 
[2021-09-26 15:09:46][Info] EnsembleCRM.Controllers.GoogleServiceController CustomGAReport 
[2021-09-26 15:09:46][Info] EnsembleCRM.Controllers.GoogleServiceController GetMmberInfo 
[2021-09-26 15:09:46][Info] EnsembleCRM.Controllers.GoogleServiceController GetGAReport 
[2021-09-26 15:18:15][Info] EnsembleCRM.Controllers.GoogleServiceController GA-Report 
[2021-09-26 15:18:15][Info] EnsembleCRM.Controllers.GoogleServiceController GetMmberInfo 
[2021-09-26 15:18:15][Info] EnsembleCRM.Controllers.GoogleServiceController GetGAReport 
[2021-09-26 15:18:19][Info] EnsembleCRM.Controllers.GoogleServiceController GetGAReport 
[2021-09-26 15:28:31][Info] EnsembleCRM.Controllers.GoogleServiceController GA-Report 
[2021-09-26 15:28:31][Info] EnsembleCRM.Controllers.GoogleServiceController GetMmberInfo 
[2021-09-26 15:28:31][Info] EnsembleCRM.Controllers.GoogleServiceController GetGAReport 
[2021-09-26 15:28:34][Info] EnsembleCRM.Controllers.GoogleServiceController GetGAReport 
[2021-09-26 15:30:05][Info] EnsembleCRM.Controllers.GoogleServiceController GA-Report 
[2021-09-26 15:30:05][Info] EnsembleCRM.Controllers.GoogleServiceController GetMmberInfo 
[2021-09-26 15:30:05][Info] EnsembleCRM.Controllers.GoogleServiceController GetGAReport 
[2021-09-26 15:30:08][Info] EnsembleCRM.Controllers.GoogleServiceController GetGAReport 
[2021-09-26 15:37:26][Info] EnsembleCRM.Program 啟動程式 
[2021-09-26 15:38:14][Info] EnsembleCRM.Controllers.GoogleServiceController GA-Report 
[2021-09-26 15:38:29][Info] EnsembleCRM.Controllers.GoogleServiceController GetMmberInfo 
[2021-09-26 15:38:29][Info] EnsembleCRM.Controllers.GoogleServiceController GetGAReport 
[2021-09-26 15:38:32][Info] EnsembleCRM.Controllers.GoogleServiceController GetGAReport 
[2021-09-26 15:41:04][Info] EnsembleCRM.Program 啟動程式 
[2021-09-26 15:41:11][Info] EnsembleCRM.Controllers.GoogleServiceController GA-Report 
[2021-09-26 15:41:11][Info] EnsembleCRM.Controllers.GoogleServiceController GetMmberInfo 
[2021-09-26 15:41:11][Info] EnsembleCRM.Controllers.GoogleServiceController GetGAReport 
[2021-09-26 15:41:13][Info] EnsembleCRM.Controllers.GoogleServiceController GetGAReport 
