[2021-06-11 10:45:11][Info] CACO_CDP.Program 啟動程式 
[2021-06-11 10:46:20][Info] CACO_CDP.Helpers.MailHelpers <----RetrieveMail---> 
[2021-06-11 10:46:20][Info] CACO_CDP.Helpers.MailHelpers 連線成功 
[2021-06-11 10:46:22][Info] CACO_CDP.Helpers.MailHelpers 驗證登入 EMAIL 
[2021-06-11 10:46:24][Info] CACO_CDP.Helpers.MailHelpers <---- Output File Path :C:\tealeafevents\tmnewa\temp\ReportforreportTMNI住火險單一工作階段內試算並完成保單件數~export report on_10Jun2021_16010029521429.csv--->C:\tealeafevents\tmnewa\temp\ReportforreportTMNI住火險單一工作階段內試算並完成保單件數~export report on_10Jun2021_16010029521429.csv 
[2021-06-11 10:46:24][Info] CACO_CDP.Helpers.MailHelpers <---- Output File Path :C:\tealeafevents\tmnewa\temp\ReportforreportTMNI傷害險單一工作階段完成保單客戶樣貌來源網域~export report on_10Jun2021_16010028211728.csv--->C:\tealeafevents\tmnewa\temp\ReportforreportTMNI傷害險單一工作階段完成保單客戶樣貌來源網域~export report on_10Jun2021_16010028211728.csv 
[2021-06-11 10:46:24][Info] CACO_CDP.Helpers.MailHelpers <---- Output File Path :C:\tealeafevents\tmnewa\temp\ReportforreportTMNI住火險單一工作階段完成保單客戶樣貌來源網域~export report on_10Jun2021_16010028387553.csv--->C:\tealeafevents\tmnewa\temp\ReportforreportTMNI住火險單一工作階段完成保單客戶樣貌來源網域~export report on_10Jun2021_16010028387553.csv 
[2021-06-11 10:46:25][Info] CACO_CDP.Helpers.MailHelpers <---- Output File Path :C:\tealeafevents\tmnewa\temp\ReportforreportTMNI汽車險單一工作階段內試算並完成保單件數~export report on_10Jun2021_16010029546191.csv--->C:\tealeafevents\tmnewa\temp\ReportforreportTMNI汽車險單一工作階段內試算並完成保單件數~export report on_10Jun2021_16010029546191.csv 
[2021-06-11 10:46:25][Info] CACO_CDP.Helpers.MailHelpers <---- Output File Path :C:\tealeafevents\tmnewa\temp\ReportforreportTMNI旅平險單一工作階段完成保單客戶樣貌來源網域~export report on_10Jun2021_16010027070128.csv--->C:\tealeafevents\tmnewa\temp\ReportforreportTMNI旅平險單一工作階段完成保單客戶樣貌來源網域~export report on_10Jun2021_16010027070128.csv 
[2021-06-11 10:46:25][Info] CACO_CDP.Helpers.MailHelpers <---- Output File Path :C:\tealeafevents\tmnewa\temp\ReportforreportTMNI汽車險單一工作階段完成保單客戶樣貌來源網域~export report on_10Jun2021_16010028513349.csv--->C:\tealeafevents\tmnewa\temp\ReportforreportTMNI汽車險單一工作階段完成保單客戶樣貌來源網域~export report on_10Jun2021_16010028513349.csv 
[2021-06-11 10:46:26][Info] CACO_CDP.Helpers.MailHelpers <---- Output File Path :C:\tealeafevents\tmnewa\temp\ReportTMNI全險種成交客戶樣貌使用裝置~export report on_10Jun2021_16010027855048.csv--->C:\tealeafevents\tmnewa\temp\ReportTMNI全險種成交客戶樣貌使用裝置~export report on_10Jun2021_16010027855048.csv 
[2021-06-11 10:46:26][Info] CACO_CDP.Helpers.MailHelpers <---- Output File Path :C:\tealeafevents\tmnewa\temp\ReportforreportTMNI機車險單一工作階段內試算並完成保單件數~export report on_10Jun2021_16010029318904.csv--->C:\tealeafevents\tmnewa\temp\ReportforreportTMNI機車險單一工作階段內試算並完成保單件數~export report on_10Jun2021_16010029318904.csv 
[2021-06-11 10:46:26][Info] CACO_CDP.Helpers.MailHelpers <---- Output File Path :C:\tealeafevents\tmnewa\temp\ReportforreportTMNI機車險單一工作階段完成保單客戶樣貌來源網域~export report on_10Jun2021_16010029814939.csv--->C:\tealeafevents\tmnewa\temp\ReportforreportTMNI機車險單一工作階段完成保單客戶樣貌來源網域~export report on_10Jun2021_16010029814939.csv 
[2021-06-11 10:46:27][Info] CACO_CDP.Helpers.MailHelpers <---- Output File Path :C:\tealeafevents\tmnewa\temp\ReportforreportTMNI進站數機車險~export report on_10Jun2021_16010031960070.csv--->C:\tealeafevents\tmnewa\temp\ReportforreportTMNI進站數機車險~export report on_10Jun2021_16010031960070.csv 
[2021-06-11 10:46:27][Info] CACO_CDP.Helpers.MailHelpers <---- Output File Path :C:\tealeafevents\tmnewa\temp\ReportforreportTMNIProcessSessionCounts機車險~export report on_10Jun2021_16010048274835.csv--->C:\tealeafevents\tmnewa\temp\ReportforreportTMNIProcessSessionCounts機車險~export report on_10Jun2021_16010048274835.csv 
[2021-06-11 10:46:27][Info] CACO_CDP.Helpers.MailHelpers <---- Output File Path :C:\tealeafevents\tmnewa\temp\ReportforreportTMNIProcessSessionCounts汽車險~export report on_10Jun2021_16010048503026.csv--->C:\tealeafevents\tmnewa\temp\ReportforreportTMNIProcessSessionCounts汽車險~export report on_10Jun2021_16010048503026.csv 
[2021-06-11 10:46:28][Info] CACO_CDP.Helpers.MailHelpers <---- Output File Path :C:\tealeafevents\tmnewa\temp\ReportTMNI全險種成交客戶樣貌國家城市~export report on_10Jun2021_16010035397918.csv--->C:\tealeafevents\tmnewa\temp\ReportTMNI全險種成交客戶樣貌國家城市~export report on_10Jun2021_16010035397918.csv 
[2021-06-11 10:46:28][Info] CACO_CDP.Helpers.MailHelpers <---- Output File Path :C:\tealeafevents\tmnewa\temp\ReportforreportTMNI進站數旅平險~export report on_10Jun2021_16010048246861.csv--->C:\tealeafevents\tmnewa\temp\ReportforreportTMNI進站數旅平險~export report on_10Jun2021_16010048246861.csv 
[2021-06-11 10:46:28][Info] CACO_CDP.Helpers.MailHelpers <---- Output File Path :C:\tealeafevents\tmnewa\temp\ReportforreportTMNI進站數住火險~export report on_10Jun2021_16010047300546.csv--->C:\tealeafevents\tmnewa\temp\ReportforreportTMNI進站數住火險~export report on_10Jun2021_16010047300546.csv 
[2021-06-11 10:46:29][Info] CACO_CDP.Helpers.MailHelpers <---- Output File Path :C:\tealeafevents\tmnewa\temp\ReportforreportTMNI進站數傷害險~export report on_10Jun2021_16010038871044.csv--->C:\tealeafevents\tmnewa\temp\ReportforreportTMNI進站數傷害險~export report on_10Jun2021_16010038871044.csv 
[2021-06-11 10:46:29][Info] CACO_CDP.Helpers.MailHelpers <---- Output File Path :C:\tealeafevents\tmnewa\temp\ReportforreportTMNI旅平險單一工作階段內試算並完成保單件數~export report on_10Jun2021_16010028149972.csv--->C:\tealeafevents\tmnewa\temp\ReportforreportTMNI旅平險單一工作階段內試算並完成保單件數~export report on_10Jun2021_16010028149972.csv 
[2021-06-11 10:46:29][Info] CACO_CDP.Helpers.MailHelpers <---- Output File Path :C:\tealeafevents\tmnewa\temp\ReportforreportTMNI進站數汽車險~export report on_10Jun2021_16010034726334.csv--->C:\tealeafevents\tmnewa\temp\ReportforreportTMNI進站數汽車險~export report on_10Jun2021_16010034726334.csv 
[2021-06-11 10:46:30][Info] CACO_CDP.Helpers.MailHelpers <---- Output File Path :C:\tealeafevents\tmnewa\temp\ReportTMNI全險種成交客戶樣貌來源網域~export report on_10Jun2021_16010029285320.csv--->C:\tealeafevents\tmnewa\temp\ReportTMNI全險種成交客戶樣貌來源網域~export report on_10Jun2021_16010029285320.csv 
[2021-06-11 10:46:30][Info] CACO_CDP.Helpers.MailHelpers <---- Output File Path :C:\tealeafevents\tmnewa\temp\ReportforreportTMNIProcessSessionCounts旅平險~export report on_10Jun2021_16010050097395.csv--->C:\tealeafevents\tmnewa\temp\ReportforreportTMNIProcessSessionCounts旅平險~export report on_10Jun2021_16010050097395.csv 
[2021-06-11 10:46:30][Info] CACO_CDP.Helpers.MailHelpers <---- Output File Path :C:\tealeafevents\tmnewa\temp\ReportforreportTMNI傷害險單一工作階段內試算並完成保單件數~export report on_10Jun2021_16010027984763.csv--->C:\tealeafevents\tmnewa\temp\ReportforreportTMNI傷害險單一工作階段內試算並完成保單件數~export report on_10Jun2021_16010027984763.csv 
[2021-06-11 10:46:31][Info] CACO_CDP.Helpers.MailHelpers <---- Output File Path :C:\tealeafevents\tmnewa\temp\ReportforreportTMNIProcessSessionCounts傷害險~export report on_10Jun2021_16010049867555.csv--->C:\tealeafevents\tmnewa\temp\ReportforreportTMNIProcessSessionCounts傷害險~export report on_10Jun2021_16010049867555.csv 
[2021-06-11 10:46:31][Info] CACO_CDP.Helpers.MailHelpers <---- Output File Path :C:\tealeafevents\tmnewa\temp\ReportforreportTMNIProcessSessionCounts住火險~export report on_10Jun2021_16010047517214.csv--->C:\tealeafevents\tmnewa\temp\ReportforreportTMNIProcessSessionCounts住火險~export report on_10Jun2021_16010047517214.csv 
[2021-06-11 10:46:31][Info] CACO_CDP.Helpers.MailHelpers <---Mail Output Path---->0C:\tealeafevents\tmnewa\temp 
[2021-06-11 10:46:33][Info] CACO_CDP.Helpers.CsvHelpers <--- Tealeaf Mail 匯入資料庫 --->0 成功 
