[2020-07-01 09:26:22][Info] CACO_CDP.Program 啟動程式 
[2020-07-01 09:26:24][Info] Hangfire.MySql.Core.MySqlStorage DB tables already exist. Exit install 
[2020-07-01 09:26:24][Info] Hangfire.BackgroundJobServer Starting Hangfire Server using job storage: 'Server: 127.0.0.1@hangfire' 
[2020-07-01 09:26:24][Info] Hangfire.BackgroundJobServer Using the following options for SQL Server job storage: 
[2020-07-01 09:26:24][Info] Hangfire.BackgroundJobServer     Queue poll interval: 00:00:15. 
[2020-07-01 09:26:24][Info] Hangfire.BackgroundJobServer Using the following options for Hangfire Server:
    Worker count: 20
    Listening queues: 'default'
    Shutdown timeout: 00:00:15
    Schedule polling interval: 00:00:15 
[2020-07-01 09:26:24][Debug] Hangfire.Processing.BackgroundExecution Execution loop BackgroundServerProcess:3b55ee2a has started in 12.3805 ms 
[2020-07-01 09:26:24][Info] Hangfire.Server.BackgroundServerProcess Server laptop-171103:13792:1ea51246 successfully announced in 530.8684 ms 
[2020-07-01 09:26:24][Debug] Hangfire.Processing.BackgroundExecution Execution loop ServerHeartbeatProcess:509115d3 has started in 5.8746 ms 
[2020-07-01 09:26:24][Info] Hangfire.Server.BackgroundServerProcess Server laptop-171103:13792:1ea51246 is starting the registered dispatchers: ServerWatchdog, ServerJobCancellationWatcher, ExpirationManager, CountersAggregator, Worker, DelayedJobScheduler, RecurringJobScheduler... 
[2020-07-01 09:26:24][Debug] Hangfire.Processing.BackgroundExecution Execution loop ServerWatchdog:b68b9e6b has started in 4.4582 ms 
[2020-07-01 09:26:24][Debug] Hangfire.Processing.BackgroundExecution Execution loop ServerJobCancellationWatcher:7e83df59 has started in 26.4195 ms 
[2020-07-01 09:26:24][Debug] Hangfire.Processing.BackgroundExecution Execution loop ExpirationManager:a16fccd3 has started in 26.9938 ms 
[2020-07-01 09:26:24][Debug] Hangfire.Processing.BackgroundExecution Execution loop CountersAggregator:f5798a0e has started in 6.9163 ms 
[2020-07-01 09:26:24][Info] Hangfire.Server.ServerWatchdog 1 servers were removed due to timeout 
[2020-07-01 09:26:24][Debug] Hangfire.MySql.Core.ExpirationManager Removing outdated records from table 'Hangfire_AggregatedCounter'... 
[2020-07-01 09:26:24][Debug] Hangfire.MySql.Core.CountersAggregator Aggregating records in 'Counter' table... 
[2020-07-01 09:26:24][Debug] Hangfire.MySql.Core.ExpirationManager delete from `Hangfire_AggregatedCounter` where ExpireAt < @now limit @count; 
[2020-07-01 09:26:24][Info] Hangfire.Server.BackgroundServerProcess Server laptop-171103:13792:1ea51246 all the dispatchers started 
[2020-07-01 09:26:24][Debug] Hangfire.Processing.BackgroundExecution Execution loop Worker:34a264bf has started in 10.607 ms 
[2020-07-01 09:26:24][Debug] Hangfire.Processing.BackgroundExecution Execution loop Worker:89e52b42 has started in 13.9148 ms 
[2020-07-01 09:26:24][Debug] Hangfire.Processing.BackgroundExecution Execution loop Worker:bae11d6c has started in 18.0059 ms 
[2020-07-01 09:26:24][Debug] Hangfire.Processing.BackgroundExecution Execution loop Worker:1444f673 has started in 22.394 ms 
[2020-07-01 09:26:24][Debug] Hangfire.Processing.BackgroundExecution Execution loop Worker:7762082a has started in 26.2111 ms 
[2020-07-01 09:26:24][Debug] Hangfire.Processing.BackgroundExecution Execution loop Worker:63be395f has started in 30.1561 ms 
[2020-07-01 09:26:24][Debug] Hangfire.MySql.Core.ExpirationManager removed records count=2 
[2020-07-01 09:26:24][Debug] Hangfire.Processing.BackgroundExecution Execution loop Worker:430863d8 has started in 35.5671 ms 
[2020-07-01 09:26:24][Debug] Hangfire.Processing.BackgroundExecution Execution loop Worker:bec6677e has started in 39.5093 ms 
[2020-07-01 09:26:24][Debug] Hangfire.Processing.BackgroundExecution Execution loop Worker:1f884cd1 has started in 45.3222 ms 
[2020-07-01 09:26:24][Debug] Hangfire.Processing.BackgroundExecution Execution loop Worker:1e5d41a9 has started in 44.0573 ms 
[2020-07-01 09:26:24][Debug] Hangfire.Processing.BackgroundExecution Execution loop Worker:92990d2c has started in 48.6948 ms 
[2020-07-01 09:26:24][Debug] Hangfire.Processing.BackgroundExecution Execution loop Worker:2ae76ce5 has started in 55.15 ms 
[2020-07-01 09:26:24][Debug] Hangfire.Processing.BackgroundExecution Execution loop Worker:7c3526d1 has started in 58.7471 ms 
[2020-07-01 09:26:24][Debug] Hangfire.Processing.BackgroundExecution Execution loop Worker:fe1d50f0 has started in 67.1351 ms 
[2020-07-01 09:26:24][Debug] Hangfire.Processing.BackgroundExecution Execution loop Worker:d7030943 has started in 67.1351 ms 
[2020-07-01 09:26:24][Debug] Hangfire.Processing.BackgroundExecution Execution loop Worker:08340883 has started in 71.5984 ms 
[2020-07-01 09:26:24][Debug] Hangfire.Processing.BackgroundExecution Execution loop Worker:2d10a9cd has started in 76.6666 ms 
[2020-07-01 09:26:24][Debug] Hangfire.Processing.BackgroundExecution Execution loop Worker:f528d7b4 has started in 82.1522 ms 
[2020-07-01 09:26:24][Debug] Hangfire.Processing.BackgroundExecution Execution loop Worker:416eab4a has started in 86.184 ms 
[2020-07-01 09:26:24][Debug] Hangfire.Processing.BackgroundExecution Execution loop Worker:a9985fe3 has started in 91.5648 ms 
[2020-07-01 09:26:24][Debug] Hangfire.Processing.BackgroundExecution Execution loop DelayedJobScheduler:01a8f840 has started in 8.6032 ms 
[2020-07-01 09:26:24][Debug] Hangfire.Processing.BackgroundExecution Execution loop RecurringJobScheduler:0c25c3ce has started in 8.4314 ms 
[2020-07-01 09:26:26][Debug] Hangfire.MySql.Core.ExpirationManager delete from `Hangfire_AggregatedCounter` where ExpireAt < @now limit @count; 
[2020-07-01 09:26:26][Debug] Hangfire.MySql.Core.ExpirationManager removed records count=0 
[2020-07-01 09:26:26][Debug] Hangfire.MySql.Core.ExpirationManager Removing outdated records from table 'Hangfire_Job'... 
[2020-07-01 09:26:26][Debug] Hangfire.MySql.Core.ExpirationManager delete from `Hangfire_Job` where ExpireAt < @now limit @count; 
[2020-07-01 09:26:26][Debug] Hangfire.MySql.Core.ExpirationManager removed records count=0 
[2020-07-01 09:26:26][Debug] Hangfire.MySql.Core.ExpirationManager Removing outdated records from table 'Hangfire_List'... 
[2020-07-01 09:26:26][Debug] Hangfire.MySql.Core.ExpirationManager delete from `Hangfire_List` where ExpireAt < @now limit @count; 
[2020-07-01 09:26:26][Debug] Hangfire.MySql.Core.ExpirationManager removed records count=0 
[2020-07-01 09:26:26][Debug] Hangfire.MySql.Core.ExpirationManager Removing outdated records from table 'Hangfire_Set'... 
[2020-07-01 09:26:26][Debug] Hangfire.MySql.Core.ExpirationManager delete from `Hangfire_Set` where ExpireAt < @now limit @count; 
[2020-07-01 09:26:26][Debug] Hangfire.MySql.Core.ExpirationManager removed records count=0 
[2020-07-01 09:26:26][Debug] Hangfire.MySql.Core.ExpirationManager Removing outdated records from table 'Hangfire_Hash'... 
[2020-07-01 09:26:26][Debug] Hangfire.MySql.Core.ExpirationManager delete from `Hangfire_Hash` where ExpireAt < @now limit @count; 
[2020-07-01 09:26:26][Debug] Hangfire.MySql.Core.ExpirationManager removed records count=0 
[2020-07-01 09:26:54][Debug] Hangfire.Server.ServerHeartbeatProcess Server laptop-171103:13792:1ea51246 heartbeat successfully sent 
[2020-07-01 09:27:24][Debug] Hangfire.Server.ServerHeartbeatProcess Server laptop-171103:13792:1ea51246 heartbeat successfully sent 
[2020-07-01 09:27:54][Debug] Hangfire.Server.ServerHeartbeatProcess Server laptop-171103:13792:1ea51246 heartbeat successfully sent 
[2020-07-01 09:28:24][Debug] Hangfire.Server.ServerHeartbeatProcess Server laptop-171103:13792:1ea51246 heartbeat successfully sent 
[2020-07-01 09:28:54][Debug] Hangfire.Server.ServerHeartbeatProcess Server laptop-171103:13792:1ea51246 heartbeat successfully sent 
[2020-07-01 09:29:24][Debug] Hangfire.Server.ServerHeartbeatProcess Server laptop-171103:13792:1ea51246 heartbeat successfully sent 
[2020-07-01 09:29:32][Info] CACO_CDP.Controllers.AuthenticationServiceController AuthenticationService-SignIn 
[2020-07-01 09:29:39][Info] CACO_CDP.Controllers.GoogleServiceController CustomGAReport 
[2020-07-01 09:29:39][Info] CACO_CDP.Controllers.GoogleServiceController GetMmberInfo 
[2020-07-01 09:29:39][Info] CACO_CDP.Controllers.GoogleServiceController GetGAReport 
[2020-07-01 09:29:45][Info] CACO_CDP.Controllers.GoogleServiceController ECReport 
[2020-07-01 09:29:45][Info] CACO_CDP.Controllers.GoogleServiceController GetMmberInfo 
[2020-07-01 09:29:45][Info] CACO_CDP.Controllers.GoogleServiceController ECReport 
[2020-07-01 09:29:45][Info] CACO_CDP.Controllers.GoogleServiceController GetMmberInfo 
[2020-07-01 09:29:46][Error] CACO_CDP.Controllers.GoogleServiceController System.Collections.Generic.KeyNotFoundException: The given key 'regionIsoCode' was not present in the dictionary.
   at System.Collections.Generic.Dictionary`2.get_Item(TKey key)
   at CACO_CDP.Controllers.GoogleServiceController.ECReport(GAReportParameter paras) in C:\Users\Victor\Documents\repos\Wave_CDP\Wave_CDP\Controllers\GoogleServiceController.cs:line 604 
[2020-07-01 09:29:46][Error] CACO_CDP.Controllers.GoogleServiceController System.Collections.Generic.KeyNotFoundException: The given key 'regionIsoCode' was not present in the dictionary.
   at System.Collections.Generic.Dictionary`2.get_Item(TKey key)
   at CACO_CDP.Controllers.GoogleServiceController.ECReport(GAReportParameter paras) in C:\Users\Victor\Documents\repos\Wave_CDP\Wave_CDP\Controllers\GoogleServiceController.cs:line 604 
[2020-07-01 09:29:54][Debug] Hangfire.Server.ServerHeartbeatProcess Server laptop-171103:13792:1ea51246 heartbeat successfully sent 
[2020-07-01 09:30:24][Debug] Hangfire.Server.ServerHeartbeatProcess Server laptop-171103:13792:1ea51246 heartbeat successfully sent 
[2020-07-01 09:30:54][Debug] Hangfire.Server.ServerHeartbeatProcess Server laptop-171103:13792:1ea51246 heartbeat successfully sent 
[2020-07-01 09:32:39][Info] CACO_CDP.Program 啟動程式 
[2020-07-01 09:32:41][Info] Hangfire.MySql.Core.MySqlStorage DB tables already exist. Exit install 
[2020-07-01 09:32:41][Info] Hangfire.BackgroundJobServer Starting Hangfire Server using job storage: 'Server: 127.0.0.1@hangfire' 
[2020-07-01 09:32:41][Info] Hangfire.BackgroundJobServer Using the following options for SQL Server job storage: 
[2020-07-01 09:32:41][Info] Hangfire.BackgroundJobServer     Queue poll interval: 00:00:15. 
[2020-07-01 09:32:41][Info] Hangfire.BackgroundJobServer Using the following options for Hangfire Server:
    Worker count: 20
    Listening queues: 'default'
    Shutdown timeout: 00:00:15
    Schedule polling interval: 00:00:15 
[2020-07-01 09:32:41][Debug] Hangfire.Processing.BackgroundExecution Execution loop BackgroundServerProcess:f868c201 has started in 9.172 ms 
[2020-07-01 09:32:42][Info] Hangfire.Server.BackgroundServerProcess Server laptop-171103:25772:9ac84a90 successfully announced in 414.7983 ms 
[2020-07-01 09:32:42][Debug] Hangfire.Processing.BackgroundExecution Execution loop ServerHeartbeatProcess:a20f5dea has started in 8.7657 ms 
[2020-07-01 09:32:42][Info] Hangfire.Server.BackgroundServerProcess Server laptop-171103:25772:9ac84a90 is starting the registered dispatchers: ServerWatchdog, ServerJobCancellationWatcher, ExpirationManager, CountersAggregator, Worker, DelayedJobScheduler, RecurringJobScheduler... 
[2020-07-01 09:32:42][Debug] Hangfire.Processing.BackgroundExecution Execution loop ServerWatchdog:1c78aba8 has started in 5.8193 ms 
[2020-07-01 09:32:42][Debug] Hangfire.Processing.BackgroundExecution Execution loop ServerJobCancellationWatcher:b193d903 has started in 9.9924 ms 
[2020-07-01 09:32:42][Debug] Hangfire.Processing.BackgroundExecution Execution loop ExpirationManager:eb331f74 has started in 14.2936 ms 
[2020-07-01 09:32:42][Debug] Hangfire.Processing.BackgroundExecution Execution loop CountersAggregator:f8bd00a7 has started in 13.1885 ms 
[2020-07-01 09:32:42][Debug] Hangfire.Processing.BackgroundExecution Execution loop Worker:e9756349 has started in 13.7596 ms 
[2020-07-01 09:32:42][Debug] Hangfire.MySql.Core.ExpirationManager Removing outdated records from table 'Hangfire_AggregatedCounter'... 
[2020-07-01 09:32:42][Debug] Hangfire.MySql.Core.CountersAggregator Aggregating records in 'Counter' table... 
[2020-07-01 09:32:42][Debug] Hangfire.MySql.Core.ExpirationManager delete from `Hangfire_AggregatedCounter` where ExpireAt < @now limit @count; 
[2020-07-01 09:32:42][Debug] Hangfire.Processing.BackgroundExecution Execution loop Worker:e5f30a8f has started in 17.572 ms 
[2020-07-01 09:32:42][Debug] Hangfire.Processing.BackgroundExecution Execution loop Worker:f662aa08 has started in 22.6946 ms 
[2020-07-01 09:32:42][Debug] Hangfire.Processing.BackgroundExecution Execution loop Worker:957e0f4a has started in 44.2698 ms 
[2020-07-01 09:32:42][Debug] Hangfire.Processing.BackgroundExecution Execution loop Worker:337db2ec has started in 55.0419 ms 
[2020-07-01 09:32:42][Debug] Hangfire.MySql.Core.ExpirationManager removed records count=0 
[2020-07-01 09:32:42][Debug] Hangfire.Processing.BackgroundExecution Execution loop Worker:6c1d07d8 has started in 69.1003 ms 
[2020-07-01 09:32:42][Debug] Hangfire.MySql.Core.ExpirationManager Removing outdated records from table 'Hangfire_Job'... 
[2020-07-01 09:32:42][Info] Hangfire.Server.BackgroundServerProcess Server laptop-171103:25772:9ac84a90 all the dispatchers started 
[2020-07-01 09:32:42][Debug] Hangfire.MySql.Core.ExpirationManager delete from `Hangfire_Job` where ExpireAt < @now limit @count; 
[2020-07-01 09:32:42][Debug] Hangfire.Processing.BackgroundExecution Execution loop Worker:c4ea1642 has started in 75.8847 ms 
[2020-07-01 09:32:42][Debug] Hangfire.Processing.BackgroundExecution Execution loop Worker:a9d1cd5c has started in 81.4768 ms 
[2020-07-01 09:32:42][Debug] Hangfire.Processing.BackgroundExecution Execution loop Worker:cb7cb0e9 has started in 89.1928 ms 
[2020-07-01 09:32:42][Debug] Hangfire.Processing.BackgroundExecution Execution loop Worker:80227ec4 has started in 108.3646 ms 
[2020-07-01 09:32:42][Debug] Hangfire.Processing.BackgroundExecution Execution loop Worker:6d4f995d has started in 117.1189 ms 
[2020-07-01 09:32:42][Debug] Hangfire.Processing.BackgroundExecution Execution loop Worker:7f299935 has started in 122.8393 ms 
[2020-07-01 09:32:42][Debug] Hangfire.Processing.BackgroundExecution Execution loop Worker:c0500167 has started in 126.4543 ms 
[2020-07-01 09:32:42][Debug] Hangfire.Processing.BackgroundExecution Execution loop Worker:0a30ac18 has started in 133.8742 ms 
[2020-07-01 09:32:42][Debug] Hangfire.Processing.BackgroundExecution Execution loop Worker:66b95586 has started in 140.4614 ms 
[2020-07-01 09:32:42][Debug] Hangfire.Processing.BackgroundExecution Execution loop Worker:942cd0b2 has started in 144.5003 ms 
[2020-07-01 09:32:42][Debug] Hangfire.Processing.BackgroundExecution Execution loop Worker:4c03e296 has started in 148.5953 ms 
[2020-07-01 09:32:42][Debug] Hangfire.Processing.BackgroundExecution Execution loop Worker:b0d5b7ca has started in 154.1736 ms 
[2020-07-01 09:32:42][Debug] Hangfire.Processing.BackgroundExecution Execution loop Worker:e5d09363 has started in 154.1139 ms 
[2020-07-01 09:32:42][Debug] Hangfire.Processing.BackgroundExecution Execution loop Worker:180e2017 has started in 159.6626 ms 
[2020-07-01 09:32:42][Debug] Hangfire.Processing.BackgroundExecution Execution loop DelayedJobScheduler:88859f68 has started in 10.0278 ms 
[2020-07-01 09:32:42][Debug] Hangfire.Processing.BackgroundExecution Execution loop RecurringJobScheduler:333b6eae has started in 10.2358 ms 
[2020-07-01 09:32:42][Debug] Hangfire.MySql.Core.ExpirationManager removed records count=0 
[2020-07-01 09:32:42][Debug] Hangfire.MySql.Core.ExpirationManager Removing outdated records from table 'Hangfire_List'... 
[2020-07-01 09:32:42][Debug] Hangfire.MySql.Core.ExpirationManager delete from `Hangfire_List` where ExpireAt < @now limit @count; 
[2020-07-01 09:32:42][Debug] Hangfire.MySql.Core.ExpirationManager removed records count=0 
[2020-07-01 09:32:42][Debug] Hangfire.MySql.Core.ExpirationManager Removing outdated records from table 'Hangfire_Set'... 
[2020-07-01 09:32:42][Debug] Hangfire.MySql.Core.ExpirationManager delete from `Hangfire_Set` where ExpireAt < @now limit @count; 
[2020-07-01 09:32:42][Debug] Hangfire.MySql.Core.ExpirationManager removed records count=0 
[2020-07-01 09:32:42][Debug] Hangfire.MySql.Core.ExpirationManager Removing outdated records from table 'Hangfire_Hash'... 
[2020-07-01 09:32:42][Debug] Hangfire.MySql.Core.ExpirationManager delete from `Hangfire_Hash` where ExpireAt < @now limit @count; 
[2020-07-01 09:32:42][Debug] Hangfire.MySql.Core.ExpirationManager removed records count=0 
[2020-07-01 09:32:57][Info] CACO_CDP.Controllers.GoogleServiceController ECReport 
[2020-07-01 09:32:57][Info] CACO_CDP.Controllers.GoogleServiceController ECReport 
[2020-07-01 09:32:57][Info] CACO_CDP.Controllers.GoogleServiceController GetMmberInfo 
[2020-07-01 09:32:57][Info] CACO_CDP.Controllers.GoogleServiceController GetMmberInfo 
[2020-07-01 09:32:58][Info] CACO_CDP.Controllers.GoogleServiceController GetGAReport 
[2020-07-01 09:32:58][Info] CACO_CDP.Controllers.GoogleServiceController GetGAReport 
[2020-07-01 09:33:01][Info] CACO_CDP.Controllers.GoogleServiceController GetGAReport 
[2020-07-01 09:33:01][Info] CACO_CDP.Controllers.GoogleServiceController GetGAReport 
[2020-07-01 09:33:07][Info] CACO_CDP.Controllers.GoogleServiceController GetGAReport 
[2020-07-01 09:33:07][Info] CACO_CDP.Controllers.GoogleServiceController GetGAReport 
[2020-07-01 09:33:12][Debug] Hangfire.Server.ServerHeartbeatProcess Server laptop-171103:25772:9ac84a90 heartbeat successfully sent 
[2020-07-01 09:33:42][Debug] Hangfire.Server.ServerHeartbeatProcess Server laptop-171103:25772:9ac84a90 heartbeat successfully sent 
[2020-07-01 09:34:12][Debug] Hangfire.Server.ServerHeartbeatProcess Server laptop-171103:25772:9ac84a90 heartbeat successfully sent 
[2020-07-01 09:34:42][Debug] Hangfire.Server.ServerHeartbeatProcess Server laptop-171103:25772:9ac84a90 heartbeat successfully sent 
[2020-07-01 09:35:12][Debug] Hangfire.Server.ServerHeartbeatProcess Server laptop-171103:25772:9ac84a90 heartbeat successfully sent 
[2020-07-01 09:37:45][Info] CACO_CDP.Program 啟動程式 
[2020-07-01 09:37:47][Info] Hangfire.MySql.Core.MySqlStorage DB tables already exist. Exit install 
[2020-07-01 09:37:47][Info] Hangfire.BackgroundJobServer Starting Hangfire Server using job storage: 'Server: 127.0.0.1@hangfire' 
[2020-07-01 09:37:47][Info] Hangfire.BackgroundJobServer Using the following options for SQL Server job storage: 
[2020-07-01 09:37:47][Info] Hangfire.BackgroundJobServer     Queue poll interval: 00:00:15. 
[2020-07-01 09:37:47][Info] Hangfire.BackgroundJobServer Using the following options for Hangfire Server:
    Worker count: 20
    Listening queues: 'default'
    Shutdown timeout: 00:00:15
    Schedule polling interval: 00:00:15 
[2020-07-01 09:37:47][Debug] Hangfire.Processing.BackgroundExecution Execution loop BackgroundServerProcess:b4feb24b has started in 8.6376 ms 
[2020-07-01 09:37:48][Info] Hangfire.Server.BackgroundServerProcess Server laptop-171103:28528:a8be1db9 successfully announced in 474.9182 ms 
[2020-07-01 09:37:48][Debug] Hangfire.Processing.BackgroundExecution Execution loop ServerHeartbeatProcess:7c81b82b has started in 7.6513 ms 
[2020-07-01 09:37:48][Info] Hangfire.Server.BackgroundServerProcess Server laptop-171103:28528:a8be1db9 is starting the registered dispatchers: ServerWatchdog, ServerJobCancellationWatcher, ExpirationManager, CountersAggregator, Worker, DelayedJobScheduler, RecurringJobScheduler... 
[2020-07-01 09:37:48][Debug] Hangfire.Processing.BackgroundExecution Execution loop ServerWatchdog:b5bc1c36 has started in 27.1034 ms 
[2020-07-01 09:37:48][Debug] Hangfire.Processing.BackgroundExecution Execution loop ServerJobCancellationWatcher:7cf8df90 has started in 31.6181 ms 
[2020-07-01 09:37:48][Debug] Hangfire.Processing.BackgroundExecution Execution loop ExpirationManager:0c96ea13 has started in 17.0148 ms 
[2020-07-01 09:37:48][Info] Hangfire.Server.ServerWatchdog 1 servers were removed due to timeout 
[2020-07-01 09:37:48][Debug] Hangfire.MySql.Core.ExpirationManager Removing outdated records from table 'Hangfire_AggregatedCounter'... 
[2020-07-01 09:37:48][Debug] Hangfire.Processing.BackgroundExecution Execution loop CountersAggregator:daf3734c has started in 13.9296 ms 
[2020-07-01 09:37:48][Debug] Hangfire.MySql.Core.ExpirationManager delete from `Hangfire_AggregatedCounter` where ExpireAt < @now limit @count; 
[2020-07-01 09:37:48][Debug] Hangfire.MySql.Core.CountersAggregator Aggregating records in 'Counter' table... 
[2020-07-01 09:37:48][Debug] Hangfire.Processing.BackgroundExecution Execution loop Worker:d033ce43 has started in 14.854 ms 
[2020-07-01 09:37:48][Debug] Hangfire.Processing.BackgroundExecution Execution loop Worker:2fe41cc2 has started in 18.93 ms 
[2020-07-01 09:37:48][Debug] Hangfire.Processing.BackgroundExecution Execution loop Worker:31b0cd42 has started in 23.7145 ms 
[2020-07-01 09:37:48][Info] Hangfire.Server.BackgroundServerProcess Server laptop-171103:28528:a8be1db9 all the dispatchers started 
[2020-07-01 09:37:48][Debug] Hangfire.Processing.BackgroundExecution Execution loop Worker:be0978d7 has started in 31.5567 ms 
[2020-07-01 09:37:48][Debug] Hangfire.MySql.Core.ExpirationManager removed records count=0 
[2020-07-01 09:37:48][Debug] Hangfire.MySql.Core.ExpirationManager Removing outdated records from table 'Hangfire_Job'... 
[2020-07-01 09:37:48][Debug] Hangfire.Processing.BackgroundExecution Execution loop Worker:9ea7229b has started in 40.3706 ms 
[2020-07-01 09:37:48][Debug] Hangfire.Processing.BackgroundExecution Execution loop Worker:5d127889 has started in 48.2737 ms 
[2020-07-01 09:37:48][Debug] Hangfire.Processing.BackgroundExecution Execution loop Worker:6b8541bd has started in 52.5068 ms 
[2020-07-01 09:37:48][Debug] Hangfire.Processing.BackgroundExecution Execution loop Worker:262bdc53 has started in 58.4512 ms 
[2020-07-01 09:37:48][Debug] Hangfire.Processing.BackgroundExecution Execution loop Worker:5c11617d has started in 63.8163 ms 
[2020-07-01 09:37:48][Debug] Hangfire.Processing.BackgroundExecution Execution loop Worker:270baef1 has started in 76.69 ms 
[2020-07-01 09:37:48][Debug] Hangfire.Processing.BackgroundExecution Execution loop Worker:ff5ec35a has started in 80.1948 ms 
[2020-07-01 09:37:48][Debug] Hangfire.Processing.BackgroundExecution Execution loop Worker:43fbff7a has started in 85.3973 ms 
[2020-07-01 09:37:48][Debug] Hangfire.Processing.BackgroundExecution Execution loop Worker:316ea0c3 has started in 90.8687 ms 
[2020-07-01 09:37:48][Debug] Hangfire.Processing.BackgroundExecution Execution loop Worker:54221bb5 has started in 94.9638 ms 
[2020-07-01 09:37:48][Debug] Hangfire.Processing.BackgroundExecution Execution loop Worker:282df7c3 has started in 100.2937 ms 
[2020-07-01 09:37:48][Debug] Hangfire.Processing.BackgroundExecution Execution loop Worker:6f7bdb58 has started in 105.3907 ms 
[2020-07-01 09:37:48][Debug] Hangfire.Processing.BackgroundExecution Execution loop Worker:dd376b4a has started in 110.0834 ms 
[2020-07-01 09:37:48][Debug] Hangfire.Processing.BackgroundExecution Execution loop Worker:6b3709a2 has started in 115.366 ms 
[2020-07-01 09:37:48][Debug] Hangfire.Processing.BackgroundExecution Execution loop Worker:5244b2bc has started in 119.6478 ms 
[2020-07-01 09:37:48][Debug] Hangfire.Processing.BackgroundExecution Execution loop DelayedJobScheduler:8b528489 has started in 6.5777 ms 
[2020-07-01 09:37:48][Debug] Hangfire.Processing.BackgroundExecution Execution loop RecurringJobScheduler:97d71cc5 has started in 13.3346 ms 
[2020-07-01 09:37:48][Debug] Hangfire.MySql.Core.ExpirationManager delete from `Hangfire_Job` where ExpireAt < @now limit @count; 
[2020-07-01 09:37:48][Debug] Hangfire.Processing.BackgroundExecution Execution loop Worker:eba82eff has started in 34.4556 ms 
[2020-07-01 09:37:48][Debug] Hangfire.MySql.Core.ExpirationManager removed records count=0 
[2020-07-01 09:37:48][Debug] Hangfire.MySql.Core.ExpirationManager Removing outdated records from table 'Hangfire_List'... 
[2020-07-01 09:37:48][Debug] Hangfire.MySql.Core.ExpirationManager delete from `Hangfire_List` where ExpireAt < @now limit @count; 
[2020-07-01 09:37:48][Debug] Hangfire.MySql.Core.ExpirationManager removed records count=0 
[2020-07-01 09:37:48][Debug] Hangfire.MySql.Core.ExpirationManager Removing outdated records from table 'Hangfire_Set'... 
[2020-07-01 09:37:48][Debug] Hangfire.MySql.Core.ExpirationManager delete from `Hangfire_Set` where ExpireAt < @now limit @count; 
[2020-07-01 09:37:48][Debug] Hangfire.MySql.Core.ExpirationManager removed records count=0 
[2020-07-01 09:37:48][Debug] Hangfire.MySql.Core.ExpirationManager Removing outdated records from table 'Hangfire_Hash'... 
[2020-07-01 09:37:48][Debug] Hangfire.MySql.Core.ExpirationManager delete from `Hangfire_Hash` where ExpireAt < @now limit @count; 
[2020-07-01 09:37:48][Debug] Hangfire.MySql.Core.ExpirationManager removed records count=0 
[2020-07-01 09:37:58][Info] CACO_CDP.Controllers.GoogleServiceController ECReport 
[2020-07-01 09:37:58][Info] CACO_CDP.Controllers.GoogleServiceController ECReport 
[2020-07-01 09:37:58][Info] CACO_CDP.Controllers.GoogleServiceController GetMmberInfo 
[2020-07-01 09:37:58][Info] CACO_CDP.Controllers.GoogleServiceController GetMmberInfo 
[2020-07-01 09:37:58][Info] CACO_CDP.Controllers.GoogleServiceController GetGAReport 
[2020-07-01 09:37:58][Info] CACO_CDP.Controllers.GoogleServiceController GetGAReport 
[2020-07-01 09:38:02][Info] CACO_CDP.Controllers.GoogleServiceController GetGAReport 
[2020-07-01 09:38:02][Info] CACO_CDP.Controllers.GoogleServiceController GetGAReport 
[2020-07-01 09:38:02][Info] CACO_CDP.Controllers.GoogleServiceController GetGAReport 
[2020-07-01 09:38:02][Info] CACO_CDP.Controllers.GoogleServiceController GetGAReport 
[2020-07-01 09:38:18][Debug] Hangfire.Server.ServerHeartbeatProcess Server laptop-171103:28528:a8be1db9 heartbeat successfully sent 
[2020-07-01 09:38:48][Debug] Hangfire.Server.ServerHeartbeatProcess Server laptop-171103:28528:a8be1db9 heartbeat successfully sent 
[2020-07-01 09:39:18][Debug] Hangfire.Server.ServerHeartbeatProcess Server laptop-171103:28528:a8be1db9 heartbeat successfully sent 
[2020-07-01 09:39:48][Debug] Hangfire.Server.ServerHeartbeatProcess Server laptop-171103:28528:a8be1db9 heartbeat successfully sent 
[2020-07-01 09:44:50][Info] CACO_CDP.Program 啟動程式 
[2020-07-01 09:44:52][Info] Hangfire.MySql.Core.MySqlStorage DB tables already exist. Exit install 
[2020-07-01 09:44:52][Info] Hangfire.BackgroundJobServer Starting Hangfire Server using job storage: 'Server: 127.0.0.1@hangfire' 
[2020-07-01 09:44:52][Info] Hangfire.BackgroundJobServer Using the following options for SQL Server job storage: 
[2020-07-01 09:44:52][Info] Hangfire.BackgroundJobServer     Queue poll interval: 00:00:15. 
[2020-07-01 09:44:52][Info] Hangfire.BackgroundJobServer Using the following options for Hangfire Server:
    Worker count: 20
    Listening queues: 'default'
    Shutdown timeout: 00:00:15
    Schedule polling interval: 00:00:15 
[2020-07-01 09:44:52][Debug] Hangfire.Processing.BackgroundExecution Execution loop BackgroundServerProcess:69265cf8 has started in 9.3697 ms 
[2020-07-01 09:44:52][Info] Hangfire.Server.BackgroundServerProcess Server laptop-171103:7476:6a9851a8 successfully announced in 396.8432 ms 
[2020-07-01 09:44:52][Debug] Hangfire.Processing.BackgroundExecution Execution loop ServerHeartbeatProcess:856623e0 has started in 5.8545 ms 
[2020-07-01 09:44:52][Info] Hangfire.Server.BackgroundServerProcess Server laptop-171103:7476:6a9851a8 is starting the registered dispatchers: ServerWatchdog, ServerJobCancellationWatcher, ExpirationManager, CountersAggregator, Worker, DelayedJobScheduler, RecurringJobScheduler... 
[2020-07-01 09:44:52][Debug] Hangfire.Processing.BackgroundExecution Execution loop ServerJobCancellationWatcher:996702d5 has started in 5.2245 ms 
[2020-07-01 09:44:52][Debug] Hangfire.Processing.BackgroundExecution Execution loop CountersAggregator:4196c101 has started in 8.3707 ms 
[2020-07-01 09:44:52][Debug] Hangfire.Processing.BackgroundExecution Execution loop ServerWatchdog:0566ad88 has started in 5.5724 ms 
[2020-07-01 09:44:52][Debug] Hangfire.Processing.BackgroundExecution Execution loop ExpirationManager:ac518dcd has started in 6.5552 ms 
[2020-07-01 09:44:52][Debug] Hangfire.MySql.Core.CountersAggregator Aggregating records in 'Counter' table... 
[2020-07-01 09:44:52][Debug] Hangfire.MySql.Core.ExpirationManager Removing outdated records from table 'Hangfire_AggregatedCounter'... 
[2020-07-01 09:44:52][Info] Hangfire.Server.ServerWatchdog 2 servers were removed due to timeout 
[2020-07-01 09:44:52][Debug] Hangfire.Processing.BackgroundExecution Execution loop Worker:7167444b has started in 12.6047 ms 
[2020-07-01 09:44:52][Debug] Hangfire.MySql.Core.ExpirationManager delete from `Hangfire_AggregatedCounter` where ExpireAt < @now limit @count; 
[2020-07-01 09:44:52][Info] Hangfire.Server.BackgroundServerProcess Server laptop-171103:7476:6a9851a8 all the dispatchers started 
[2020-07-01 09:44:52][Debug] Hangfire.Processing.BackgroundExecution Execution loop Worker:4d3a7a3a has started in 15.5083 ms 
[2020-07-01 09:44:52][Debug] Hangfire.MySql.Core.ExpirationManager removed records count=0 
[2020-07-01 09:44:52][Debug] Hangfire.MySql.Core.ExpirationManager Removing outdated records from table 'Hangfire_Job'... 
[2020-07-01 09:44:52][Debug] Hangfire.Processing.BackgroundExecution Execution loop Worker:e27bd56e has started in 20.558 ms 
[2020-07-01 09:44:52][Debug] Hangfire.Processing.BackgroundExecution Execution loop Worker:97688f9d has started in 24.6387 ms 
[2020-07-01 09:44:52][Debug] Hangfire.MySql.Core.ExpirationManager delete from `Hangfire_Job` where ExpireAt < @now limit @count; 
[2020-07-01 09:44:52][Debug] Hangfire.Processing.BackgroundExecution Execution loop Worker:b937e8cd has started in 27.5542 ms 
[2020-07-01 09:44:52][Debug] Hangfire.Processing.BackgroundExecution Execution loop Worker:06970988 has started in 31.8623 ms 
[2020-07-01 09:44:52][Debug] Hangfire.Processing.BackgroundExecution Execution loop Worker:b93e3841 has started in 37.3562 ms 
[2020-07-01 09:44:52][Debug] Hangfire.Processing.BackgroundExecution Execution loop Worker:bd1a6afb has started in 40.6484 ms 
[2020-07-01 09:44:52][Debug] Hangfire.Processing.BackgroundExecution Execution loop Worker:d8384c80 has started in 43.338 ms 
[2020-07-01 09:44:52][Debug] Hangfire.Processing.BackgroundExecution Execution loop Worker:25460e16 has started in 49.3015 ms 
[2020-07-01 09:44:52][Debug] Hangfire.Processing.BackgroundExecution Execution loop Worker:e73cd47c has started in 55.3515 ms 
[2020-07-01 09:44:52][Debug] Hangfire.Processing.BackgroundExecution Execution loop Worker:7d8f6f20 has started in 58.5584 ms 
[2020-07-01 09:44:52][Debug] Hangfire.Processing.BackgroundExecution Execution loop Worker:7d64bc2b has started in 65.1953 ms 
[2020-07-01 09:44:52][Debug] Hangfire.Processing.BackgroundExecution Execution loop Worker:f12790bb has started in 68.5805 ms 
[2020-07-01 09:44:52][Debug] Hangfire.Processing.BackgroundExecution Execution loop Worker:c2939587 has started in 74.5952 ms 
[2020-07-01 09:44:52][Debug] Hangfire.Processing.BackgroundExecution Execution loop Worker:ddea33ae has started in 77.7136 ms 
[2020-07-01 09:44:52][Debug] Hangfire.Processing.BackgroundExecution Execution loop Worker:156ac3c3 has started in 82.5151 ms 
[2020-07-01 09:44:52][Debug] Hangfire.Processing.BackgroundExecution Execution loop Worker:f23e3b78 has started in 87.5547 ms 
[2020-07-01 09:44:52][Debug] Hangfire.Processing.BackgroundExecution Execution loop Worker:fb7a0bde has started in 92.061 ms 
[2020-07-01 09:44:52][Debug] Hangfire.Processing.BackgroundExecution Execution loop Worker:6990fc30 has started in 97.5305 ms 
[2020-07-01 09:44:52][Debug] Hangfire.Processing.BackgroundExecution Execution loop DelayedJobScheduler:49df4a82 has started in 10.1739 ms 
[2020-07-01 09:44:52][Debug] Hangfire.Processing.BackgroundExecution Execution loop RecurringJobScheduler:59c15be8 has started in 9.8972 ms 
[2020-07-01 09:44:52][Debug] Hangfire.MySql.Core.ExpirationManager removed records count=0 
[2020-07-01 09:44:53][Debug] Hangfire.MySql.Core.ExpirationManager Removing outdated records from table 'Hangfire_List'... 
[2020-07-01 09:44:53][Debug] Hangfire.MySql.Core.ExpirationManager delete from `Hangfire_List` where ExpireAt < @now limit @count; 
[2020-07-01 09:44:53][Debug] Hangfire.MySql.Core.ExpirationManager removed records count=0 
[2020-07-01 09:44:53][Debug] Hangfire.MySql.Core.ExpirationManager Removing outdated records from table 'Hangfire_Set'... 
[2020-07-01 09:44:53][Debug] Hangfire.MySql.Core.ExpirationManager delete from `Hangfire_Set` where ExpireAt < @now limit @count; 
[2020-07-01 09:44:53][Debug] Hangfire.MySql.Core.ExpirationManager removed records count=0 
[2020-07-01 09:44:53][Debug] Hangfire.MySql.Core.ExpirationManager Removing outdated records from table 'Hangfire_Hash'... 
[2020-07-01 09:44:53][Debug] Hangfire.MySql.Core.ExpirationManager delete from `Hangfire_Hash` where ExpireAt < @now limit @count; 
[2020-07-01 09:44:53][Debug] Hangfire.MySql.Core.ExpirationManager removed records count=0 
[2020-07-01 09:45:22][Debug] Hangfire.Server.ServerHeartbeatProcess Server laptop-171103:7476:6a9851a8 heartbeat successfully sent 
[2020-07-01 09:45:52][Debug] Hangfire.Server.ServerHeartbeatProcess Server laptop-171103:7476:6a9851a8 heartbeat successfully sent 
[2020-07-01 09:46:22][Debug] Hangfire.Server.ServerHeartbeatProcess Server laptop-171103:7476:6a9851a8 heartbeat successfully sent 
[2020-07-01 09:46:39][Info] CACO_CDP.Controllers.GoogleServiceController ECReport 
[2020-07-01 09:46:39][Info] CACO_CDP.Controllers.GoogleServiceController ECReport 
[2020-07-01 09:46:39][Info] CACO_CDP.Controllers.GoogleServiceController GetMmberInfo 
[2020-07-01 09:46:39][Info] CACO_CDP.Controllers.GoogleServiceController GetMmberInfo 
[2020-07-01 09:46:39][Info] CACO_CDP.Controllers.GoogleServiceController GetGAReport 
[2020-07-01 09:46:39][Info] CACO_CDP.Controllers.GoogleServiceController GetGAReport 
[2020-07-01 09:46:40][Info] CACO_CDP.Controllers.GoogleServiceController GetGAReport 
[2020-07-01 09:46:41][Info] CACO_CDP.Controllers.GoogleServiceController GetGAReport 
[2020-07-01 09:46:41][Info] CACO_CDP.Controllers.GoogleServiceController GetGAReport 
[2020-07-01 09:46:41][Info] CACO_CDP.Controllers.GoogleServiceController GetGAReport 
[2020-07-01 09:46:48][Info] CACO_CDP.Controllers.GoogleServiceController CustomGAReport 
[2020-07-01 09:46:48][Info] CACO_CDP.Controllers.GoogleServiceController GetMmberInfo 
[2020-07-01 09:46:48][Info] CACO_CDP.Controllers.GoogleServiceController GetGAReport 
[2020-07-01 09:46:52][Debug] Hangfire.Server.ServerHeartbeatProcess Server laptop-171103:7476:6a9851a8 heartbeat successfully sent 
[2020-07-01 09:47:22][Debug] Hangfire.Server.ServerHeartbeatProcess Server laptop-171103:7476:6a9851a8 heartbeat successfully sent 
[2020-07-01 09:48:23][Info] CACO_CDP.Program 啟動程式 
[2020-07-01 09:48:25][Info] Hangfire.MySql.Core.MySqlStorage DB tables already exist. Exit install 
[2020-07-01 09:48:25][Info] Hangfire.BackgroundJobServer Starting Hangfire Server using job storage: 'Server: 127.0.0.1@hangfire' 
[2020-07-01 09:48:25][Info] Hangfire.BackgroundJobServer Using the following options for SQL Server job storage: 
[2020-07-01 09:48:25][Info] Hangfire.BackgroundJobServer     Queue poll interval: 00:00:15. 
[2020-07-01 09:48:25][Info] Hangfire.BackgroundJobServer Using the following options for Hangfire Server:
    Worker count: 20
    Listening queues: 'default'
    Shutdown timeout: 00:00:15
    Schedule polling interval: 00:00:15 
[2020-07-01 09:48:25][Debug] Hangfire.Processing.BackgroundExecution Execution loop BackgroundServerProcess:de9c201d has started in 9.74 ms 
[2020-07-01 09:48:25][Info] Hangfire.Server.BackgroundServerProcess Server laptop-171103:19652:cc2d981b successfully announced in 375.9793 ms 
[2020-07-01 09:48:25][Debug] Hangfire.Processing.BackgroundExecution Execution loop ServerHeartbeatProcess:6221e79d has started in 5.1419 ms 
[2020-07-01 09:48:25][Info] Hangfire.Server.BackgroundServerProcess Server laptop-171103:19652:cc2d981b is starting the registered dispatchers: ServerWatchdog, ServerJobCancellationWatcher, ExpirationManager, CountersAggregator, Worker, DelayedJobScheduler, RecurringJobScheduler... 
[2020-07-01 09:48:25][Debug] Hangfire.Processing.BackgroundExecution Execution loop ServerWatchdog:59d0fb9b has started in 3.8891 ms 
[2020-07-01 09:48:25][Debug] Hangfire.Processing.BackgroundExecution Execution loop ServerJobCancellationWatcher:2c21b2d4 has started in 6.2674 ms 
[2020-07-01 09:48:25][Debug] Hangfire.Processing.BackgroundExecution Execution loop ExpirationManager:3a0ed136 has started in 5.5008 ms 
[2020-07-01 09:48:25][Debug] Hangfire.Processing.BackgroundExecution Execution loop CountersAggregator:8373496b has started in 7.3424 ms 
[2020-07-01 09:48:25][Debug] Hangfire.Processing.BackgroundExecution Execution loop Worker:df190371 has started in 12.4979 ms 
[2020-07-01 09:48:25][Debug] Hangfire.MySql.Core.ExpirationManager Removing outdated records from table 'Hangfire_AggregatedCounter'... 
[2020-07-01 09:48:25][Debug] Hangfire.MySql.Core.CountersAggregator Aggregating records in 'Counter' table... 
[2020-07-01 09:48:25][Debug] Hangfire.MySql.Core.ExpirationManager delete from `Hangfire_AggregatedCounter` where ExpireAt < @now limit @count; 
[2020-07-01 09:48:25][Debug] Hangfire.Processing.BackgroundExecution Execution loop Worker:4f7e1d02 has started in 15.2854 ms 
[2020-07-01 09:48:25][Debug] Hangfire.Processing.BackgroundExecution Execution loop Worker:44ad2a7d has started in 19.8792 ms 
[2020-07-01 09:48:25][Debug] Hangfire.Processing.BackgroundExecution Execution loop Worker:768396aa has started in 25.4307 ms 
[2020-07-01 09:48:25][Debug] Hangfire.Processing.BackgroundExecution Execution loop Worker:64b476b2 has started in 27.8686 ms 
[2020-07-01 09:48:25][Debug] Hangfire.Processing.BackgroundExecution Execution loop Worker:ed6ed340 has started in 31.9247 ms 
[2020-07-01 09:48:25][Debug] Hangfire.Processing.BackgroundExecution Execution loop Worker:5c9972eb has started in 37.953 ms 
[2020-07-01 09:48:25][Debug] Hangfire.Processing.BackgroundExecution Execution loop Worker:51b48d65 has started in 41.1357 ms 
[2020-07-01 09:48:25][Debug] Hangfire.Processing.BackgroundExecution Execution loop Worker:e64ba91b has started in 45.061 ms 
[2020-07-01 09:48:25][Debug] Hangfire.Processing.BackgroundExecution Execution loop Worker:7a5e9c37 has started in 49.638 ms 
[2020-07-01 09:48:25][Debug] Hangfire.Processing.BackgroundExecution Execution loop Worker:d2d0d4c6 has started in 54.1709 ms 
[2020-07-01 09:48:25][Debug] Hangfire.Processing.BackgroundExecution Execution loop Worker:3a077f01 has started in 60.0765 ms 
[2020-07-01 09:48:25][Debug] Hangfire.Processing.BackgroundExecution Execution loop Worker:f4214e99 has started in 63.8719 ms 
[2020-07-01 09:48:25][Debug] Hangfire.Processing.BackgroundExecution Execution loop Worker:71b89642 has started in 71.6937 ms 
[2020-07-01 09:48:25][Debug] Hangfire.Processing.BackgroundExecution Execution loop Worker:87251f69 has started in 70.91 ms 
[2020-07-01 09:48:25][Debug] Hangfire.Processing.BackgroundExecution Execution loop Worker:93208de7 has started in 77.2961 ms 
[2020-07-01 09:48:25][Debug] Hangfire.Processing.BackgroundExecution Execution loop Worker:d640657c has started in 81.4331 ms 
[2020-07-01 09:48:25][Debug] Hangfire.Processing.BackgroundExecution Execution loop Worker:e3b89baf has started in 85.2877 ms 
[2020-07-01 09:48:25][Debug] Hangfire.Processing.BackgroundExecution Execution loop Worker:f83cceb9 has started in 90.1124 ms 
[2020-07-01 09:48:25][Debug] Hangfire.Processing.BackgroundExecution Execution loop Worker:d5d62fed has started in 111.9069 ms 
[2020-07-01 09:48:25][Debug] Hangfire.Processing.BackgroundExecution Execution loop DelayedJobScheduler:c2057c8f has started in 9.2377 ms 
[2020-07-01 09:48:25][Info] Hangfire.Server.BackgroundServerProcess Server laptop-171103:19652:cc2d981b all the dispatchers started 
[2020-07-01 09:48:25][Debug] Hangfire.Processing.BackgroundExecution Execution loop RecurringJobScheduler:9c07af41 has started in 13.0415 ms 
[2020-07-01 09:48:25][Debug] Hangfire.MySql.Core.ExpirationManager removed records count=0 
[2020-07-01 09:48:25][Debug] Hangfire.MySql.Core.ExpirationManager Removing outdated records from table 'Hangfire_Job'... 
[2020-07-01 09:48:25][Debug] Hangfire.MySql.Core.ExpirationManager delete from `Hangfire_Job` where ExpireAt < @now limit @count; 
[2020-07-01 09:48:25][Debug] Hangfire.MySql.Core.ExpirationManager removed records count=0 
[2020-07-01 09:48:25][Debug] Hangfire.MySql.Core.ExpirationManager Removing outdated records from table 'Hangfire_List'... 
[2020-07-01 09:48:25][Debug] Hangfire.MySql.Core.ExpirationManager delete from `Hangfire_List` where ExpireAt < @now limit @count; 
[2020-07-01 09:48:25][Debug] Hangfire.MySql.Core.ExpirationManager removed records count=0 
[2020-07-01 09:48:26][Debug] Hangfire.MySql.Core.ExpirationManager Removing outdated records from table 'Hangfire_Set'... 
[2020-07-01 09:48:26][Debug] Hangfire.MySql.Core.ExpirationManager delete from `Hangfire_Set` where ExpireAt < @now limit @count; 
[2020-07-01 09:48:26][Debug] Hangfire.MySql.Core.ExpirationManager removed records count=0 
[2020-07-01 09:48:26][Debug] Hangfire.MySql.Core.ExpirationManager Removing outdated records from table 'Hangfire_Hash'... 
[2020-07-01 09:48:26][Debug] Hangfire.MySql.Core.ExpirationManager delete from `Hangfire_Hash` where ExpireAt < @now limit @count; 
[2020-07-01 09:48:26][Debug] Hangfire.MySql.Core.ExpirationManager removed records count=0 
[2020-07-01 09:48:55][Debug] Hangfire.Server.ServerHeartbeatProcess Server laptop-171103:19652:cc2d981b heartbeat successfully sent 
[2020-07-01 09:49:25][Debug] Hangfire.Server.ServerHeartbeatProcess Server laptop-171103:19652:cc2d981b heartbeat successfully sent 
[2020-07-01 09:49:55][Debug] Hangfire.Server.ServerHeartbeatProcess Server laptop-171103:19652:cc2d981b heartbeat successfully sent 
[2020-07-01 09:50:25][Debug] Hangfire.Server.ServerHeartbeatProcess Server laptop-171103:19652:cc2d981b heartbeat successfully sent 
[2020-07-01 09:50:55][Debug] Hangfire.Server.ServerHeartbeatProcess Server laptop-171103:19652:cc2d981b heartbeat successfully sent 
[2020-07-01 09:51:25][Debug] Hangfire.Server.ServerHeartbeatProcess Server laptop-171103:19652:cc2d981b heartbeat successfully sent 
[2020-07-01 09:51:55][Debug] Hangfire.Server.ServerHeartbeatProcess Server laptop-171103:19652:cc2d981b heartbeat successfully sent 
[2020-07-01 09:52:25][Debug] Hangfire.Server.ServerHeartbeatProcess Server laptop-171103:19652:cc2d981b heartbeat successfully sent 
[2020-07-01 09:52:55][Debug] Hangfire.Server.ServerHeartbeatProcess Server laptop-171103:19652:cc2d981b heartbeat successfully sent 
[2020-07-01 09:53:25][Info] Hangfire.Server.ServerWatchdog 1 servers were removed due to timeout 
[2020-07-01 09:53:25][Debug] Hangfire.MySql.Core.CountersAggregator Aggregating records in 'Counter' table... 
[2020-07-01 09:53:25][Debug] Hangfire.Server.ServerHeartbeatProcess Server laptop-171103:19652:cc2d981b heartbeat successfully sent 
[2020-07-01 09:53:55][Debug] Hangfire.Server.ServerHeartbeatProcess Server laptop-171103:19652:cc2d981b heartbeat successfully sent 
[2020-07-01 09:54:25][Debug] Hangfire.Server.ServerHeartbeatProcess Server laptop-171103:19652:cc2d981b heartbeat successfully sent 
[2020-07-01 09:54:55][Debug] Hangfire.Server.ServerHeartbeatProcess Server laptop-171103:19652:cc2d981b heartbeat successfully sent 
[2020-07-01 09:55:25][Debug] Hangfire.Server.ServerHeartbeatProcess Server laptop-171103:19652:cc2d981b heartbeat successfully sent 
[2020-07-01 09:55:55][Debug] Hangfire.Server.ServerHeartbeatProcess Server laptop-171103:19652:cc2d981b heartbeat successfully sent 
[2020-07-01 09:56:25][Debug] Hangfire.Server.ServerHeartbeatProcess Server laptop-171103:19652:cc2d981b heartbeat successfully sent 
[2020-07-01 09:56:55][Debug] Hangfire.Server.ServerHeartbeatProcess Server laptop-171103:19652:cc2d981b heartbeat successfully sent 
[2020-07-01 09:57:25][Debug] Hangfire.Server.ServerHeartbeatProcess Server laptop-171103:19652:cc2d981b heartbeat successfully sent 
[2020-07-01 09:57:55][Debug] Hangfire.Server.ServerHeartbeatProcess Server laptop-171103:19652:cc2d981b heartbeat successfully sent 
[2020-07-01 09:58:04][Info] CACO_CDP.Controllers.GoogleServiceController ECReport 
[2020-07-01 09:58:04][Info] CACO_CDP.Controllers.GoogleServiceController ECReport 
[2020-07-01 09:58:04][Info] CACO_CDP.Controllers.GoogleServiceController GetMmberInfo 
[2020-07-01 09:58:04][Info] CACO_CDP.Controllers.GoogleServiceController GetMmberInfo 
[2020-07-01 09:58:04][Info] CACO_CDP.Controllers.GoogleServiceController GetGAReport 
[2020-07-01 09:58:04][Info] CACO_CDP.Controllers.GoogleServiceController GetGAReport 
[2020-07-01 09:58:08][Info] CACO_CDP.Controllers.GoogleServiceController GetGAReport 
[2020-07-01 09:58:08][Info] CACO_CDP.Controllers.GoogleServiceController GetGAReport 
[2020-07-01 09:58:08][Info] CACO_CDP.Controllers.GoogleServiceController GetGAReport 
[2020-07-01 09:58:08][Info] CACO_CDP.Controllers.GoogleServiceController GetGAReport 
[2020-07-01 09:58:25][Debug] Hangfire.MySql.Core.CountersAggregator Aggregating records in 'Counter' table... 
[2020-07-01 09:58:25][Debug] Hangfire.Server.ServerHeartbeatProcess Server laptop-171103:19652:cc2d981b heartbeat successfully sent 
[2020-07-01 09:58:55][Debug] Hangfire.Server.ServerHeartbeatProcess Server laptop-171103:19652:cc2d981b heartbeat successfully sent 
[2020-07-01 09:59:25][Debug] Hangfire.Server.ServerHeartbeatProcess Server laptop-171103:19652:cc2d981b heartbeat successfully sent 
[2020-07-01 09:59:55][Debug] Hangfire.Server.ServerHeartbeatProcess Server laptop-171103:19652:cc2d981b heartbeat successfully sent 
[2020-07-01 12:50:22][Info] CACO_CDP.Program 啟動程式 
[2020-07-01 12:50:25][Info] Hangfire.MySql.Core.MySqlStorage DB tables already exist. Exit install 
[2020-07-01 12:50:25][Info] Hangfire.BackgroundJobServer Starting Hangfire Server using job storage: 'Server: 127.0.0.1@hangfire' 
[2020-07-01 12:50:25][Info] Hangfire.BackgroundJobServer Using the following options for SQL Server job storage: 
[2020-07-01 12:50:25][Info] Hangfire.BackgroundJobServer     Queue poll interval: 00:00:15. 
[2020-07-01 12:50:25][Info] Hangfire.BackgroundJobServer Using the following options for Hangfire Server:
    Worker count: 20
    Listening queues: 'default'
    Shutdown timeout: 00:00:15
    Schedule polling interval: 00:00:15 
[2020-07-01 12:50:25][Debug] Hangfire.Processing.BackgroundExecution Execution loop BackgroundServerProcess:fbadeb9e has started in 9.5443 ms 
[2020-07-01 12:50:25][Info] Hangfire.Server.BackgroundServerProcess Server laptop-171103:7596:0f276fd5 successfully announced in 370.11 ms 
[2020-07-01 12:50:25][Debug] Hangfire.Processing.BackgroundExecution Execution loop ServerHeartbeatProcess:b3f5cf64 has started in 5.3313 ms 
[2020-07-01 12:50:25][Info] Hangfire.Server.BackgroundServerProcess Server laptop-171103:7596:0f276fd5 is starting the registered dispatchers: ServerWatchdog, ServerJobCancellationWatcher, ExpirationManager, CountersAggregator, Worker, DelayedJobScheduler, RecurringJobScheduler... 
[2020-07-01 12:50:25][Debug] Hangfire.Processing.BackgroundExecution Execution loop ServerWatchdog:afeb6892 has started in 5.0827 ms 
[2020-07-01 12:50:25][Debug] Hangfire.Processing.BackgroundExecution Execution loop ServerJobCancellationWatcher:86174dad has started in 7.0144 ms 
[2020-07-01 12:50:25][Debug] Hangfire.Processing.BackgroundExecution Execution loop ExpirationManager:0775e365 has started in 7.0129 ms 
[2020-07-01 12:50:25][Debug] Hangfire.Processing.BackgroundExecution Execution loop CountersAggregator:dab9f090 has started in 8.5731 ms 
[2020-07-01 12:50:25][Info] Hangfire.Server.ServerWatchdog 1 servers were removed due to timeout 
[2020-07-01 12:50:25][Debug] Hangfire.MySql.Core.CountersAggregator Aggregating records in 'Counter' table... 
[2020-07-01 12:50:25][Debug] Hangfire.MySql.Core.ExpirationManager Removing outdated records from table 'Hangfire_AggregatedCounter'... 
[2020-07-01 12:50:25][Debug] Hangfire.Processing.BackgroundExecution Execution loop Worker:99386b75 has started in 9.1652 ms 
[2020-07-01 12:50:25][Debug] Hangfire.MySql.Core.ExpirationManager delete from `Hangfire_AggregatedCounter` where ExpireAt < @now limit @count; 
[2020-07-01 12:50:25][Info] Hangfire.Server.BackgroundServerProcess Server laptop-171103:7596:0f276fd5 all the dispatchers started 
[2020-07-01 12:50:25][Debug] Hangfire.Processing.BackgroundExecution Execution loop Worker:250c84f6 has started in 11.8921 ms 
[2020-07-01 12:50:25][Debug] Hangfire.MySql.Core.ExpirationManager removed records count=0 
[2020-07-01 12:50:25][Debug] Hangfire.Processing.BackgroundExecution Execution loop Worker:efdba6d0 has started in 20.8277 ms 
[2020-07-01 12:50:25][Debug] Hangfire.MySql.Core.ExpirationManager Removing outdated records from table 'Hangfire_Job'... 
[2020-07-01 12:50:25][Debug] Hangfire.Processing.BackgroundExecution Execution loop Worker:942371cc has started in 20.8172 ms 
[2020-07-01 12:50:25][Debug] Hangfire.MySql.Core.ExpirationManager delete from `Hangfire_Job` where ExpireAt < @now limit @count; 
[2020-07-01 12:50:25][Debug] Hangfire.Processing.BackgroundExecution Execution loop Worker:c78669db has started in 23.1747 ms 
[2020-07-01 12:50:25][Debug] Hangfire.Processing.BackgroundExecution Execution loop Worker:79b96dae has started in 28.9122 ms 
[2020-07-01 12:50:25][Debug] Hangfire.Processing.BackgroundExecution Execution loop Worker:32451354 has started in 33.4761 ms 
[2020-07-01 12:50:25][Debug] Hangfire.Processing.BackgroundExecution Execution loop Worker:586740ff has started in 37.2505 ms 
[2020-07-01 12:50:25][Debug] Hangfire.Processing.BackgroundExecution Execution loop Worker:f721cc35 has started in 41.1285 ms 
[2020-07-01 12:50:25][Debug] Hangfire.Processing.BackgroundExecution Execution loop Worker:d928520b has started in 44.8119 ms 
[2020-07-01 12:50:25][Debug] Hangfire.Processing.BackgroundExecution Execution loop Worker:3f96c00a has started in 49.6063 ms 
[2020-07-01 12:50:25][Debug] Hangfire.Processing.BackgroundExecution Execution loop Worker:1b0432b4 has started in 54.5243 ms 
[2020-07-01 12:50:25][Debug] Hangfire.Processing.BackgroundExecution Execution loop Worker:135f7c38 has started in 60.8178 ms 
[2020-07-01 12:50:25][Debug] Hangfire.Processing.BackgroundExecution Execution loop Worker:c477ac9d has started in 65.0769 ms 
[2020-07-01 12:50:25][Debug] Hangfire.Processing.BackgroundExecution Execution loop Worker:77a51bef has started in 68.5645 ms 
[2020-07-01 12:50:25][Debug] Hangfire.Processing.BackgroundExecution Execution loop Worker:51804c9b has started in 74.9927 ms 
[2020-07-01 12:50:25][Debug] Hangfire.Processing.BackgroundExecution Execution loop Worker:9cd28a4d has started in 78.0011 ms 
[2020-07-01 12:50:25][Debug] Hangfire.Processing.BackgroundExecution Execution loop Worker:af4f96fb has started in 83.274 ms 
[2020-07-01 12:50:25][Debug] Hangfire.Processing.BackgroundExecution Execution loop Worker:1cba7893 has started in 88.1811 ms 
[2020-07-01 12:50:25][Debug] Hangfire.Processing.BackgroundExecution Execution loop Worker:56e116e0 has started in 95.644 ms 
[2020-07-01 12:50:25][Debug] Hangfire.Processing.BackgroundExecution Execution loop DelayedJobScheduler:87b9e17e has started in 11.3302 ms 
[2020-07-01 12:50:25][Debug] Hangfire.Processing.BackgroundExecution Execution loop RecurringJobScheduler:8f4b4a52 has started in 9.2739 ms 
[2020-07-01 12:50:25][Debug] Hangfire.MySql.Core.ExpirationManager removed records count=0 
[2020-07-01 12:50:26][Debug] Hangfire.MySql.Core.ExpirationManager Removing outdated records from table 'Hangfire_List'... 
[2020-07-01 12:50:26][Debug] Hangfire.MySql.Core.ExpirationManager delete from `Hangfire_List` where ExpireAt < @now limit @count; 
[2020-07-01 12:50:26][Debug] Hangfire.MySql.Core.ExpirationManager removed records count=0 
[2020-07-01 12:50:26][Debug] Hangfire.MySql.Core.ExpirationManager Removing outdated records from table 'Hangfire_Set'... 
[2020-07-01 12:50:26][Debug] Hangfire.MySql.Core.ExpirationManager delete from `Hangfire_Set` where ExpireAt < @now limit @count; 
[2020-07-01 12:50:26][Debug] Hangfire.MySql.Core.ExpirationManager removed records count=0 
[2020-07-01 12:50:26][Debug] Hangfire.MySql.Core.ExpirationManager Removing outdated records from table 'Hangfire_Hash'... 
[2020-07-01 12:50:26][Debug] Hangfire.MySql.Core.ExpirationManager delete from `Hangfire_Hash` where ExpireAt < @now limit @count; 
[2020-07-01 12:50:26][Debug] Hangfire.MySql.Core.ExpirationManager removed records count=0 
