{
  "TMNEWA": {
    "Inbound": {
      "Mail": {
        "SmtpServer": "smtp.gmail.com",
        "SmtpPort": 587,
        "SmtpUsername": "caco.tealeaf@gmail.com",
        "SmtpPassword": "q+123456m+",
        "PopServer": "pop.gmail.com",
        "PopPort": 995,
        "PopUsername": "caco.tealeaf",
        "PopPassword": "q+123456m+",
        "ImapServer": "imap.gmail.com",
        "ImapPort": 993,
        "ImapUsername": "caco.tealeaf",
        "ImapPassword": "q+123456m+"
      },
      "Fax": {
        "SmtpServer": "smtp.gmail.com",
        "SmtpPort": 587,
        "SmtpUsername": "caco.tealeaf@gmail.com",
        "SmtpPassword": "q+123456m+",
        "PopServer": "pop.gmail.com",
        "PopPort": 995,
        "PopUsername": "caco.tealeaf",
        "PopPassword": "q+123456m+",
        "ImapServer": "imap.gmail.com",
        "ImapPort": 993,
        "ImapUsername": "caco.tealeaf",
        "ImapPassword": "q+123456m+"
      }
    },
    "Outbound": {
      "Mail": {
        "SmtpServer": "",
        "SmtpPort": 587,
        "SmtpUsername": "",
        "SmtpPassword": "q+123456m+",
        "PopServer": "pop.gmail.com",
        "PopPort": 995,
        "PopUsername": "caco.tealeaf",
        "PopPassword": "q+123456m+",
        "ImapServer": "imap.gmail.com",
        "ImapPort": 993,
        "ImapUsername": "caco.tealeaf",
        "ImapPassword": "q+123456m+"
      },
      "SMS": {
       
      }
    }
  }
}
